 # Detector n:            1   pipDG2    
 # N. of energy intervals         120
  9.9999997E-06  1.1220184E-05   0.000000       0.000000    
  1.1220184E-05  1.2589254E-05   0.000000       0.000000    
  1.2589254E-05  1.4125375E-05   0.000000       0.000000    
  1.4125375E-05  1.5848931E-05   0.000000       0.000000    
  1.5848931E-05  1.7782793E-05   0.000000       0.000000    
  1.7782793E-05  1.9952624E-05   0.000000       0.000000    
  1.9952624E-05  2.2387210E-05   0.000000       0.000000    
  2.2387210E-05  2.5118865E-05   0.000000       0.000000    
  2.5118865E-05  2.8183831E-05   0.000000       0.000000    
  2.8183831E-05  3.1622778E-05   0.000000       0.000000    
  3.1622778E-05  3.5481338E-05   0.000000       0.000000    
  3.5481338E-05  3.9810719E-05   0.000000       0.000000    
  3.9810719E-05  4.4668363E-05   0.000000       0.000000    
  4.4668363E-05  5.0118728E-05   0.000000       0.000000    
  5.0118728E-05  5.6234134E-05   0.000000       0.000000    
  5.6234134E-05  6.3095737E-05   0.000000       0.000000    
  6.3095737E-05  7.0794587E-05   0.000000       0.000000    
  7.0794587E-05  7.9432837E-05   0.000000       0.000000    
  7.9432837E-05  8.9125104E-05   0.000000       0.000000    
  8.9125104E-05  1.0000000E-04   0.000000       0.000000    
  1.0000000E-04  1.1220186E-04   0.000000       0.000000    
  1.1220186E-04  1.2589256E-04   0.000000       0.000000    
  1.2589256E-04  1.4125377E-04   0.000000       0.000000    
  1.4125377E-04  1.5848935E-04   0.000000       0.000000    
  1.5848935E-04  1.7782798E-04   0.000000       0.000000    
  1.7782798E-04  1.9952627E-04   0.000000       0.000000    
  1.9952627E-04  2.2387214E-04   0.000000       0.000000    
  2.2387214E-04  2.5118867E-04   0.000000       0.000000    
  2.5118867E-04  2.8183835E-04   0.000000       0.000000    
  2.8183835E-04  3.1622782E-04   0.000000       0.000000    
  3.1622782E-04  3.5481344E-04   0.000000       0.000000    
  3.5481344E-04  3.9810725E-04   0.000000       0.000000    
  3.9810725E-04  4.4668367E-04   0.000000       0.000000    
  4.4668367E-04  5.0118734E-04   0.000000       0.000000    
  5.0118734E-04  5.6234142E-04   0.000000       0.000000    
  5.6234142E-04  6.3095748E-04   0.000000       0.000000    
  6.3095748E-04  7.0794590E-04   0.000000       0.000000    
  7.0794590E-04  7.9432846E-04   0.000000       0.000000    
  7.9432846E-04  8.9125114E-04   0.000000       0.000000    
  8.9125114E-04  1.0000003E-03   0.000000       0.000000    
  1.0000003E-03  1.1220188E-03   0.000000       0.000000    
  1.1220188E-03  1.2589258E-03   0.000000       0.000000    
  1.2589258E-03  1.4125380E-03   0.000000       0.000000    
  1.4125380E-03  1.5848936E-03   0.000000       0.000000    
  1.5848936E-03  1.7782800E-03   0.000000       0.000000    
  1.7782800E-03  1.9952629E-03   0.000000       0.000000    
  1.9952629E-03  2.2387218E-03   0.000000       0.000000    
  2.2387218E-03  2.5118871E-03   0.000000       0.000000    
  2.5118871E-03  2.8183837E-03   0.000000       0.000000    
  2.8183837E-03  3.1622786E-03   0.000000       0.000000    
  3.1622786E-03  3.5481353E-03   0.000000       0.000000    
  3.5481353E-03  3.9810729E-03   0.000000       0.000000    
  3.9810729E-03  4.4668377E-03   0.000000       0.000000    
  4.4668377E-03  5.0118743E-03   0.000000       0.000000    
  5.0118743E-03  5.6234146E-03   0.000000       0.000000    
  5.6234146E-03  6.3095763E-03   0.000000       0.000000    
  6.3095763E-03  7.0794607E-03   0.000000       0.000000    
  7.0794607E-03  7.9432856E-03   0.000000       0.000000    
  7.9432856E-03  8.9125130E-03   0.000000       0.000000    
  8.9125130E-03  1.0000004E-02   0.000000       0.000000    
  1.0000004E-02  1.1220189E-02   0.000000       0.000000    
  1.1220189E-02  1.2589260E-02   0.000000       0.000000    
  1.2589260E-02  1.4125382E-02   0.000000       0.000000    
  1.4125382E-02  1.5848938E-02  2.1371108E-02   99.00000    
  1.5848938E-02  1.7782802E-02   0.000000       0.000000    
  1.7782802E-02  1.9952632E-02  4.9549285E-03   96.72620    
  1.9952632E-02  2.2387221E-02   0.000000       0.000000    
  2.2387221E-02  2.5118876E-02   0.000000       0.000000    
  2.5118876E-02  2.8183842E-02   0.000000       0.000000    
  2.8183842E-02  3.1622794E-02   0.000000       0.000000    
  3.1622794E-02  3.5481352E-02   0.000000       0.000000    
  3.5481352E-02  3.9810736E-02  3.0395696E-02   69.24807    
  3.9810736E-02  4.4668384E-02  2.4086058E-03   68.56626    
  4.4668384E-02  5.0118748E-02  1.1765881E-03   96.72620    
  5.0118748E-02  5.6234159E-02  1.2216807E-04   71.62037    
  5.6234159E-02  6.3095763E-02   0.000000       0.000000    
  6.3095763E-02  7.0794620E-02  4.0691998E-03   68.38439    
  7.0794620E-02  7.9432867E-02  9.9048140E-03   92.06213    
  7.9432867E-02  8.9125134E-02  3.3632857E-03   99.00000    
  8.9125134E-02  0.1000001       0.000000       0.000000    
  0.1000001      0.1122019      2.0200778E-02   55.61720    
  0.1122019      0.1258926       0.000000       0.000000    
  0.1258926      0.1412538      1.5788272E-02   53.44421    
  0.1412538      0.1584894      3.2519712E-03   63.45761    
  0.1584894      0.1778280      7.7148648E-03   65.44817    
  0.1778280      0.1995264      2.2459698E-03   79.94781    
  0.1995264      0.2238722       0.000000       0.000000    
  0.2238722      0.2511888      3.3263073E-03   85.24848    
  0.2511888      0.2818385      3.0873534E-03   72.07189    
  0.2818385      0.3162280      3.3659106E-03   85.59716    
  0.3162280      0.3548136       0.000000       0.000000    
  0.3548136      0.3981074       0.000000       0.000000    
  0.3981074      0.4466839       0.000000       0.000000    
  0.4466839      0.5011876       0.000000       0.000000    
  0.5011876      0.5623417       0.000000       0.000000    
  0.5623417      0.6309578       0.000000       0.000000    
  0.6309578      0.7079462       0.000000       0.000000    
  0.7079462      0.7943288       0.000000       0.000000    
  0.7943288      0.8912516       0.000000       0.000000    
  0.8912516       1.000001       0.000000       0.000000    
   1.000001       1.122019       0.000000       0.000000    
   1.122019       1.258926       0.000000       0.000000    
   1.258926       1.412539       0.000000       0.000000    
   1.412539       1.584894       0.000000       0.000000    
   1.584894       1.778281       0.000000       0.000000    
   1.778281       1.995264       0.000000       0.000000    
   1.995264       2.238723       0.000000       0.000000    
   2.238723       2.511888       0.000000       0.000000    
   2.511888       2.818385       0.000000       0.000000    
   2.818385       3.162280       0.000000       0.000000    
   3.162280       3.548136       0.000000       0.000000    
   3.548136       3.981075       0.000000       0.000000    
   3.981075       4.466839       0.000000       0.000000    
   4.466839       5.011876       0.000000       0.000000    
   5.011876       5.623418       0.000000       0.000000    
   5.623418       6.309578       0.000000       0.000000    
   6.309578       7.079463       0.000000       0.000000    
   7.079463       7.943289       0.000000       0.000000    
   7.943289       8.912516       0.000000       0.000000    
   8.912516       10.00001       0.000000       0.000000    


 # Detector n:            2   pimDG2    
 # N. of energy intervals         120
  9.9999997E-06  1.1220184E-05   0.000000       0.000000    
  1.1220184E-05  1.2589254E-05   0.000000       0.000000    
  1.2589254E-05  1.4125375E-05   0.000000       0.000000    
  1.4125375E-05  1.5848931E-05   0.000000       0.000000    
  1.5848931E-05  1.7782793E-05   0.000000       0.000000    
  1.7782793E-05  1.9952624E-05   0.000000       0.000000    
  1.9952624E-05  2.2387210E-05   0.000000       0.000000    
  2.2387210E-05  2.5118865E-05   0.000000       0.000000    
  2.5118865E-05  2.8183831E-05   0.000000       0.000000    
  2.8183831E-05  3.1622778E-05   0.000000       0.000000    
  3.1622778E-05  3.5481338E-05   0.000000       0.000000    
  3.5481338E-05  3.9810719E-05   0.000000       0.000000    
  3.9810719E-05  4.4668363E-05   0.000000       0.000000    
  4.4668363E-05  5.0118728E-05   0.000000       0.000000    
  5.0118728E-05  5.6234134E-05   0.000000       0.000000    
  5.6234134E-05  6.3095737E-05   0.000000       0.000000    
  6.3095737E-05  7.0794587E-05   0.000000       0.000000    
  7.0794587E-05  7.9432837E-05   0.000000       0.000000    
  7.9432837E-05  8.9125104E-05   0.000000       0.000000    
  8.9125104E-05  1.0000000E-04   0.000000       0.000000    
  1.0000000E-04  1.1220186E-04   0.000000       0.000000    
  1.1220186E-04  1.2589256E-04   0.000000       0.000000    
  1.2589256E-04  1.4125377E-04   0.000000       0.000000    
  1.4125377E-04  1.5848935E-04   0.000000       0.000000    
  1.5848935E-04  1.7782798E-04   0.000000       0.000000    
  1.7782798E-04  1.9952627E-04   0.000000       0.000000    
  1.9952627E-04  2.2387214E-04   0.000000       0.000000    
  2.2387214E-04  2.5118867E-04   0.000000       0.000000    
  2.5118867E-04  2.8183835E-04   0.000000       0.000000    
  2.8183835E-04  3.1622782E-04   0.000000       0.000000    
  3.1622782E-04  3.5481344E-04   0.000000       0.000000    
  3.5481344E-04  3.9810725E-04   0.000000       0.000000    
  3.9810725E-04  4.4668367E-04   0.000000       0.000000    
  4.4668367E-04  5.0118734E-04   0.000000       0.000000    
  5.0118734E-04  5.6234142E-04   0.000000       0.000000    
  5.6234142E-04  6.3095748E-04   0.000000       0.000000    
  6.3095748E-04  7.0794590E-04   0.000000       0.000000    
  7.0794590E-04  7.9432846E-04   0.000000       0.000000    
  7.9432846E-04  8.9125114E-04   0.000000       0.000000    
  8.9125114E-04  1.0000003E-03   0.000000       0.000000    
  1.0000003E-03  1.1220188E-03   0.000000       0.000000    
  1.1220188E-03  1.2589258E-03   0.000000       0.000000    
  1.2589258E-03  1.4125380E-03   0.000000       0.000000    
  1.4125380E-03  1.5848936E-03   0.000000       0.000000    
  1.5848936E-03  1.7782800E-03   0.000000       0.000000    
  1.7782800E-03  1.9952629E-03   0.000000       0.000000    
  1.9952629E-03  2.2387218E-03   0.000000       0.000000    
  2.2387218E-03  2.5118871E-03   0.000000       0.000000    
  2.5118871E-03  2.8183837E-03   0.000000       0.000000    
  2.8183837E-03  3.1622786E-03   0.000000       0.000000    
  3.1622786E-03  3.5481353E-03   0.000000       0.000000    
  3.5481353E-03  3.9810729E-03   0.000000       0.000000    
  3.9810729E-03  4.4668377E-03   0.000000       0.000000    
  4.4668377E-03  5.0118743E-03   0.000000       0.000000    
  5.0118743E-03  5.6234146E-03   0.000000       0.000000    
  5.6234146E-03  6.3095763E-03   0.000000       0.000000    
  6.3095763E-03  7.0794607E-03   0.000000       0.000000    
  7.0794607E-03  7.9432856E-03   0.000000       0.000000    
  7.9432856E-03  8.9125130E-03  1.6452473E-02   96.72620    
  8.9125130E-03  1.0000004E-02  4.9755301E-02   96.72620    
  1.0000004E-02  1.1220189E-02   0.000000       0.000000    
  1.1220189E-02  1.2589260E-02   0.000000       0.000000    
  1.2589260E-02  1.4125382E-02  4.5951587E-04   96.72620    
  1.4125382E-02  1.5848938E-02   0.000000       0.000000    
  1.5848938E-02  1.7782802E-02   0.000000       0.000000    
  1.7782802E-02  1.9952632E-02   0.000000       0.000000    
  1.9952632E-02  2.2387221E-02   0.000000       0.000000    
  2.2387221E-02  2.5118876E-02   0.000000       0.000000    
  2.5118876E-02  2.8183842E-02   0.000000       0.000000    
  2.8183842E-02  3.1622794E-02   0.000000       0.000000    
  3.1622794E-02  3.5481352E-02   0.000000       0.000000    
  3.5481352E-02  3.9810736E-02   0.000000       0.000000    
  3.9810736E-02  4.4668384E-02   0.000000       0.000000    
  4.4668384E-02  5.0118748E-02   0.000000       0.000000    
  5.0118748E-02  5.6234159E-02   0.000000       0.000000    
  5.6234159E-02  6.3095763E-02   0.000000       0.000000    
  6.3095763E-02  7.0794620E-02   0.000000       0.000000    
  7.0794620E-02  7.9432867E-02  1.7971521E-02   68.38617    
  7.9432867E-02  8.9125134E-02  1.4547545E-02   78.65575    
  8.9125134E-02  0.1000001      6.5941070E-03   80.44914    
  0.1000001      0.1122019      3.5231675E-03   52.42827    
  0.1122019      0.1258926      1.8836655E-04   82.37186    
  0.1258926      0.1412538      5.2813743E-03   71.45834    
  0.1412538      0.1584894      4.4466387E-03   96.72620    
  0.1584894      0.1778280       0.000000       0.000000    
  0.1778280      0.1995264       0.000000       0.000000    
  0.1995264      0.2238722      2.5138091E-03   76.19284    
  0.2238722      0.2511888       0.000000       0.000000    
  0.2511888      0.2818385      4.2607738E-03   70.02142    
  0.2818385      0.3162280      6.7367026E-04   99.00000    
  0.3162280      0.3548136      2.5457712E-03   74.67051    
  0.3548136      0.3981074       0.000000       0.000000    
  0.3981074      0.4466839       0.000000       0.000000    
  0.4466839      0.5011876      3.8700763E-04   99.00000    
  0.5011876      0.5623417      9.8958449E-04   96.72620    
  0.5623417      0.6309578       0.000000       0.000000    
  0.6309578      0.7079462       0.000000       0.000000    
  0.7079462      0.7943288       0.000000       0.000000    
  0.7943288      0.8912516       0.000000       0.000000    
  0.8912516       1.000001       0.000000       0.000000    
   1.000001       1.122019       0.000000       0.000000    
   1.122019       1.258926       0.000000       0.000000    
   1.258926       1.412539       0.000000       0.000000    
   1.412539       1.584894       0.000000       0.000000    
   1.584894       1.778281       0.000000       0.000000    
   1.778281       1.995264       0.000000       0.000000    
   1.995264       2.238723       0.000000       0.000000    
   2.238723       2.511888       0.000000       0.000000    
   2.511888       2.818385       0.000000       0.000000    
   2.818385       3.162280       0.000000       0.000000    
   3.162280       3.548136       0.000000       0.000000    
   3.548136       3.981075       0.000000       0.000000    
   3.981075       4.466839       0.000000       0.000000    
   4.466839       5.011876       0.000000       0.000000    
   5.011876       5.623418       0.000000       0.000000    
   5.623418       6.309578       0.000000       0.000000    
   6.309578       7.079463       0.000000       0.000000    
   7.079463       7.943289       0.000000       0.000000    
   7.943289       8.912516       0.000000       0.000000    
   8.912516       10.00001       0.000000       0.000000    


 # Detector n:            3   prDG2     
 # N. of energy intervals         120
  9.9999997E-06  1.1220184E-05   0.000000       0.000000    
  1.1220184E-05  1.2589254E-05   0.000000       0.000000    
  1.2589254E-05  1.4125375E-05   0.000000       0.000000    
  1.4125375E-05  1.5848931E-05   0.000000       0.000000    
  1.5848931E-05  1.7782793E-05   0.000000       0.000000    
  1.7782793E-05  1.9952624E-05   0.000000       0.000000    
  1.9952624E-05  2.2387210E-05   0.000000       0.000000    
  2.2387210E-05  2.5118865E-05   0.000000       0.000000    
  2.5118865E-05  2.8183831E-05   0.000000       0.000000    
  2.8183831E-05  3.1622778E-05   0.000000       0.000000    
  3.1622778E-05  3.5481338E-05   0.000000       0.000000    
  3.5481338E-05  3.9810719E-05   0.000000       0.000000    
  3.9810719E-05  4.4668363E-05   0.000000       0.000000    
  4.4668363E-05  5.0118728E-05   2.702671       8.344925    
  5.0118728E-05  5.6234134E-05   0.000000       0.000000    
  5.6234134E-05  6.3095737E-05   0.000000       0.000000    
  6.3095737E-05  7.0794587E-05   0.000000       0.000000    
  7.0794587E-05  7.9432837E-05   0.000000       0.000000    
  7.9432837E-05  8.9125104E-05  4.1488241E-03   96.72620    
  8.9125104E-05  1.0000000E-04  7.2551379E-04   20.25500    
  1.0000000E-04  1.1220186E-04  0.1126655       8.633253    
  1.1220186E-04  1.2589256E-04  0.1110231       8.742878    
  1.2589256E-04  1.4125377E-04  0.1171115       8.638052    
  1.4125377E-04  1.5848935E-04  0.1170467       8.571320    
  1.5848935E-04  1.7782798E-04  0.1190006       8.452618    
  1.7782798E-04  1.9952627E-04  0.1232666       8.469687    
  1.9952627E-04  2.2387214E-04  0.1328258       8.420905    
  2.2387214E-04  2.5118867E-04  0.1416001       8.542440    
  2.5118867E-04  2.8183835E-04  0.1508260       8.652435    
  2.8183835E-04  3.1622782E-04  0.1592203       8.397950    
  3.1622782E-04  3.5481344E-04  0.1829905       8.696280    
  3.5481344E-04  3.9810725E-04  0.1950877       8.686763    
  3.9810725E-04  4.4668367E-04  0.2152536       8.729850    
  4.4668367E-04  5.0118734E-04  0.2677451       9.039730    
  5.0118734E-04  5.6234142E-04  0.2643969       8.633567    
  5.6234142E-04  6.3095748E-04  5.3518653E-02   19.58366    
  6.3095748E-04  7.0794590E-04  5.3986095E-02   19.07367    
  7.0794590E-04  7.9432846E-04  6.0194969E-02   19.44127    
  7.9432846E-04  8.9125114E-04  6.2661283E-02   19.30302    
  8.9125114E-04  1.0000003E-03  6.5666281E-02   18.47883    
  1.0000003E-03  1.1220188E-03  6.9143832E-02   19.24572    
  1.1220188E-03  1.2589258E-03  7.9438895E-02   19.38929    
  1.2589258E-03  1.4125380E-03  8.4304653E-02   19.94170    
  1.4125380E-03  1.5848936E-03  8.6943597E-02   19.95603    
  1.5848936E-03  1.7782800E-03  9.0718351E-02   19.86626    
  1.7782800E-03  1.9952629E-03  9.8589316E-02   20.52830    
  1.9952629E-03  2.2387218E-03  0.1058735       20.65238    
  2.2387218E-03  2.5118871E-03  9.9352635E-02   20.93113    
  2.5118871E-03  2.8183837E-03  0.1073641       20.82242    
  2.8183837E-03  3.1622786E-03  0.1244162       21.32677    
  3.1622786E-03  3.5481353E-03  0.1348290       22.65755    
  3.5481353E-03  3.9810729E-03  0.1276377       22.23443    
  3.9810729E-03  4.4668377E-03  0.1344869       22.12181    
  4.4668377E-03  5.0118743E-03  0.1767848       21.08280    
  5.0118743E-03  5.6234146E-03  0.1583215       22.68000    
  5.6234146E-03  6.3095763E-03  0.2034957       22.73394    
  6.3095763E-03  7.0794607E-03  0.1501704       25.97285    
  7.0794607E-03  7.9432856E-03  0.1809963       23.37423    
  7.9432856E-03  8.9125130E-03  0.2106633       22.37895    
  8.9125130E-03  1.0000004E-02  0.1934421       24.96394    
  1.0000004E-02  1.1220189E-02  0.1446339       28.80881    
  1.1220189E-02  1.2589260E-02  0.1471928       29.83081    
  1.2589260E-02  1.4125382E-02  0.1760856       27.84681    
  1.4125382E-02  1.5848938E-02  0.1867964       26.40736    
  1.5848938E-02  1.7782802E-02  0.1933676       30.18049    
  1.7782802E-02  1.9952632E-02  0.2380300       29.17435    
  1.9952632E-02  2.2387221E-02  0.2292470       27.21239    
  2.2387221E-02  2.5118876E-02  0.3249687       22.70265    
  2.5118876E-02  2.8183842E-02  0.2745324       23.69287    
  2.8183842E-02  3.1622794E-02  0.1953718       24.57751    
  3.1622794E-02  3.5481352E-02  0.2962358       21.18960    
  3.5481352E-02  3.9810736E-02  0.1863663       24.84479    
  3.9810736E-02  4.4668384E-02  0.2929789       20.27230    
  4.4668384E-02  5.0118748E-02  0.2154123       21.67243    
  5.0118748E-02  5.6234159E-02  0.1020606       31.75434    
  5.6234159E-02  6.3095763E-02  0.1345651       23.54494    
  6.3095763E-02  7.0794620E-02  0.1239952       23.60456    
  7.0794620E-02  7.9432867E-02  0.1262988       23.68619    
  7.9432867E-02  8.9125134E-02  0.1196756       22.35620    
  8.9125134E-02  0.1000001      8.8437781E-02   24.90969    
  0.1000001      0.1122019      0.1287684       19.30361    
  0.1122019      0.1258926      8.0105536E-02   22.02633    
  0.1258926      0.1412538      4.5393880E-02   29.71714    
  0.1412538      0.1584894      3.5058986E-02   34.31353    
  0.1584894      0.1778280      4.5893006E-02   24.49637    
  0.1778280      0.1995264      3.8153917E-02   26.49763    
  0.1995264      0.2238722      1.1908834E-02   44.60306    
  0.2238722      0.2511888      8.3677387E-03   46.90709    
  0.2511888      0.2818385      1.6256005E-02   31.90214    
  0.2818385      0.3162280      5.3325500E-03   53.62638    
  0.3162280      0.3548136      6.8841185E-03   45.72802    
  0.3548136      0.3981074      6.4393337E-04   86.91937    
  0.3981074      0.4466839      2.3444754E-03   84.76240    
  0.4466839      0.5011876      2.8045577E-04   96.72620    
  0.5011876      0.5623417      7.2288688E-04   80.53631    
  0.5623417      0.6309578      1.5234643E-04   96.72620    
  0.6309578      0.7079462      7.8621734E-04   96.72620    
  0.7079462      0.7943288      8.1876962E-04   96.72620    
  0.7943288      0.8912516      4.9610750E-04   99.00000    
  0.8912516       1.000001       0.000000       0.000000    
   1.000001       1.122019       0.000000       0.000000    
   1.122019       1.258926       0.000000       0.000000    
   1.258926       1.412539      4.6016646E-04   96.72620    
   1.412539       1.584894       0.000000       0.000000    
   1.584894       1.778281       0.000000       0.000000    
   1.778281       1.995264       0.000000       0.000000    
   1.995264       2.238723       0.000000       0.000000    
   2.238723       2.511888       0.000000       0.000000    
   2.511888       2.818385       0.000000       0.000000    
   2.818385       3.162280       0.000000       0.000000    
   3.162280       3.548136       0.000000       0.000000    
   3.548136       3.981075       0.000000       0.000000    
   3.981075       4.466839       0.000000       0.000000    
   4.466839       5.011876       0.000000       0.000000    
   5.011876       5.623418       0.000000       0.000000    
   5.623418       6.309578       0.000000       0.000000    
   6.309578       7.079463       0.000000       0.000000    
   7.079463       7.943289       0.000000       0.000000    
   7.943289       8.912516       0.000000       0.000000    
   8.912516       10.00001       0.000000       0.000000    


 # Detector n:            4   phDG2     
 # N. of energy intervals         120
  9.9999997E-06  1.1220184E-05   40.98646       68.62242    
  1.1220184E-05  1.2589254E-05   178.0637       48.02185    
  1.2589254E-05  1.4125375E-05   309.4896       36.39425    
  1.4125375E-05  1.5848931E-05   253.3594       38.58679    
  1.5848931E-05  1.7782793E-05   414.3510       30.63390    
  1.7782793E-05  1.9952624E-05   347.8925       27.52278    
  1.9952624E-05  2.2387210E-05   281.9103       25.37843    
  2.2387210E-05  2.5118865E-05   662.6323       17.94752    
  2.5118865E-05  2.8183831E-05   592.4529       17.26248    
  2.8183831E-05  3.1622778E-05   778.9753       15.40275    
  3.1622778E-05  3.5481338E-05   991.2774       12.10949    
  3.5481338E-05  3.9810719E-05   1748.202       8.793947    
  3.9810719E-05  4.4668363E-05   2614.284       6.637860    
  4.4668363E-05  5.0118728E-05   4066.365       5.088331    
  5.0118728E-05  5.6234134E-05   5909.810       4.014072    
  5.6234134E-05  6.3095737E-05   8220.269       3.265654    
  6.3095737E-05  7.0794587E-05   11112.13       2.589726    
  7.0794587E-05  7.9432837E-05   13137.49       2.290156    
  7.9432837E-05  8.9125104E-05   15245.68       1.966847    
  8.9125104E-05  1.0000000E-04   17104.56       1.828080    
  1.0000000E-04  1.1220186E-04   19009.71       1.611384    
  1.1220186E-04  1.2589256E-04   19512.04       1.520116    
  1.2589256E-04  1.4125377E-04   19350.28       1.410917    
  1.4125377E-04  1.5848935E-04   18611.89       1.391846    
  1.5848935E-04  1.7782798E-04   17883.53       1.334535    
  1.7782798E-04  1.9952627E-04   16419.00       1.329757    
  1.9952627E-04  2.2387214E-04   14212.05       1.315146    
  2.2387214E-04  2.5118867E-04   12346.22       1.355342    
  2.5118867E-04  2.8183835E-04   10065.58       1.425521    
  2.8183835E-04  3.1622782E-04   8598.604       1.440967    
  3.1622782E-04  3.5481344E-04   7491.522       1.422568    
  3.5481344E-04  3.9810725E-04   6533.831       1.448514    
  3.9810725E-04  4.4668367E-04   5886.481       1.455601    
  4.4668367E-04  5.0118734E-04   10041.32       1.033529    
  5.0118734E-04  5.6234142E-04   6634.992       1.253081    
  5.6234142E-04  6.3095748E-04   2283.572       1.996347    
  6.3095748E-04  7.0794590E-04   1970.132       1.968500    
  7.0794590E-04  7.9432846E-04   1930.083       1.912747    
  7.9432846E-04  8.9125114E-04   2140.690       1.762947    
  8.9125114E-04  1.0000003E-03   1928.926       1.681981    
  1.0000003E-03  1.1220188E-03   1173.409       2.080816    
  1.1220188E-03  1.2589258E-03   1094.776       2.052451    
  1.2589258E-03  1.4125380E-03   1099.156       1.903258    
  1.4125380E-03  1.5848936E-03   883.5717       2.007692    
  1.5848936E-03  1.7782800E-03   738.8224       2.062674    
  1.7782800E-03  1.9952629E-03   714.2806       2.009997    
  1.9952629E-03  2.2387218E-03   641.8464       1.992944    
  2.2387218E-03  2.5118871E-03   537.9967       2.037991    
  2.5118871E-03  2.8183837E-03   411.9023       2.230922    
  2.8183837E-03  3.1622786E-03   380.2169       2.209472    
  3.1622786E-03  3.5481353E-03   315.2760       2.233347    
  3.5481353E-03  3.9810729E-03   317.1944       2.123185    
  3.9810729E-03  4.4668377E-03   255.9737       2.214911    
  4.4668377E-03  5.0118743E-03   226.7613       2.227024    
  5.0118743E-03  5.6234146E-03   172.7979       2.368691    
  5.6234146E-03  6.3095763E-03   190.3318       2.175271    
  6.3095763E-03  7.0794607E-03   136.9188       2.386902    
  7.0794607E-03  7.9432856E-03   269.4897       1.638998    
  7.9432856E-03  8.9125130E-03   60.56467       3.260047    
  8.9125130E-03  1.0000004E-02   40.97396       3.718352    
  1.0000004E-02  1.1220189E-02   4.843777       10.18780    
  1.1220189E-02  1.2589260E-02   2.911132       11.75040    
  1.2589260E-02  1.4125382E-02   1.944329       13.76128    
  1.4125382E-02  1.5848938E-02   1.771273       13.67616    
  1.5848938E-02  1.7782802E-02  0.9425382       18.26225    
  1.7782802E-02  1.9952632E-02  0.8238581       16.93798    
  1.9952632E-02  2.2387221E-02  0.6445329       24.26766    
  2.2387221E-02  2.5118876E-02  0.5690878       20.19851    
  2.5118876E-02  2.8183842E-02  0.2759777       27.07848    
  2.8183842E-02  3.1622794E-02  0.2461388       26.35488    
  3.1622794E-02  3.5481352E-02  0.1693745       28.07254    
  3.5481352E-02  3.9810736E-02  0.1743347       27.89271    
  3.9810736E-02  4.4668384E-02  0.1714435       26.27582    
  4.4668384E-02  5.0118748E-02  0.1281380       28.76151    
  5.0118748E-02  5.6234159E-02  0.1401353       27.10891    
  5.6234159E-02  6.3095763E-02  5.4575495E-02   44.18534    
  6.3095763E-02  7.0794620E-02  5.0226595E-02   42.34576    
  7.0794620E-02  7.9432867E-02  3.1802483E-02   52.33101    
  7.9432867E-02  8.9125134E-02  4.1478094E-02   39.58857    
  8.9125134E-02  0.1000001      2.0620018E-02   48.48673    
  0.1000001      0.1122019      4.1489508E-02   33.88330    
  0.1122019      0.1258926      4.6381589E-02   31.19649    
  0.1258926      0.1412538      2.2009354E-02   42.24062    
  0.1412538      0.1584894      6.1170217E-03   63.02086    
  0.1584894      0.1778280      2.3266796E-03   74.59600    
  0.1778280      0.1995264      1.3378647E-03   96.72620    
  0.1995264      0.2238722      5.6075933E-03   68.89636    
  0.2238722      0.2511888      6.9686612E-03   56.85402    
  0.2511888      0.2818385      1.6984257E-03   68.57478    
  0.2818385      0.3162280      3.5642495E-03   69.28762    
  0.3162280      0.3548136       0.000000       0.000000    
  0.3548136      0.3981074      5.1583134E-04   96.72620    
  0.3981074      0.4466839       0.000000       0.000000    
  0.4466839      0.5011876       0.000000       0.000000    
  0.5011876      0.5623417       0.000000       0.000000    
  0.5623417      0.6309578       0.000000       0.000000    
  0.6309578      0.7079462       0.000000       0.000000    
  0.7079462      0.7943288       0.000000       0.000000    
  0.7943288      0.8912516       0.000000       0.000000    
  0.8912516       1.000001       0.000000       0.000000    
   1.000001       1.122019       0.000000       0.000000    
   1.122019       1.258926       0.000000       0.000000    
   1.258926       1.412539       0.000000       0.000000    
   1.412539       1.584894       0.000000       0.000000    
   1.584894       1.778281       0.000000       0.000000    
   1.778281       1.995264       0.000000       0.000000    
   1.995264       2.238723       0.000000       0.000000    
   2.238723       2.511888       0.000000       0.000000    
   2.511888       2.818385       0.000000       0.000000    
   2.818385       3.162280       0.000000       0.000000    
   3.162280       3.548136       0.000000       0.000000    
   3.548136       3.981075       0.000000       0.000000    
   3.981075       4.466839       0.000000       0.000000    
   4.466839       5.011876       0.000000       0.000000    
   5.011876       5.623418       0.000000       0.000000    
   5.623418       6.309578       0.000000       0.000000    
   6.309578       7.079463       0.000000       0.000000    
   7.079463       7.943289       0.000000       0.000000    
   7.943289       8.912516       0.000000       0.000000    
   8.912516       10.00001       0.000000       0.000000    


 # Detector n:            5   epDG2     
 # N. of energy intervals         120
  9.9999997E-06  1.1220184E-05   0.000000       0.000000    
  1.1220184E-05  1.2589254E-05   0.000000       0.000000    
  1.2589254E-05  1.4125375E-05   0.000000       0.000000    
  1.4125375E-05  1.5848931E-05   0.000000       0.000000    
  1.5848931E-05  1.7782793E-05   0.000000       0.000000    
  1.7782793E-05  1.9952624E-05   0.000000       0.000000    
  1.9952624E-05  2.2387210E-05  0.5003076       56.49332    
  2.2387210E-05  2.5118865E-05   2.314390       26.21032    
  2.5118865E-05  2.8183831E-05   22.96697       7.374576    
  2.8183831E-05  3.1622778E-05   121.1503       3.711099    
  3.1622778E-05  3.5481338E-05   105.3148       3.934129    
  3.5481338E-05  3.9810719E-05   114.6527       4.000625    
  3.9810719E-05  4.4668363E-05   106.5363       4.147963    
  4.4668363E-05  5.0118728E-05   119.7064       4.196641    
  5.0118728E-05  5.6234134E-05   112.3918       4.268972    
  5.6234134E-05  6.3095737E-05   112.1121       4.578146    
  6.3095737E-05  7.0794587E-05   111.6036       4.717856    
  7.0794587E-05  7.9432837E-05   115.9861       4.666733    
  7.9432837E-05  8.9125104E-05   119.0953       4.975850    
  8.9125104E-05  1.0000000E-04   115.6972       5.060830    
  1.0000000E-04  1.1220186E-04   117.6008       5.132737    
  1.1220186E-04  1.2589256E-04   115.4343       5.210730    
  1.2589256E-04  1.4125377E-04   104.9444       5.565363    
  1.4125377E-04  1.5848935E-04   112.3513       5.488940    
  1.5848935E-04  1.7782798E-04   92.73297       5.678045    
  1.7782798E-04  1.9952627E-04   98.98449       5.336424    
  1.9952627E-04  2.2387214E-04   96.68070       5.404886    
  2.2387214E-04  2.5118867E-04   96.49656       5.546776    
  2.5118867E-04  2.8183835E-04   82.44942       5.898770    
  2.8183835E-04  3.1622782E-04   78.48018       6.192848    
  3.1622782E-04  3.5481344E-04   74.12991       6.261425    
  3.5481344E-04  3.9810725E-04   66.12776       6.904515    
  3.9810725E-04  4.4668367E-04   64.28835       6.995857    
  4.4668367E-04  5.0118734E-04   61.50764       6.919308    
  5.0118734E-04  5.6234142E-04   58.41571       7.424925    
  5.6234142E-04  6.3095748E-04   52.39934       7.627102    
  6.3095748E-04  7.0794590E-04   49.03297       7.998290    
  7.0794590E-04  7.9432846E-04   44.99131       8.227635    
  7.9432846E-04  8.9125114E-04   42.79695       8.097036    
  8.9125114E-04  1.0000003E-03   38.31155       8.117487    
  1.0000003E-03  1.1220188E-03   33.99043       9.123124    
  1.1220188E-03  1.2589258E-03   29.00924       9.284564    
  1.2589258E-03  1.4125380E-03   25.88201       9.770334    
  1.4125380E-03  1.5848936E-03   24.65553       9.301302    
  1.5848936E-03  1.7782800E-03   27.20770       9.214548    
  1.7782800E-03  1.9952629E-03   21.55725       10.21856    
  1.9952629E-03  2.2387218E-03   21.11606       9.945872    
  2.2387218E-03  2.5118871E-03   15.73540       10.49986    
  2.5118871E-03  2.8183837E-03   14.98181       10.40228    
  2.8183837E-03  3.1622786E-03   14.76891       10.06358    
  3.1622786E-03  3.5481353E-03   11.29662       11.64515    
  3.5481353E-03  3.9810729E-03   10.83616       10.15854    
  3.9810729E-03  4.4668377E-03   8.637176       11.35132    
  4.4668377E-03  5.0118743E-03   7.623740       11.15501    
  5.0118743E-03  5.6234146E-03   5.556770       12.36192    
  5.6234146E-03  6.3095763E-03   3.936041       14.18811    
  6.3095763E-03  7.0794607E-03   3.737291       12.95465    
  7.0794607E-03  7.9432856E-03   2.924659       15.18868    
  7.9432856E-03  8.9125130E-03   2.109031       17.39210    
  8.9125130E-03  1.0000004E-02   1.740632       16.80362    
  1.0000004E-02  1.1220189E-02   1.456603       18.82877    
  1.1220189E-02  1.2589260E-02   1.433546       18.18713    
  1.2589260E-02  1.4125382E-02  0.9866529       20.06348    
  1.4125382E-02  1.5848938E-02  0.9247241       19.77035    
  1.5848938E-02  1.7782802E-02  0.5175577       21.82731    
  1.7782802E-02  1.9952632E-02  0.3773983       27.57582    
  1.9952632E-02  2.2387221E-02  0.5634774       20.40170    
  2.2387221E-02  2.5118876E-02  0.3513471       23.49020    
  2.5118876E-02  2.8183842E-02  0.2082593       31.31460    
  2.8183842E-02  3.1622794E-02  0.2019898       28.93044    
  3.1622794E-02  3.5481352E-02  0.1174775       34.68041    
  3.5481352E-02  3.9810736E-02  0.1110569       35.96239    
  3.9810736E-02  4.4668384E-02  9.4996773E-02   33.92232    
  4.4668384E-02  5.0118748E-02  7.2358727E-02   41.14411    
  5.0118748E-02  5.6234159E-02  5.3548370E-02   37.71447    
  5.6234159E-02  6.3095763E-02  2.1193758E-02   58.25388    
  6.3095763E-02  7.0794620E-02  2.2831166E-02   44.53609    
  7.0794620E-02  7.9432867E-02  1.0549147E-02   58.13663    
  7.9432867E-02  8.9125134E-02  7.2387704E-03   96.72620    
  8.9125134E-02  0.1000001      1.4191800E-03   96.72620    
  0.1000001      0.1122019      5.7939836E-03   96.31741    
  0.1122019      0.1258926      7.8242989E-03   73.75895    
  0.1258926      0.1412538       0.000000       0.000000    
  0.1412538      0.1584894      2.4221269E-03   96.72620    
  0.1584894      0.1778280      4.7809151E-03   76.88745    
  0.1778280      0.1995264      3.5238289E-03   96.72620    
  0.1995264      0.2238722      2.8563440E-03   96.72620    
  0.2238722      0.2511888      2.6245390E-03   96.72620    
  0.2511888      0.2818385       0.000000       0.000000    
  0.2818385      0.3162280       0.000000       0.000000    
  0.3162280      0.3548136       0.000000       0.000000    
  0.3548136      0.3981074       0.000000       0.000000    
  0.3981074      0.4466839       0.000000       0.000000    
  0.4466839      0.5011876       0.000000       0.000000    
  0.5011876      0.5623417       0.000000       0.000000    
  0.5623417      0.6309578       0.000000       0.000000    
  0.6309578      0.7079462       0.000000       0.000000    
  0.7079462      0.7943288       0.000000       0.000000    
  0.7943288      0.8912516       0.000000       0.000000    
  0.8912516       1.000001       0.000000       0.000000    
   1.000001       1.122019       0.000000       0.000000    
   1.122019       1.258926       0.000000       0.000000    
   1.258926       1.412539       0.000000       0.000000    
   1.412539       1.584894       0.000000       0.000000    
   1.584894       1.778281       0.000000       0.000000    
   1.778281       1.995264       0.000000       0.000000    
   1.995264       2.238723       0.000000       0.000000    
   2.238723       2.511888       0.000000       0.000000    
   2.511888       2.818385       0.000000       0.000000    
   2.818385       3.162280       0.000000       0.000000    
   3.162280       3.548136       0.000000       0.000000    
   3.548136       3.981075       0.000000       0.000000    
   3.981075       4.466839       0.000000       0.000000    
   4.466839       5.011876       0.000000       0.000000    
   5.011876       5.623418       0.000000       0.000000    
   5.623418       6.309578       0.000000       0.000000    
   6.309578       7.079463       0.000000       0.000000    
   7.079463       7.943289       0.000000       0.000000    
   7.943289       8.912516       0.000000       0.000000    
   8.912516       10.00001       0.000000       0.000000    


 # Detector n:            6   nsDG2     
 # N. of energy intervals         260
  1.0000100E-14  2.0000000E-13   0.000000       0.000000    
  2.0000000E-13  2.9297300E-13   0.000000       0.000000    
  2.9297300E-13  4.2916701E-13  3.5799158E+08   76.18456    
  4.2916701E-13  6.2867300E-13  6.8320576E+08   82.26698    
  6.2867300E-13  9.2092198E-13  4.6060138E+08   60.01276    
  9.2092198E-13  1.3490300E-12  1.6147490E+08   56.39578    
  1.3490300E-12  1.9761499E-12  8.8148122E+08   30.37115    
  1.9761499E-12  2.8947901E-12  1.7559905E+09   19.54906    
  2.8947901E-12  4.2404799E-12  2.4728461E+09   13.07979    
  4.2404799E-12  6.2117499E-12  4.0211978E+09   8.856553    
  6.2117499E-12  9.0993801E-12  5.8098043E+09   6.029859    
  9.0993801E-12  1.3329400E-11  8.0686413E+09   4.185224    
  1.3329400E-11  1.9525799E-11  1.0429435E+10   3.093106    
  1.9525799E-11  2.8602700E-11  1.1918385E+10   2.373173    
  2.8602700E-11  4.1899099E-11  1.3038977E+10   1.960637    
  4.1899099E-11  6.1376598E-11  1.1329706E+10   1.716779    
  6.1376598E-11  8.9908601E-11  7.5682007E+09   1.722796    
  8.9908601E-11  1.3170399E-10  3.7784023E+09   2.019778    
  1.3170399E-10  1.9292901E-10  1.5206053E+09   2.664938    
  1.9292901E-10  2.8261499E-10  8.6974816E+08   2.882469    
  2.8261499E-10  4.1399401E-10  5.4189018E+08   2.983567    
  4.1399401E-10  5.3157900E-10  4.1472899E+08   3.511965    
  5.3157900E-10  6.2506200E-10  3.4238410E+08   4.400552    
  6.2506200E-10  6.8256001E-10  2.8773821E+08   5.827679    
  6.8256001E-10  8.3368101E-10  2.6372678E+08   4.135964    
  8.3368101E-10  8.7642499E-10  2.7735795E+08   7.122495    
  8.7642499E-10  1.1253500E-09  2.2379296E+08   3.437279    
  1.1253500E-09  1.4449800E-09  1.7532888E+08   3.489969    
  1.4449800E-09  1.8553900E-09  1.4025026E+08   3.369714    
  1.8553900E-09  2.3823701E-09  1.1110430E+08   3.297052    
  2.3823701E-09  3.0590199E-09  9.3899688E+07   3.224228    
  3.0590199E-09  3.9278598E-09  7.4755560E+07   3.261235    
  3.9278598E-09  5.0434799E-09  5.7123740E+07   3.200702    
  5.0434799E-09  6.4759500E-09  4.8456068E+07   3.098644    
  6.4759500E-09  8.3152898E-09  3.8145164E+07   3.061113    
  8.3152898E-09  1.0677000E-08  2.9562652E+07   3.138983    
  1.0677000E-08  1.3709600E-08  2.4729124E+07   2.952389    
  1.3709600E-08  1.7603501E-08  2.0112528E+07   2.888615    
  1.7603501E-08  2.2603301E-08  1.4992993E+07   3.002897    
  2.2603301E-08  2.9023200E-08  1.2215719E+07   2.832023    
  2.9023200E-08  3.7266499E-08   8542341.       3.073714    
  3.7266499E-08  4.7851199E-08   7167436.       2.838919    
  4.7851199E-08  6.1442101E-08   5970858.       2.861953    
  6.1442101E-08  7.8893301E-08   4868033.       2.793066    
  7.8893301E-08  1.0130100E-07   3789077.       2.785306    
  1.0130100E-07  1.3007300E-07   3015970.       2.756169    
  1.3007300E-07  1.6701701E-07   1920453.       2.939464    
  1.6701701E-07  2.1445400E-07   1832542.       2.789274    
  2.1445400E-07  2.7536399E-07   1437442.       2.727662    
  2.7536399E-07  3.5357499E-07   1057158.       2.877474    
  3.5357499E-07  4.5399901E-07   668056.1       3.106655    
  4.5399901E-07  5.8294700E-07   633161.8       2.814276    
  5.8294700E-07  7.4851800E-07   510371.4       2.785468    
  7.4851800E-07  9.6111603E-07   386843.9       2.827782    
  9.6111603E-07  1.2341000E-06   295100.7       2.866370    
  1.2341000E-06  1.3638900E-06   279936.6       4.032657    
  1.3638900E-06  1.5073300E-06   260397.5       4.031481    
  1.5073300E-06  1.5846100E-06   245607.9       5.623021    
  1.5846100E-06  1.6658601E-06   242507.0       5.541092    
  1.6658601E-06  1.8410600E-06   234276.2       3.912768    
  1.8410600E-06  2.0346799E-06   208709.8       3.924967    
  2.0346799E-06  2.2486699E-06   164152.1       4.171939    
  2.2486699E-06  2.4851699E-06   121737.2       4.605372    
  2.4851699E-06  2.6125899E-06   125590.1       6.314697    
  2.6125899E-06  2.7465401E-06   108371.8       6.256535    
  2.7465401E-06  2.8634900E-06   112398.5       6.714228    
  2.8634900E-06  3.0353899E-06   116041.0       5.501700    
  3.0353899E-06  3.3546301E-06   128778.8       4.070138    
  3.3546301E-06  3.7074401E-06   112487.2       4.007193    
  3.7074401E-06  4.0973500E-06   102233.4       4.083193    
  4.0973500E-06  4.3074201E-06   89659.88       5.817457    
  4.3074201E-06  4.5282700E-06   80860.62       5.868641    
  4.5282700E-06  5.0045101E-06   76381.85       4.148571    
  5.0045101E-06  5.5308401E-06   74768.38       3.975497    
  5.5308401E-06  6.2672698E-06   57360.55       3.970718    
  6.2672698E-06  7.1017398E-06   54340.68       3.678376    
  7.1017398E-06  8.0473301E-06   38221.78       4.135475    
  8.0473301E-06  9.1188203E-06   32855.58       4.266678    
  9.1188203E-06  1.0333000E-05   38110.48       3.675300    
  1.0333000E-05  1.1708800E-05   37073.77       3.503759    
  1.1708800E-05  1.3267800E-05   30103.59       3.575902    
  1.3267800E-05  1.5034400E-05   31504.44       3.520046    
  1.5034400E-05  1.7036200E-05   21113.12       3.936596    
  1.7036200E-05  1.9304500E-05   23083.62       3.490373    
  1.9304500E-05  2.1334799E-05   21976.24       3.674503    
  2.1334799E-05  2.1874899E-05   22313.40       7.157539    
  2.1874899E-05  2.3578599E-05   20965.09       4.256257    
  2.3578599E-05  2.4175501E-05   24301.48       6.779562    
  2.4175501E-05  2.4787500E-05   35947.67       5.215925    
  2.4787500E-05  2.6058400E-05   33363.09       3.792394    
  2.6058400E-05  2.8087899E-05   12889.92       4.902395    
  2.8087899E-05  3.1827800E-05   7433.100       4.687605    
  3.1827800E-05  3.4306700E-05   10029.11       4.939473    
  3.4306700E-05  3.5175199E-05   11785.02       7.724349    
  3.5175199E-05  3.6065601E-05   10515.37       7.811986    
  3.6065601E-05  4.0867701E-05   9788.211       3.642701    
  4.0867701E-05  4.6309200E-05   9895.101       3.469114    
  4.6309200E-05  5.2475199E-05   10248.19       3.205983    
  5.2475199E-05  5.6562199E-05   6911.600       4.459186    
  5.6562199E-05  5.9462200E-05   7646.938       5.132726    
  5.9462200E-05  6.2510902E-05   8572.080       4.986537    
  6.2510902E-05  6.7379500E-05   6485.999       4.451755    
  6.7379500E-05  7.6350902E-05   7433.324       3.030022    
  7.6350902E-05  8.6516899E-05   7295.146       2.928321    
  8.6516899E-05  9.8036500E-05   5793.245       3.148664    
  9.8036500E-05  1.1109000E-04   4766.850       3.140959    
  1.1109000E-04  1.1678600E-04   5534.842       4.365645    
  1.1678600E-04  1.2277300E-04   5922.945       4.141891    
  1.2277300E-04  1.2906799E-04   6299.499       3.915596    
  1.2906799E-04  1.3568600E-04   5093.884       4.287182    
  1.3568600E-04  1.4264201E-04   4241.002       4.528608    
  1.4264201E-04  1.4995600E-04   3374.080       5.001184    
  1.4995600E-04  1.5764400E-04   3847.327       4.489270    
  1.5764400E-04  1.6163501E-04   4324.376       5.877239    
  1.6163501E-04  1.6572700E-04   4387.841       6.004798    
  1.6572700E-04  1.6992200E-04   3360.768       6.554390    
  1.6992200E-04  1.7422400E-04   3019.187       6.805306    
  1.7422400E-04  1.8315599E-04   4577.872       3.831367    
  1.8315599E-04  1.9254700E-04   3505.173       4.329881    
  1.9254700E-04  2.0241900E-04   2923.260       4.565787    
  2.0241900E-04  2.1279699E-04   3561.874       3.982135    
  2.1279699E-04  2.2370800E-04   3102.896       4.228085    
  2.2370800E-04  2.3517800E-04   3304.500       3.971406    
  2.3517800E-04  2.4723500E-04   3353.343       3.865452    
  2.4723500E-04  2.5991100E-04   2772.113       4.062909    
  2.5991100E-04  2.7323700E-04   3630.869       3.517265    
  2.7323700E-04  2.8015400E-04   2541.359       5.905003    
  2.8015400E-04  2.8724599E-04   2200.378       6.237444    
  2.8724599E-04  2.9451799E-04   2705.445       5.521621    
  2.9451799E-04  3.0197401E-04   3404.336       4.850659    
  3.0197401E-04  3.0961799E-04   3814.946       4.545068    
  3.0961799E-04  3.1745600E-04   3787.147       4.587210    
  3.1745600E-04  3.3373301E-04   2116.435       4.185625    
  3.3373301E-04  3.5084400E-04   2601.608       3.621467    
  3.5084400E-04  3.6883200E-04   2279.925       3.826794    
  3.6883200E-04  3.8774201E-04   2135.475       3.849670    
  3.8774201E-04  4.0762199E-04   1711.460       4.387191    
  4.0762199E-04  4.2852099E-04   1487.693       4.529086    
  4.2852099E-04  4.5049199E-04   1607.092       4.106984    
  4.5049199E-04  4.7358900E-04   1987.333       3.765437    
  4.7358900E-04  4.9787102E-04   1960.202       3.678864    
  4.9787102E-04  5.1047403E-04   1925.383       5.051271    
  5.1047403E-04  5.2339700E-04   1968.808       5.042007    
  5.2339700E-04  5.3664698E-04   2077.095       4.548953    
  5.3664698E-04  5.5023201E-04   1978.685       4.710137    
  5.5023201E-04  5.7844300E-04   2010.410       3.339712    
  5.7844300E-04  6.0810102E-04   2269.392       3.068831    
  6.0810102E-04  6.3927902E-04   2316.505       2.986578    
  6.3927902E-04  6.7205500E-04   1956.523       3.074603    
  6.7205500E-04  7.0651202E-04   1916.358       3.107461    
  7.0651202E-04  7.4273598E-04   1671.279       3.126310    
  7.4273598E-04  7.8081700E-04   1602.656       3.176574    
  7.8081700E-04  8.2085002E-04   1586.021       3.134104    
  8.2085002E-04  8.6293602E-04   1449.017       3.176225    
  8.6293602E-04  9.0717903E-04   1199.470       3.427365    
  9.0717903E-04  9.5369201E-04   1059.446       3.446806    
  9.5369201E-04  9.6163998E-04   1017.040       8.666900    
  9.6163998E-04  9.7783399E-04   816.7838       6.737906    
  9.7783399E-04  1.0025901E-03   863.7422       5.301746    
  1.0025901E-03  1.0539900E-03   863.2955       3.737109    
  1.0539900E-03  1.1080300E-03   932.5109       3.474725    
  1.1080300E-03  1.1648400E-03   980.0353       3.356897    
  1.1648400E-03  1.1943300E-03   1097.746       4.273111    
  1.1943300E-03  1.2245600E-03   995.8670       4.638190    
  1.2245600E-03  1.2873500E-03   820.3372       3.463198    
  1.2873500E-03  1.3533500E-03   756.5508       3.571485    
  1.3533500E-03  1.4227401E-03   741.9410       3.356817    
  1.4227401E-03  1.4956900E-03   724.7008       3.424037    
  1.4956900E-03  1.5335500E-03   791.2849       4.497751    
  1.5335500E-03  1.5723699E-03   592.2552       5.086146    
  1.5723699E-03  1.6121800E-03   636.2742       4.944225    
  1.6121800E-03  1.6529900E-03   587.7773       5.153824    
  1.6529900E-03  1.7377400E-03   610.4606       3.452563    
  1.7377400E-03  1.8268300E-03   554.5290       3.531558    
  1.8268300E-03  1.8730800E-03   474.1804       5.202465    
  1.8730800E-03  1.9205000E-03   429.5272       5.536944    
  1.9205000E-03  1.9691200E-03   435.4844       5.483790    
  1.9691200E-03  2.0189700E-03   453.2105       5.088929    
  2.0189700E-03  2.1224800E-03   468.0109       3.502709    
  2.1224800E-03  2.2313001E-03   469.5488       3.546159    
  2.2313001E-03  2.2688799E-03   518.3534       5.764957    
  2.2688799E-03  2.3068599E-03   486.6585       5.785594    
  2.3068599E-03  2.3457000E-03   424.2144       6.160473    
  2.3457000E-03  2.3652499E-03   662.6253       6.886420    
  2.3652499E-03  2.3852000E-03   559.7838       7.310907    
  2.3852000E-03  2.4251300E-03   415.8073       6.091289    
  2.4251300E-03  2.4659701E-03   438.5912       5.855152    
  2.4659701E-03  2.5923999E-03   381.4347       3.518525    
  2.5923999E-03  2.7253199E-03   330.0230       3.692136    
  2.7253199E-03  2.8650500E-03   317.0920       3.705012    
  2.8650500E-03  3.0119400E-03   241.9801       4.288866    
  3.0119400E-03  3.0881900E-03   226.3357       5.901800    
  3.0881900E-03  3.1663701E-03   220.3367       6.069922    
  3.1663701E-03  3.2465300E-03   181.0341       6.323248    
  3.2465300E-03  3.3287101E-03   198.5567       6.208872    
  3.3287101E-03  3.4993801E-03   151.5594       4.803566    
  3.4993801E-03  3.6787901E-03   143.1156       4.871838    
  3.6787901E-03  3.8674099E-03   138.7547       4.845645    
  3.8674099E-03  4.0656999E-03   135.6515       4.782713    
  4.0656999E-03  4.2741499E-03   120.8936       4.875405    
  4.2741499E-03  4.4932901E-03   112.3697       5.080065    
  4.4932901E-03  4.6070400E-03   107.6116       6.940635    
  4.6070400E-03  4.7236700E-03   106.2610       6.760271    
  4.7236700E-03  4.8432499E-03   101.4723       6.961021    
  4.8432499E-03  4.9658502E-03   91.42545       7.095162    
  4.9658502E-03  5.2204598E-03   83.96863       5.246817    
  5.2204598E-03  5.4881200E-03   87.11900       5.240202    
  5.4881200E-03  5.7695000E-03   74.91431       5.425838    
  5.7695000E-03  5.9155500E-03   62.31553       8.534308    
  5.9155500E-03  6.0653100E-03   66.07619       7.936477    
  6.0653100E-03  6.2188501E-03   61.21788       7.827998    
  6.2188501E-03  6.3762800E-03   63.28455       7.875562    
  6.3762800E-03  6.5377001E-03   61.77437       7.824464    
  6.5377001E-03  6.5923799E-03   56.20590       14.15869    
  6.5923799E-03  6.6475999E-03   70.69981       12.39096    
  6.6475999E-03  6.7031998E-03   43.43071       15.86433    
  6.7031998E-03  6.8728901E-03   47.90223       8.280455    
  6.8728901E-03  7.0468802E-03   53.36058       7.861805    
  7.0468802E-03  7.2252699E-03   44.25116       8.749464    
  7.2252699E-03  7.4081798E-03   46.09109       8.874590    
  7.4081798E-03  7.5957198E-03   42.54576       8.581950    
  7.5957198E-03  7.7880099E-03   36.64994       9.232780    
  7.7880099E-03  7.9851598E-03   33.45642       9.720541    
  7.9851598E-03  8.1873098E-03   37.60194       8.717212    
  8.1873098E-03  8.3945701E-03   32.79254       9.585034    
  8.3945701E-03  8.6070802E-03   35.74878       9.424633    
  8.6070802E-03  8.8249696E-03   35.36455       8.993813    
  8.8249696E-03  9.0483697E-03   35.41168       8.937296    
  9.0483697E-03  9.2774397E-03   33.68333       8.669170    
  9.2774397E-03  9.5122904E-03   32.36515       8.825101    
  9.5122904E-03  9.7530996E-03   32.18597       8.940349    
  9.7530996E-03  9.9999998E-03   30.04210       9.078588    
  9.9999998E-03  1.0253200E-02   28.51339       9.632755    
  1.0253200E-02  1.0512700E-02   28.67989       8.971175    
  1.0512700E-02  1.0778800E-02   29.73767       8.828906    
  1.0778800E-02  1.1051700E-02   29.12547       9.018779    
  1.1051700E-02  1.1331500E-02   22.72005       9.804400    
  1.1331500E-02  1.1618300E-02   22.16992       9.822062    
  1.1618300E-02  1.1912500E-02   25.44842       9.198588    
  1.1912500E-02  1.2214000E-02   19.77658       10.18747    
  1.2214000E-02  1.2523200E-02   24.17780       9.789575    
  1.2523200E-02  1.2840200E-02   22.16581       9.167356    
  1.2840200E-02  1.3165300E-02   23.29216       9.229306    
  1.3165300E-02  1.3498600E-02   17.87509       10.04930    
  1.3498600E-02  1.3840300E-02   24.21959       8.883728    
  1.3840300E-02  1.4190700E-02   18.75807       9.208881    
  1.4190700E-02  1.4549900E-02   21.47885       8.914849    
  1.4549900E-02  1.4918300E-02   18.01789       9.461465    
  1.4918300E-02  1.5295900E-02   20.82069       9.198712    
  1.5295900E-02  1.5683100E-02   19.38569       8.570418    
  1.5683100E-02  1.6080100E-02   17.75383       9.387965    
  1.6080100E-02  1.6487200E-02   18.60904       9.547880    
  1.6487200E-02  1.6904600E-02   17.80022       8.952972    
  1.6904600E-02  1.7332500E-02   18.65375       8.872919    
  1.7332500E-02  1.7771300E-02   18.45126       8.838555    
  1.7771300E-02  1.8221200E-02   16.64554       8.977916    
  1.8221200E-02  1.8682500E-02   14.84171       9.600914    
  1.8682500E-02  1.9155400E-02   15.03763       9.836247    
  1.9155400E-02  1.9640300E-02   15.97806       8.993557    
  1.9640300E-02  2.0000000E-02   15.37615       10.95884    


 # Detector n:            7   nfDG2     
 # N. of energy intervals         120
  2.0000000E-02  2.1063058E-02   15.76344       5.926513    
  2.1063058E-02  2.2182621E-02   12.98884       6.445307    
  2.2182621E-02  2.3361692E-02   15.82051       5.733469    
  2.3361692E-02  2.4603436E-02   12.52362       6.140227    
  2.4603436E-02  2.5911180E-02   13.79015       5.864246    
  2.5911180E-02  2.7288437E-02   12.87786       5.717268    
  2.7288437E-02  2.8738894E-02   12.97957       5.503403    
  2.8738894E-02  3.0266454E-02   12.12235       5.758490    
  3.0266454E-02  3.1875204E-02   12.14216       5.511657    
  3.1875204E-02  3.3569463E-02   12.64952       5.447705    
  3.3569463E-02  3.5353780E-02   12.22777       5.350951    
  3.5353780E-02  3.7232935E-02   12.51716       5.101470    
  3.7232935E-02  3.9211977E-02   12.04948       5.127769    
  3.9211977E-02  4.1296210E-02   11.58506       5.150836    
  4.1296210E-02  4.3491218E-02   11.28787       4.814255    
  4.3491218E-02  4.5802910E-02   11.25716       4.941700    
  4.5802910E-02  4.8237469E-02   10.88993       4.759362    
  4.8237469E-02  5.0801434E-02   11.28415       4.541873    
  5.0801434E-02  5.3501677E-02   10.50902       4.613619    
  5.3501677E-02  5.6345452E-02   11.66815       4.198571    
  5.6345452E-02  5.9340376E-02   10.05317       4.436951    
  5.9340376E-02  6.2494490E-02   9.110932       4.643705    
  6.2494490E-02  6.5816253E-02   9.332952       4.409731    
  6.5816253E-02  6.9314592E-02   9.680059       4.207973    
  6.9314592E-02  7.2998859E-02   9.016415       4.185413    
  7.2998859E-02  7.6878957E-02   8.699645       4.154118    
  7.6878957E-02  8.0965310E-02   8.279526       4.174450    
  8.0965310E-02  8.5268848E-02   8.094011       4.151434    
  8.5268848E-02  8.9801140E-02   7.458948       4.252316    
  8.9801140E-02  9.4574332E-02   7.076960       4.245704    
  9.4574332E-02  9.9601232E-02   6.289456       4.391094    
  9.9601232E-02  0.1048953       5.873113       4.563448    
  0.1048953      0.1104708       5.037612       4.709519    
  0.1104708      0.1163427       5.428652       4.382092    
  0.1163427      0.1225266       4.910385       4.535476    
  0.1225266      0.1290393       4.566118       4.527678    
  0.1290393      0.1358981       4.297965       4.559298    
  0.1358981      0.1431215       3.829053       4.708087    
  0.1431215      0.1507288       3.254094       4.884328    
  0.1507288      0.1587405       2.827671       5.167507    
  0.1587405      0.1671780       2.604554       5.272457    
  0.1671780      0.1760640       2.344608       5.330611    
  0.1760640      0.1854223       1.975488       5.679800    
  0.1854223      0.1952781       1.694645       6.009709    
  0.1952781      0.2056577       1.626374       6.071787    
  0.2056577      0.2165890       1.358747       6.426642    
  0.2165890      0.2281013       1.179738       6.758596    
  0.2281013      0.2402256      0.8661468       7.572352    
  0.2402256      0.2529943      0.7207835       7.949581    
  0.2529943      0.2664417      0.5129158       9.087636    
  0.2664417      0.2806039      0.3695227       10.81417    
  0.2806039      0.2955188      0.4158226       9.903400    
  0.2955188      0.3112265      0.3473942       10.72304    
  0.3112265      0.3277690      0.2253700       12.99451    
  0.3277690      0.3451909      0.1469770       15.50206    
  0.3451909      0.3635389      0.1427965       14.79907    
  0.3635389      0.3828620      0.1414708       16.84421    
  0.3828620      0.4032122      0.1234162       15.65018    
  0.4032122      0.4246442      4.2663794E-02   26.73562    
  0.4246442      0.4472153      3.8992666E-02   26.84258    
  0.4472153      0.4709860      4.8813578E-02   23.23542    
  0.4709860      0.4960204      2.0154554E-02   35.15884    
  0.4960204      0.5223852      2.4654411E-02   27.93899    
  0.5223852      0.5501516      2.3561254E-02   29.65811    
  0.5501516      0.5793938      1.6818142E-02   33.40493    
  0.5793938      0.6101903      1.5264969E-02   34.32968    
  0.6101903      0.6426237      1.7504146E-02   32.72647    
  0.6426237      0.6767811      9.8204389E-03   43.88490    
  0.6767811      0.7127540      5.1934840E-03   55.75700    
  0.7127540      0.7506390      5.4444773E-03   56.36946    
  0.7506390      0.7905375      2.6235904E-03   72.11441    
  0.7905375      0.8325570      1.6430550E-03   96.72620    
  0.8325570      0.8768098       0.000000       0.000000    
  0.8768098      0.9234148      5.6597387E-04   96.72620    
  0.9234148      0.9724970      1.0481554E-03   96.72620    
  0.9724970       1.024188      1.3994257E-03   96.72620    
   1.024188       1.078627      1.2555796E-03   96.72620    
   1.078627       1.135959      2.6430509E-03   56.39365    
   1.135959       1.196338       0.000000       0.000000    
   1.196338       1.259927       0.000000       0.000000    
   1.259927       1.326896      1.5313255E-04   96.72620    
   1.326896       1.397425      9.9293515E-04   96.72620    
   1.397425       1.471702       0.000000       0.000000    
   1.471702       1.549927       0.000000       0.000000    
   1.549927       1.632310       0.000000       0.000000    
   1.632310       1.719072       0.000000       0.000000    
   1.719072       1.810446       0.000000       0.000000    
   1.810446       1.906677       0.000000       0.000000    
   1.906677       2.008022       0.000000       0.000000    
   2.008022       2.114754       0.000000       0.000000    
   2.114754       2.227160       0.000000       0.000000    
   2.227160       2.345540       0.000000       0.000000    
   2.345540       2.470212       0.000000       0.000000    
   2.470212       2.601511       0.000000       0.000000    
   2.601511       2.739789       0.000000       0.000000    
   2.739789       2.885417       0.000000       0.000000    
   2.885417       3.038786       0.000000       0.000000    
   3.038786       3.200306       0.000000       0.000000    
   3.200306       3.370412       0.000000       0.000000    
   3.370412       3.549559       0.000000       0.000000    
   3.549559       3.738229       0.000000       0.000000    
   3.738229       3.936927       0.000000       0.000000    
   3.936927       4.146185       0.000000       0.000000    
   4.146185       4.366568       0.000000       0.000000    
   4.366568       4.598663       0.000000       0.000000    
   4.598663       4.843096       0.000000       0.000000    
   4.843096       5.100521       0.000000       0.000000    
   5.100521       5.371628       0.000000       0.000000    
   5.371628       5.657146       0.000000       0.000000    
   5.657146       5.957840       0.000000       0.000000    
   5.957840       6.274517       0.000000       0.000000    
   6.274517       6.608026       0.000000       0.000000    
   6.608026       6.959262       0.000000       0.000000    
   6.959262       7.329167       0.000000       0.000000    
   7.329167       7.718733       0.000000       0.000000    
   7.718733       8.129007       0.000000       0.000000    
   8.129007       8.561088       0.000000       0.000000    
   8.561088       9.016134       0.000000       0.000000    
   9.016134       9.495368       0.000000       0.000000    
   9.495368       10.00008       0.000000       0.000000    
