 # Detector n:            1   piPMblc4  
 # N. of energy intervals         120
  9.9999997E-06  1.1220184E-05   0.000000       0.000000    
  1.1220184E-05  1.2589254E-05   0.000000       0.000000    
  1.2589254E-05  1.4125375E-05   0.000000       0.000000    
  1.4125375E-05  1.5848931E-05   0.000000       0.000000    
  1.5848931E-05  1.7782793E-05   0.000000       0.000000    
  1.7782793E-05  1.9952624E-05   0.000000       0.000000    
  1.9952624E-05  2.2387210E-05   0.000000       0.000000    
  2.2387210E-05  2.5118865E-05   0.000000       0.000000    
  2.5118865E-05  2.8183831E-05   0.000000       0.000000    
  2.8183831E-05  3.1622778E-05   0.000000       0.000000    
  3.1622778E-05  3.5481338E-05   0.000000       0.000000    
  3.5481338E-05  3.9810719E-05   0.000000       0.000000    
  3.9810719E-05  4.4668363E-05   0.000000       0.000000    
  4.4668363E-05  5.0118728E-05   0.000000       0.000000    
  5.0118728E-05  5.6234134E-05   0.000000       0.000000    
  5.6234134E-05  6.3095737E-05   0.000000       0.000000    
  6.3095737E-05  7.0794587E-05   0.000000       0.000000    
  7.0794587E-05  7.9432837E-05   0.000000       0.000000    
  7.9432837E-05  8.9125104E-05   0.000000       0.000000    
  8.9125104E-05  1.0000000E-04   0.000000       0.000000    
  1.0000000E-04  1.1220186E-04   0.000000       0.000000    
  1.1220186E-04  1.2589256E-04   0.000000       0.000000    
  1.2589256E-04  1.4125377E-04   0.000000       0.000000    
  1.4125377E-04  1.5848935E-04   0.000000       0.000000    
  1.5848935E-04  1.7782798E-04   0.000000       0.000000    
  1.7782798E-04  1.9952627E-04   0.000000       0.000000    
  1.9952627E-04  2.2387214E-04   0.000000       0.000000    
  2.2387214E-04  2.5118867E-04   0.000000       0.000000    
  2.5118867E-04  2.8183835E-04   0.000000       0.000000    
  2.8183835E-04  3.1622782E-04   0.000000       0.000000    
  3.1622782E-04  3.5481344E-04   0.000000       0.000000    
  3.5481344E-04  3.9810725E-04   0.000000       0.000000    
  3.9810725E-04  4.4668367E-04   0.000000       0.000000    
  4.4668367E-04  5.0118734E-04   0.000000       0.000000    
  5.0118734E-04  5.6234142E-04   0.000000       0.000000    
  5.6234142E-04  6.3095748E-04   0.000000       0.000000    
  6.3095748E-04  7.0794590E-04   0.000000       0.000000    
  7.0794590E-04  7.9432846E-04   0.000000       0.000000    
  7.9432846E-04  8.9125114E-04   0.000000       0.000000    
  8.9125114E-04  1.0000003E-03   0.000000       0.000000    
  1.0000003E-03  1.1220188E-03   0.000000       0.000000    
  1.1220188E-03  1.2589258E-03   0.000000       0.000000    
  1.2589258E-03  1.4125380E-03   0.000000       0.000000    
  1.4125380E-03  1.5848936E-03   0.000000       0.000000    
  1.5848936E-03  1.7782800E-03   0.000000       0.000000    
  1.7782800E-03  1.9952629E-03   0.000000       0.000000    
  1.9952629E-03  2.2387218E-03   0.000000       0.000000    
  2.2387218E-03  2.5118871E-03   0.000000       0.000000    
  2.5118871E-03  2.8183837E-03   0.000000       0.000000    
  2.8183837E-03  3.1622786E-03   0.000000       0.000000    
  3.1622786E-03  3.5481353E-03   0.000000       0.000000    
  3.5481353E-03  3.9810729E-03   0.000000       0.000000    
  3.9810729E-03  4.4668377E-03   0.000000       0.000000    
  4.4668377E-03  5.0118743E-03   0.000000       0.000000    
  5.0118743E-03  5.6234146E-03   0.000000       0.000000    
  5.6234146E-03  6.3095763E-03   0.000000       0.000000    
  6.3095763E-03  7.0794607E-03   0.000000       0.000000    
  7.0794607E-03  7.9432856E-03   0.000000       0.000000    
  7.9432856E-03  8.9125130E-03   0.000000       0.000000    
  8.9125130E-03  1.0000004E-02   0.000000       0.000000    
  1.0000004E-02  1.1220189E-02   0.000000       0.000000    
  1.1220189E-02  1.2589260E-02   0.000000       0.000000    
  1.2589260E-02  1.4125382E-02   0.000000       0.000000    
  1.4125382E-02  1.5848938E-02   0.000000       0.000000    
  1.5848938E-02  1.7782802E-02   0.000000       0.000000    
  1.7782802E-02  1.9952632E-02   0.000000       0.000000    
  1.9952632E-02  2.2387221E-02   0.000000       0.000000    
  2.2387221E-02  2.5118876E-02   0.000000       0.000000    
  2.5118876E-02  2.8183842E-02   0.000000       0.000000    
  2.8183842E-02  3.1622794E-02   0.000000       0.000000    
  3.1622794E-02  3.5481352E-02  7.7020692E-09   96.22246    
  3.5481352E-02  3.9810736E-02  2.7662804E-08   72.31136    
  3.9810736E-02  4.4668384E-02   0.000000       0.000000    
  4.4668384E-02  5.0118748E-02  1.5013740E-08   96.22246    
  5.0118748E-02  5.6234159E-02  2.4519066E-08   68.53877    
  5.6234159E-02  6.3095763E-02  1.3197383E-08   87.79689    
  6.3095763E-02  7.0794620E-02  1.0537875E-08   96.22246    
  7.0794620E-02  7.9432867E-02  1.9631733E-08   79.31419    
  7.9432867E-02  8.9125134E-02  2.3235302E-08   59.76257    
  8.9125134E-02  0.1000001      1.5141802E-08   63.01238    
  0.1000001      0.1122019      7.1857724E-09   99.00000    
  0.1122019      0.1258926      3.0402344E-08   43.03754    
  0.1258926      0.1412538      5.3839293E-09   96.22246    
  0.1412538      0.1584894      1.3842288E-08   52.17310    
  0.1584894      0.1778280      2.5400435E-09   96.22246    
  0.1778280      0.1995264      8.4349523E-09   55.67992    
  0.1995264      0.2238722      9.2321706E-09   52.89526    
  0.2238722      0.2511888      1.4333990E-08   46.39235    
  0.2511888      0.2818385      8.0856291E-09   54.57006    
  0.2818385      0.3162280      7.7077518E-09   51.93317    
  0.3162280      0.3548136      4.2639674E-09   66.76478    
  0.3548136      0.3981074      7.8668030E-11   96.22246    
  0.3981074      0.4466839      1.6573470E-09   96.22246    
  0.4466839      0.5011876      3.3442891E-09   60.79220    
  0.5011876      0.5623417       0.000000       0.000000    
  0.5623417      0.6309578      1.1774346E-09   96.22246    
  0.6309578      0.7079462      6.0279820E-10   96.22246    
  0.7079462      0.7943288      2.4250639E-09   59.65706    
  0.7943288      0.8912516       0.000000       0.000000    
  0.8912516       1.000001       0.000000       0.000000    
   1.000001       1.122019       0.000000       0.000000    
   1.122019       1.258926       0.000000       0.000000    
   1.258926       1.412539       0.000000       0.000000    
   1.412539       1.584894       0.000000       0.000000    
   1.584894       1.778281       0.000000       0.000000    
   1.778281       1.995264       0.000000       0.000000    
   1.995264       2.238723       0.000000       0.000000    
   2.238723       2.511888       0.000000       0.000000    
   2.511888       2.818385       0.000000       0.000000    
   2.818385       3.162280       0.000000       0.000000    
   3.162280       3.548136       0.000000       0.000000    
   3.548136       3.981075       0.000000       0.000000    
   3.981075       4.466839       0.000000       0.000000    
   4.466839       5.011876       0.000000       0.000000    
   5.011876       5.623418       0.000000       0.000000    
   5.623418       6.309578       0.000000       0.000000    
   6.309578       7.079463       0.000000       0.000000    
   7.079463       7.943289       0.000000       0.000000    
   7.943289       8.912516       0.000000       0.000000    
   8.912516       10.00001       0.000000       0.000000    


 # Detector n:            2   prblc4    
 # N. of energy intervals         120
  9.9999997E-06  1.1220184E-05   0.000000       0.000000    
  1.1220184E-05  1.2589254E-05   0.000000       0.000000    
  1.2589254E-05  1.4125375E-05   0.000000       0.000000    
  1.4125375E-05  1.5848931E-05   0.000000       0.000000    
  1.5848931E-05  1.7782793E-05   0.000000       0.000000    
  1.7782793E-05  1.9952624E-05   0.000000       0.000000    
  1.9952624E-05  2.2387210E-05   0.000000       0.000000    
  2.2387210E-05  2.5118865E-05   0.000000       0.000000    
  2.5118865E-05  2.8183831E-05   0.000000       0.000000    
  2.8183831E-05  3.1622778E-05   0.000000       0.000000    
  3.1622778E-05  3.5481338E-05   0.000000       0.000000    
  3.5481338E-05  3.9810719E-05   0.000000       0.000000    
  3.9810719E-05  4.4668363E-05   0.000000       0.000000    
  4.4668363E-05  5.0118728E-05  4.7580907E-06   6.955309    
  5.0118728E-05  5.6234134E-05   0.000000       0.000000    
  5.6234134E-05  6.3095737E-05   0.000000       0.000000    
  6.3095737E-05  7.0794587E-05   0.000000       0.000000    
  7.0794587E-05  7.9432837E-05   0.000000       0.000000    
  7.9432837E-05  8.9125104E-05   0.000000       0.000000    
  8.9125104E-05  1.0000000E-04  2.6655669E-09   44.00731    
  1.0000000E-04  1.1220186E-04  2.0442604E-07   7.251669    
  1.1220186E-04  1.2589256E-04  1.9248135E-07   7.121811    
  1.2589256E-04  1.4125377E-04  1.9655008E-07   7.179829    
  1.4125377E-04  1.5848935E-04  2.0940533E-07   7.249599    
  1.5848935E-04  1.7782798E-04  2.1025784E-07   7.097859    
  1.7782798E-04  1.9952627E-04  2.1604687E-07   7.042205    
  1.9952627E-04  2.2387214E-04  2.3537540E-07   7.081941    
  2.2387214E-04  2.5118867E-04  2.4914755E-07   7.225169    
  2.5118867E-04  2.8183835E-04  2.6510284E-07   7.263257    
  2.8183835E-04  3.1622782E-04  2.8982333E-07   7.212743    
  3.1622782E-04  3.5481344E-04  3.1745316E-07   7.253311    
  3.5481344E-04  3.9810725E-04  3.4576598E-07   7.259748    
  3.9810725E-04  4.4668367E-04  4.0397148E-07   7.402761    
  4.4668367E-04  5.0118734E-04  4.6127710E-07   7.278689    
  5.0118734E-04  5.6234142E-04  4.7262887E-07   7.226499    
  5.6234142E-04  6.3095748E-04  4.0457902E-08   27.13157    
  6.3095748E-04  7.0794590E-04  3.5857859E-08   26.52352    
  7.0794590E-04  7.9432846E-04  3.7995456E-08   26.52149    
  7.9432846E-04  8.9125114E-04  4.0706301E-08   26.49780    
  8.9125114E-04  1.0000003E-03  4.1541167E-08   26.01586    
  1.0000003E-03  1.1220188E-03  4.7998359E-08   26.44142    
  1.1220188E-03  1.2589258E-03  5.2828263E-08   26.05958    
  1.2589258E-03  1.4125380E-03  5.0939736E-08   26.12230    
  1.4125380E-03  1.5848936E-03  6.4207654E-08   26.71941    
  1.5848936E-03  1.7782800E-03  6.5846173E-08   27.72215    
  1.7782800E-03  1.9952629E-03  6.6435319E-08   27.50790    
  1.9952629E-03  2.2387218E-03  6.2680897E-08   27.93149    
  2.2387218E-03  2.5118871E-03  6.9471106E-08   27.75621    
  2.5118871E-03  2.8183837E-03  7.7015478E-08   27.94802    
  2.8183837E-03  3.1622786E-03  8.8607401E-08   27.98381    
  3.1622786E-03  3.5481353E-03  7.8788005E-08   30.27230    
  3.5481353E-03  3.9810729E-03  8.9095174E-08   30.14792    
  3.9810729E-03  4.4668377E-03  9.4882125E-08   29.89850    
  4.4668377E-03  5.0118743E-03  9.8271173E-08   31.92814    
  5.0118743E-03  5.6234146E-03  1.2857049E-07   27.55363    
  5.6234146E-03  6.3095763E-03  1.2831129E-07   29.74130    
  6.3095763E-03  7.0794607E-03  1.0851662E-07   31.11069    
  7.0794607E-03  7.9432856E-03  7.2432215E-08   41.00281    
  7.9432856E-03  8.9125130E-03  7.7304755E-08   40.33598    
  8.9125130E-03  1.0000004E-02  1.2637418E-07   32.97763    
  1.0000004E-02  1.1220189E-02  1.1511749E-07   38.18760    
  1.1220189E-02  1.2589260E-02  1.3557866E-07   34.93655    
  1.2589260E-02  1.4125382E-02  2.5873331E-07   24.85808    
  1.4125382E-02  1.5848938E-02  3.1125077E-07   24.81477    
  1.5848938E-02  1.7782802E-02  1.8828132E-07   32.53977    
  1.7782802E-02  1.9952632E-02  1.1667479E-07   40.18408    
  1.9952632E-02  2.2387221E-02  1.5896690E-07   33.61173    
  2.2387221E-02  2.5118876E-02  1.3495230E-07   36.52357    
  2.5118876E-02  2.8183842E-02  1.3121993E-07   36.70609    
  2.8183842E-02  3.1622794E-02  1.5810117E-07   31.44667    
  3.1622794E-02  3.5481352E-02  1.8897350E-07   32.14297    
  3.5481352E-02  3.9810736E-02  1.2509970E-07   32.97304    
  3.9810736E-02  4.4668384E-02  1.0897624E-07   34.04861    
  4.4668384E-02  5.0118748E-02  2.0641220E-07   26.43629    
  5.0118748E-02  5.6234159E-02  1.1411736E-07   34.05851    
  5.6234159E-02  6.3095763E-02  2.0003353E-07   22.99419    
  6.3095763E-02  7.0794620E-02  1.2185464E-07   28.44435    
  7.0794620E-02  7.9432867E-02  1.5035015E-07   23.52219    
  7.9432867E-02  8.9125134E-02  1.8817005E-07   20.13204    
  8.9125134E-02  0.1000001      8.5878078E-08   26.42984    
  0.1000001      0.1122019      9.1187196E-08   25.86616    
  0.1122019      0.1258926      9.0166488E-08   25.30650    
  0.1258926      0.1412538      6.8611740E-08   26.43192    
  0.1412538      0.1584894      6.1231141E-08   26.05906    
  0.1584894      0.1778280      3.1377116E-08   34.42928    
  0.1778280      0.1995264      3.8083432E-08   30.54935    
  0.1995264      0.2238722      4.7483095E-08   26.07298    
  0.2238722      0.2511888      1.8519687E-08   36.62718    
  0.2511888      0.2818385      2.6322690E-08   30.46280    
  0.2818385      0.3162280      1.1035012E-08   43.63959    
  0.3162280      0.3548136      6.8342687E-09   51.06732    
  0.3548136      0.3981074      4.8138356E-09   57.08921    
  0.3981074      0.4466839      6.7448527E-09   48.08478    
  0.4466839      0.5011876      2.5897262E-09   62.75817    
  0.5011876      0.5623417       0.000000       0.000000    
  0.5623417      0.6309578       0.000000       0.000000    
  0.6309578      0.7079462       0.000000       0.000000    
  0.7079462      0.7943288      9.3542230E-10   96.22246    
  0.7943288      0.8912516       0.000000       0.000000    
  0.8912516       1.000001       0.000000       0.000000    
   1.000001       1.122019       0.000000       0.000000    
   1.122019       1.258926       0.000000       0.000000    
   1.258926       1.412539       0.000000       0.000000    
   1.412539       1.584894       0.000000       0.000000    
   1.584894       1.778281       0.000000       0.000000    
   1.778281       1.995264       0.000000       0.000000    
   1.995264       2.238723       0.000000       0.000000    
   2.238723       2.511888       0.000000       0.000000    
   2.511888       2.818385       0.000000       0.000000    
   2.818385       3.162280       0.000000       0.000000    
   3.162280       3.548136       0.000000       0.000000    
   3.548136       3.981075       0.000000       0.000000    
   3.981075       4.466839       0.000000       0.000000    
   4.466839       5.011876       0.000000       0.000000    
   5.011876       5.623418       0.000000       0.000000    
   5.623418       6.309578       0.000000       0.000000    
   6.309578       7.079463       0.000000       0.000000    
   7.079463       7.943289       0.000000       0.000000    
   7.943289       8.912516       0.000000       0.000000    
   8.912516       10.00001       0.000000       0.000000    


 # Detector n:            3   phblc4    
 # N. of energy intervals         120
  9.9999997E-06  1.1220184E-05  2.2678961E-04   45.89234    
  1.1220184E-05  1.2589254E-05  6.9481066E-05   96.22246    
  1.2589254E-05  1.4125375E-05  3.3164825E-04   40.03848    
  1.4125375E-05  1.5848931E-05  1.6093632E-04   51.19048    
  1.5848931E-05  1.7782793E-05  2.4813323E-04   34.99884    
  1.7782793E-05  1.9952624E-05  3.0248714E-04   31.93435    
  1.9952624E-05  2.2387210E-05  3.2219541E-04   30.07839    
  2.2387210E-05  2.5118865E-05  2.3346955E-04   35.60681    
  2.5118865E-05  2.8183831E-05  3.5217829E-04   24.99118    
  2.8183831E-05  3.1622778E-05  5.5113435E-04   19.65642    
  3.1622778E-05  3.5481338E-05  6.7825639E-04   17.00583    
  3.5481338E-05  3.9810719E-05  7.4519293E-04   14.58899    
  3.9810719E-05  4.4668363E-05  1.6009356E-03   9.718059    
  4.4668363E-05  5.0118728E-05  3.0473978E-03   6.431268    
  5.0118728E-05  5.6234134E-05  6.2566563E-03   4.396418    
  5.6234134E-05  6.3095737E-05  1.1023686E-02   3.074318    
  6.3095737E-05  7.0794587E-05  1.5861472E-02   2.455665    
  7.0794587E-05  7.9432837E-05  1.9413644E-02   2.078832    
  7.9432837E-05  8.9125104E-05  2.1953210E-02   1.836361    
  8.9125104E-05  1.0000000E-04  2.3560883E-02   1.656348    
  1.0000000E-04  1.1220186E-04  2.2981793E-02   1.598035    
  1.1220186E-04  1.2589256E-04  2.1930819E-02   1.530219    
  1.2589256E-04  1.4125377E-04  1.9994363E-02   1.520025    
  1.4125377E-04  1.5848935E-04  1.8277736E-02   1.508427    
  1.5848935E-04  1.7782798E-04  1.5886990E-02   1.541175    
  1.7782798E-04  1.9952627E-04  1.3953179E-02   1.554518    
  1.9952627E-04  2.2387214E-04  1.1247221E-02   1.652324    
  2.2387214E-04  2.5118867E-04  9.5717926E-03   1.641538    
  2.5118867E-04  2.8183835E-04  7.6724556E-03   1.777393    
  2.8183835E-04  3.1622782E-04  5.9669027E-03   1.871037    
  3.1622782E-04  3.5481344E-04  4.7893478E-03   2.004720    
  3.5481344E-04  3.9810725E-04  4.0311180E-03   2.063875    
  3.9810725E-04  4.4668367E-04  3.4067233E-03   2.087861    
  4.4668367E-04  5.0118734E-04  3.4357430E-03   1.965147    
  5.0118734E-04  5.6234142E-04  4.7060507E-03   1.603661    
  5.6234142E-04  6.3095748E-04  1.6452614E-03   2.498194    
  6.3095748E-04  7.0794590E-04  1.3014287E-03   2.604338    
  7.0794590E-04  7.9432846E-04  1.2603351E-03   2.609034    
  7.9432846E-04  8.9125114E-04  1.3262930E-03   2.385543    
  8.9125114E-04  1.0000003E-03  1.1927959E-03   2.400713    
  1.0000003E-03  1.1220188E-03  8.4003585E-04   2.617618    
  1.1220188E-03  1.2589258E-03  8.1821228E-04   2.637714    
  1.2589258E-03  1.4125380E-03  7.6047145E-04   2.439399    
  1.4125380E-03  1.5848936E-03  6.4386474E-04   2.590923    
  1.5848936E-03  1.7782800E-03  7.1310182E-04   2.336760    
  1.7782800E-03  1.9952629E-03  7.2651100E-04   2.139507    
  1.9952629E-03  2.2387218E-03  6.6100346E-04   2.131330    
  2.2387218E-03  2.5118871E-03  6.0839724E-04   2.115533    
  2.5118871E-03  2.8183837E-03  3.7897230E-04   2.549449    
  2.8183837E-03  3.1622786E-03  3.0772146E-04   2.653979    
  3.1622786E-03  3.5481353E-03  2.6936815E-04   2.661185    
  3.5481353E-03  3.9810729E-03  3.5740220E-04   2.183750    
  3.9810729E-03  4.4668377E-03  2.3602993E-04   2.490045    
  4.4668377E-03  5.0118743E-03  2.1526284E-04   2.530559    
  5.0118743E-03  5.6234146E-03  1.6033027E-04   2.742102    
  5.6234146E-03  6.3095763E-03  1.6761303E-04   2.572876    
  6.3095763E-03  7.0794607E-03  1.1807842E-04   2.847970    
  7.0794607E-03  7.9432856E-03  1.4447802E-04   2.447909    
  7.9432856E-03  8.9125130E-03  3.1874326E-05   4.763157    
  8.9125130E-03  1.0000004E-02  2.1818225E-05   5.449384    
  1.0000004E-02  1.1220189E-02  4.2458278E-06   12.46713    
  1.1220189E-02  1.2589260E-02  3.0808926E-06   13.63642    
  1.2589260E-02  1.4125382E-02  1.7042508E-06   16.85984    
  1.4125382E-02  1.5848938E-02  1.6313838E-06   16.58179    
  1.5848938E-02  1.7782802E-02  1.5001233E-06   16.35282    
  1.7782802E-02  1.9952632E-02  7.9886041E-07   19.85933    
  1.9952632E-02  2.2387221E-02  8.3928842E-07   19.30555    
  2.2387221E-02  2.5118876E-02  6.6762937E-07   20.45408    
  2.5118876E-02  2.8183842E-02  6.9065055E-07   19.35995    
  2.8183842E-02  3.1622794E-02  2.2457523E-07   29.61887    
  3.1622794E-02  3.5481352E-02  2.1468190E-07   30.18688    
  3.5481352E-02  3.9810736E-02  3.1690024E-07   23.06368    
  3.9810736E-02  4.4668384E-02  1.8589920E-07   29.46408    
  4.4668384E-02  5.0118748E-02  1.6943042E-07   28.78030    
  5.0118748E-02  5.6234159E-02  1.4165050E-07   26.58961    
  5.6234159E-02  6.3095763E-02  1.6414626E-07   25.96290    
  6.3095763E-02  7.0794620E-02  6.9491165E-08   38.35636    
  7.0794620E-02  7.9432867E-02  2.1677121E-08   53.12339    
  7.9432867E-02  8.9125134E-02  3.7603019E-08   41.39074    
  8.9125134E-02  0.1000001      3.6648515E-08   44.86150    
  0.1000001      0.1122019      5.3349414E-08   32.76667    
  0.1122019      0.1258926      4.7628252E-08   32.68468    
  0.1258926      0.1412538      1.6237523E-08   55.56962    
  0.1412538      0.1584894      2.2118151E-08   39.73241    
  0.1584894      0.1778280      1.4584445E-08   44.05083    
  0.1778280      0.1995264      1.5012859E-09   96.22246    
  0.1995264      0.2238722      6.3069159E-09   80.12666    
  0.2238722      0.2511888      1.2392842E-08   48.17194    
  0.2511888      0.2818385      5.2948486E-09   68.02743    
  0.2818385      0.3162280      5.4178960E-11   96.22246    
  0.3162280      0.3548136       0.000000       0.000000    
  0.3548136      0.3981074      3.7508663E-09   68.02779    
  0.3981074      0.4466839       0.000000       0.000000    
  0.4466839      0.5011876       0.000000       0.000000    
  0.5011876      0.5623417      1.3226501E-09   96.22246    
  0.5623417      0.6309578       0.000000       0.000000    
  0.6309578      0.7079462       0.000000       0.000000    
  0.7079462      0.7943288       0.000000       0.000000    
  0.7943288      0.8912516       0.000000       0.000000    
  0.8912516       1.000001       0.000000       0.000000    
   1.000001       1.122019       0.000000       0.000000    
   1.122019       1.258926       0.000000       0.000000    
   1.258926       1.412539       0.000000       0.000000    
   1.412539       1.584894       0.000000       0.000000    
   1.584894       1.778281       0.000000       0.000000    
   1.778281       1.995264       0.000000       0.000000    
   1.995264       2.238723       0.000000       0.000000    
   2.238723       2.511888       0.000000       0.000000    
   2.511888       2.818385       0.000000       0.000000    
   2.818385       3.162280       0.000000       0.000000    
   3.162280       3.548136       0.000000       0.000000    
   3.548136       3.981075       0.000000       0.000000    
   3.981075       4.466839       0.000000       0.000000    
   4.466839       5.011876       0.000000       0.000000    
   5.011876       5.623418       0.000000       0.000000    
   5.623418       6.309578       0.000000       0.000000    
   6.309578       7.079463       0.000000       0.000000    
   7.079463       7.943289       0.000000       0.000000    
   7.943289       8.912516       0.000000       0.000000    
   8.912516       10.00001       0.000000       0.000000    


 # Detector n:            4   epblc4    
 # N. of energy intervals         120
  9.9999997E-06  1.1220184E-05   0.000000       0.000000    
  1.1220184E-05  1.2589254E-05   0.000000       0.000000    
  1.2589254E-05  1.4125375E-05   0.000000       0.000000    
  1.4125375E-05  1.5848931E-05   0.000000       0.000000    
  1.5848931E-05  1.7782793E-05   0.000000       0.000000    
  1.7782793E-05  1.9952624E-05  2.0889671E-07   96.22246    
  1.9952624E-05  2.2387210E-05  2.5530491E-07   96.22246    
  2.2387210E-05  2.5118865E-05  1.0910722E-06   42.35076    
  2.5118865E-05  2.8183831E-05  2.1520646E-05   8.549439    
  2.8183831E-05  3.1622778E-05  9.8103221E-05   4.167039    
  3.1622778E-05  3.5481338E-05  8.3402767E-05   4.633033    
  3.5481338E-05  3.9810719E-05  8.5149222E-05   4.786606    
  3.9810719E-05  4.4668363E-05  9.4131712E-05   4.707830    
  4.4668363E-05  5.0118728E-05  8.9201632E-05   5.072143    
  5.0118728E-05  5.6234134E-05  9.0500027E-05   5.110882    
  5.6234134E-05  6.3095737E-05  8.6560700E-05   5.502842    
  6.3095737E-05  7.0794587E-05  9.1149013E-05   5.481627    
  7.0794587E-05  7.9432837E-05  8.6311018E-05   5.925449    
  7.9432837E-05  8.9125104E-05  9.1060036E-05   5.859435    
  8.9125104E-05  1.0000000E-04  9.0678688E-05   5.921063    
  1.0000000E-04  1.1220186E-04  8.2843195E-05   6.449622    
  1.1220186E-04  1.2589256E-04  7.7553523E-05   6.760467    
  1.2589256E-04  1.4125377E-04  7.4652664E-05   6.930244    
  1.4125377E-04  1.5848935E-04  7.6477394E-05   6.865137    
  1.5848935E-04  1.7782798E-04  6.4885564E-05   6.952921    
  1.7782798E-04  1.9952627E-04  6.7175788E-05   6.935795    
  1.9952627E-04  2.2387214E-04  6.5509856E-05   6.935906    
  2.2387214E-04  2.5118867E-04  6.6735069E-05   6.859890    
  2.5118867E-04  2.8183835E-04  6.0152539E-05   7.318538    
  2.8183835E-04  3.1622782E-04  6.3746826E-05   7.279849    
  3.1622782E-04  3.5481344E-04  6.2437677E-05   7.308136    
  3.5481344E-04  3.9810725E-04  6.1704573E-05   7.386288    
  3.9810725E-04  4.4668367E-04  6.0964820E-05   7.844412    
  4.4668367E-04  5.0118734E-04  5.6857993E-05   7.921586    
  5.0118734E-04  5.6234142E-04  5.4776450E-05   8.061361    
  5.6234142E-04  6.3095748E-04  5.1624855E-05   8.304344    
  6.3095748E-04  7.0794590E-04  4.3322321E-05   9.152884    
  7.0794590E-04  7.9432846E-04  3.5414327E-05   9.891528    
  7.9432846E-04  8.9125114E-04  3.7986902E-05   9.374083    
  8.9125114E-04  1.0000003E-03  3.9169889E-05   8.801357    
  1.0000003E-03  1.1220188E-03  3.8921557E-05   9.350574    
  1.1220188E-03  1.2589258E-03  2.7464313E-05   10.23175    
  1.2589258E-03  1.4125380E-03  2.1622223E-05   11.44722    
  1.4125380E-03  1.5848936E-03  2.1032598E-05   11.17415    
  1.5848936E-03  1.7782800E-03  2.0344405E-05   11.31014    
  1.7782800E-03  1.9952629E-03  2.0192289E-05   10.77989    
  1.9952629E-03  2.2387218E-03  1.6451679E-05   11.52867    
  2.2387218E-03  2.5118871E-03  1.3711910E-05   12.36799    
  2.5118871E-03  2.8183837E-03  1.3335049E-05   11.71734    
  2.8183837E-03  3.1622786E-03  1.0572487E-05   13.02416    
  3.1622786E-03  3.5481353E-03  7.9716729E-06   13.59738    
  3.5481353E-03  3.9810729E-03  5.7785219E-06   15.37227    
  3.9810729E-03  4.4668377E-03  5.6543404E-06   14.57269    
  4.4668377E-03  5.0118743E-03  3.6288477E-06   17.69142    
  5.0118743E-03  5.6234146E-03  2.8565723E-06   18.49232    
  5.6234146E-03  6.3095763E-03  1.8976016E-06   21.10875    
  6.3095763E-03  7.0794607E-03  1.6225139E-06   22.78124    
  7.0794607E-03  7.9432856E-03  7.4164097E-07   29.54426    
  7.9432856E-03  8.9125130E-03  6.3885483E-07   34.93470    
  8.9125130E-03  1.0000004E-02  7.0916883E-07   31.56193    
  1.0000004E-02  1.1220189E-02  6.1982615E-07   31.30280    
  1.1220189E-02  1.2589260E-02  5.8283132E-07   33.41074    
  1.2589260E-02  1.4125382E-02  6.6683788E-07   26.88643    
  1.4125382E-02  1.5848938E-02  5.1535767E-07   29.46717    
  1.5848938E-02  1.7782802E-02  2.9516255E-07   33.66132    
  1.7782802E-02  1.9952632E-02  2.4421942E-07   33.01477    
  1.9952632E-02  2.2387221E-02  2.3211658E-07   35.39224    
  2.2387221E-02  2.5118876E-02  2.1062196E-07   37.03061    
  2.5118876E-02  2.8183842E-02  4.6561034E-08   58.24282    
  2.8183842E-02  3.1622794E-02  8.7704137E-08   47.18774    
  3.1622794E-02  3.5481352E-02  7.0982985E-08   52.76165    
  3.5481352E-02  3.9810736E-02  1.3680651E-07   33.46740    
  3.9810736E-02  4.4668384E-02  7.6186552E-08   41.76208    
  4.4668384E-02  5.0118748E-02  6.2553447E-08   43.68338    
  5.0118748E-02  5.6234159E-02  5.6485899E-08   46.22641    
  5.6234159E-02  6.3095763E-02  6.1916182E-08   42.12894    
  6.3095763E-02  7.0794620E-02  1.1229057E-08   96.22246    
  7.0794620E-02  7.9432867E-02  1.2548135E-08   96.08266    
  7.9432867E-02  8.9125134E-02  4.3667452E-08   49.90943    
  8.9125134E-02  0.1000001       0.000000       0.000000    
  0.1000001      0.1122019      9.9546744E-09   68.28352    
  0.1122019      0.1258926      1.0273494E-08   68.73755    
  0.1258926      0.1412538      5.2952251E-09   96.22246    
  0.1412538      0.1584894      1.0343824E-09   96.22246    
  0.1584894      0.1778280       0.000000       0.000000    
  0.1778280      0.1995264      5.1113074E-09   93.63604    
  0.1995264      0.2238722       0.000000       0.000000    
  0.2238722      0.2511888      6.1469896E-09   78.71253    
  0.2511888      0.2818385       0.000000       0.000000    
  0.2818385      0.3162280      1.4267333E-09   96.22246    
  0.3162280      0.3548136      2.0984783E-09   96.22246    
  0.3548136      0.3981074       0.000000       0.000000    
  0.3981074      0.4466839       0.000000       0.000000    
  0.4466839      0.5011876       0.000000       0.000000    
  0.5011876      0.5623417       0.000000       0.000000    
  0.5623417      0.6309578       0.000000       0.000000    
  0.6309578      0.7079462       0.000000       0.000000    
  0.7079462      0.7943288       0.000000       0.000000    
  0.7943288      0.8912516       0.000000       0.000000    
  0.8912516       1.000001       0.000000       0.000000    
   1.000001       1.122019       0.000000       0.000000    
   1.122019       1.258926       0.000000       0.000000    
   1.258926       1.412539       0.000000       0.000000    
   1.412539       1.584894       0.000000       0.000000    
   1.584894       1.778281       0.000000       0.000000    
   1.778281       1.995264       0.000000       0.000000    
   1.995264       2.238723       0.000000       0.000000    
   2.238723       2.511888       0.000000       0.000000    
   2.511888       2.818385       0.000000       0.000000    
   2.818385       3.162280       0.000000       0.000000    
   3.162280       3.548136       0.000000       0.000000    
   3.548136       3.981075       0.000000       0.000000    
   3.981075       4.466839       0.000000       0.000000    
   4.466839       5.011876       0.000000       0.000000    
   5.011876       5.623418       0.000000       0.000000    
   5.623418       6.309578       0.000000       0.000000    
   6.309578       7.079463       0.000000       0.000000    
   7.079463       7.943289       0.000000       0.000000    
   7.943289       8.912516       0.000000       0.000000    
   8.912516       10.00001       0.000000       0.000000    


 # Detector n:            5   nsblc4    
 # N. of energy intervals         260
  1.0000100E-14  2.0000000E-13   134.0415       96.22246    
  2.0000000E-13  2.9297300E-13   1640.077       69.57512    
  2.9297300E-13  4.2916701E-13   1890.624       50.21919    
  4.2916701E-13  6.2867300E-13   2458.122       36.76775    
  6.2867300E-13  9.2092198E-13   1412.087       43.73786    
  9.2092198E-13  1.3490300E-12   3139.052       24.47537    
  1.3490300E-12  1.9761499E-12   3718.221       17.95870    
  1.9761499E-12  2.8947901E-12   5482.439       11.80943    
  2.8947901E-12  4.2404799E-12   6772.492       8.857440    
  4.2404799E-12  6.2117499E-12   10754.10       5.920956    
  6.2117499E-12  9.0993801E-12   15522.93       3.985499    
  9.0993801E-12  1.3329400E-11   20189.48       2.907136    
  1.3329400E-11  1.9525799E-11   26331.78       2.084131    
  1.9525799E-11  2.8602700E-11   29367.06       1.657639    
  2.8602700E-11  4.1899099E-11   29936.44       1.351611    
  4.1899099E-11  6.1376598E-11   25600.47       1.200610    
  6.1376598E-11  8.9908601E-11   16914.08       1.226548    
  8.9908601E-11  1.3170399E-10   7882.084       1.503074    
  1.3170399E-10  1.9292901E-10   3280.953       1.886808    
  1.9292901E-10  2.8261499E-10   1584.792       2.227474    
  2.8261499E-10  4.1399401E-10   895.7290       2.469443    
  4.1399401E-10  5.3157900E-10   637.6619       3.032617    
  5.3157900E-10  6.2506200E-10   536.4515       3.809887    
  6.2506200E-10  6.8256001E-10   479.0266       5.097168    
  6.8256001E-10  8.3368101E-10   375.2697       3.591551    
  8.3368101E-10  8.7642499E-10   336.6932       7.203741    
  8.7642499E-10  1.1253500E-09   319.6837       3.017186    
  1.1253500E-09  1.4449800E-09   241.2018       3.094781    
  1.4449800E-09  1.8553900E-09   197.2369       2.969653    
  1.8553900E-09  2.3823701E-09   147.1760       3.073734    
  2.3823701E-09  3.0590199E-09   119.5246       2.993274    
  3.0590199E-09  3.9278598E-09   95.02275       2.964489    
  3.9278598E-09  5.0434799E-09   76.86720       2.932494    
  5.0434799E-09  6.4759500E-09   59.45298       2.986252    
  6.4759500E-09  8.3152898E-09   45.81633       2.969306    
  8.3152898E-09  1.0677000E-08   36.12486       2.903538    
  1.0677000E-08  1.3709600E-08   29.36672       2.880167    
  1.3709600E-08  1.7603501E-08   23.80762       2.810066    
  1.7603501E-08  2.2603301E-08   19.02441       2.713847    
  2.2603301E-08  2.9023200E-08   13.97262       2.797930    
  2.9023200E-08  3.7266499E-08   11.36662       2.777131    
  3.7266499E-08  4.7851199E-08   9.114069       2.718906    
  4.7851199E-08  6.1442101E-08   6.943828       2.796515    
  6.1442101E-08  7.8893301E-08   5.595317       2.724535    
  7.8893301E-08  1.0130100E-07   4.290326       2.831530    
  1.0130100E-07  1.3007300E-07   3.337915       2.779087    
  1.3007300E-07  1.6701701E-07   2.624958       2.796269    
  1.6701701E-07  2.1445400E-07   2.150015       2.666621    
  2.1445400E-07  2.7536399E-07   1.700642       2.685088    
  2.7536399E-07  3.5357499E-07   1.297380       2.628744    
  3.5357499E-07  4.5399901E-07   1.015861       2.591831    
  4.5399901E-07  5.8294700E-07  0.8189521       2.599867    
  5.8294700E-07  7.4851800E-07  0.6427017       2.592088    
  7.4851800E-07  9.6111603E-07  0.5131798       2.669496    
  9.6111603E-07  1.2341000E-06  0.4008279       2.590370    
  1.2341000E-06  1.3638900E-06  0.3533246       3.926401    
  1.3638900E-06  1.5073300E-06  0.3382243       3.822861    
  1.5073300E-06  1.5846100E-06  0.3217124       5.305995    
  1.5846100E-06  1.6658601E-06  0.3282028       5.226509    
  1.6658601E-06  1.8410600E-06  0.2862502       3.735988    
  1.8410600E-06  2.0346799E-06  0.2403781       3.866234    
  2.0346799E-06  2.2486699E-06  0.2274306       3.828301    
  2.2486699E-06  2.4851699E-06  0.1841756       3.963390    
  2.4851699E-06  2.6125899E-06  0.1775359       5.668670    
  2.6125899E-06  2.7465401E-06  0.1913620       5.312220    
  2.7465401E-06  2.8634900E-06  0.1537938       6.407197    
  2.8634900E-06  3.0353899E-06  0.1442355       5.372892    
  3.0353899E-06  3.3546301E-06  0.1432137       3.885388    
  3.3546301E-06  3.7074401E-06  0.1384350       3.862935    
  3.7074401E-06  4.0973500E-06  0.1331920       3.763382    
  4.0973500E-06  4.3074201E-06  0.1134133       5.437004    
  4.3074201E-06  4.5282700E-06  0.1127897       5.349010    
  4.5282700E-06  5.0045101E-06  0.1106017       3.672370    
  5.0045101E-06  5.5308401E-06  9.6421972E-02   3.733876    
  5.5308401E-06  6.2672698E-06  8.1288993E-02   3.492245    
  6.2672698E-06  7.1017398E-06  7.0809707E-02   3.361777    
  7.1017398E-06  8.0473301E-06  5.8429435E-02   3.539161    
  8.0473301E-06  9.1188203E-06  5.2477580E-02   3.555165    
  9.1188203E-06  1.0333000E-05  4.9788833E-02   3.486022    
  1.0333000E-05  1.1708800E-05  4.6542957E-02   3.355121    
  1.1708800E-05  1.3267800E-05  4.4425342E-02   3.277483    
  1.3267800E-05  1.5034400E-05  4.1973691E-02   3.116396    
  1.5034400E-05  1.7036200E-05  3.5887457E-02   3.183069    
  1.7036200E-05  1.9304500E-05  3.9842922E-02   2.879042    
  1.9304500E-05  2.1334799E-05  4.1637976E-02   2.923048    
  2.1334799E-05  2.1874899E-05  3.7107088E-02   6.019129    
  2.1874899E-05  2.3578599E-05  4.4752356E-02   3.106757    
  2.3578599E-05  2.4175501E-05  6.0399640E-02   4.578817    
  2.4175501E-05  2.4787500E-05  0.1107327       3.404218    
  2.4787500E-05  2.6058400E-05  5.2543666E-02   3.365269    
  2.6058400E-05  2.8087899E-05  1.6150903E-02   4.627513    
  2.8087899E-05  3.1827800E-05  1.4435376E-02   3.649902    
  3.1827800E-05  3.4306700E-05  1.5046277E-02   4.405680    
  3.4306700E-05  3.5175199E-05  1.3668755E-02   7.883300    
  3.5175199E-05  3.6065601E-05  1.2884175E-02   7.962481    
  3.6065601E-05  4.0867701E-05  1.3708268E-02   3.247458    
  4.0867701E-05  4.6309200E-05  1.3414913E-02   3.127864    
  4.6309200E-05  5.2475199E-05  1.2804301E-02   2.923150    
  5.2475199E-05  5.6562199E-05  1.0658081E-02   4.072951    
  5.6562199E-05  5.9462200E-05  1.1740486E-02   4.651174    
  5.9462200E-05  6.2510902E-05  1.1801993E-02   4.408975    
  6.2510902E-05  6.7379500E-05  1.1410859E-02   3.608404    
  6.7379500E-05  7.6350902E-05  1.0643598E-02   2.729459    
  7.6350902E-05  8.6516899E-05  9.1842618E-03   2.792375    
  8.6516899E-05  9.8036500E-05  7.5866664E-03   2.923115    
  9.8036500E-05  1.1109000E-04  7.6690949E-03   2.777944    
  1.1109000E-04  1.1678600E-04  7.7488096E-03   3.970131    
  1.1678600E-04  1.2277300E-04  8.7533165E-03   3.774354    
  1.2277300E-04  1.2906799E-04  9.1208294E-03   3.617351    
  1.2906799E-04  1.3568600E-04  6.0430849E-03   4.379570    
  1.3568600E-04  1.4264201E-04  5.9165503E-03   4.205564    
  1.4264201E-04  1.4995600E-04  5.6042653E-03   4.222288    
  1.4995600E-04  1.5764400E-04  6.4595160E-03   3.788390    
  1.5764400E-04  1.6163501E-04  7.1482048E-03   5.089088    
  1.6163501E-04  1.6572700E-04  7.5478721E-03   4.857316    
  1.6572700E-04  1.6992200E-04  5.6057638E-03   5.595277    
  1.6992200E-04  1.7422400E-04  4.7771297E-03   5.876931    
  1.7422400E-04  1.8315599E-04  6.2384997E-03   3.637752    
  1.8315599E-04  1.9254700E-04  4.0844926E-03   4.271484    
  1.9254700E-04  2.0241900E-04  4.2791157E-03   4.072777    
  2.0241900E-04  2.1279699E-04  4.8370212E-03   3.811518    
  2.1279699E-04  2.2370800E-04  4.5984550E-03   3.892031    
  2.2370800E-04  2.3517800E-04  4.3099816E-03   3.876435    
  2.3517800E-04  2.4723500E-04  5.3327130E-03   3.381639    
  2.4723500E-04  2.5991100E-04  4.4600251E-03   3.665890    
  2.5991100E-04  2.7323700E-04  5.1531340E-03   3.257041    
  2.7323700E-04  2.8015400E-04  3.1667391E-03   5.734975    
  2.8015400E-04  2.8724599E-04  3.5806457E-03   5.436121    
  2.8724599E-04  2.9451799E-04  3.9779460E-03   5.087611    
  2.9451799E-04  3.0197401E-04  5.6803832E-03   4.255160    
  3.0197401E-04  3.0961799E-04  7.1997144E-03   3.738549    
  3.0961799E-04  3.1745600E-04  4.7732750E-03   4.344892    
  3.1745600E-04  3.3373301E-04  2.6915597E-03   4.008567    
  3.3373301E-04  3.5084400E-04  3.5530340E-03   3.475086    
  3.5084400E-04  3.6883200E-04  2.5727360E-03   3.884240    
  3.6883200E-04  3.8774201E-04  2.1726224E-03   4.175642    
  3.8774201E-04  4.0762199E-04  1.6310508E-03   4.724080    
  4.0762199E-04  4.2852099E-04  1.4825474E-03   4.916936    
  4.2852099E-04  4.5049199E-04  1.2724838E-03   5.170313    
  4.5049199E-04  4.7358900E-04  1.8880026E-03   3.908671    
  4.7358900E-04  4.9787102E-04  2.2414404E-03   3.593602    
  4.9787102E-04  5.1047403E-04  2.1858816E-03   5.022339    
  5.1047403E-04  5.2339700E-04  2.0536506E-03   5.207907    
  5.2339700E-04  5.3664698E-04  2.3126653E-03   4.852036    
  5.3664698E-04  5.5023201E-04  2.3123994E-03   4.857368    
  5.5023201E-04  5.7844300E-04  2.2831201E-03   3.377780    
  5.7844300E-04  6.0810102E-04  2.4009396E-03   3.267135    
  6.0810102E-04  6.3927902E-04  2.4943689E-03   3.087294    
  6.3927902E-04  6.7205500E-04  1.8656836E-03   3.484206    
  6.7205500E-04  7.0651202E-04  1.8783284E-03   3.410649    
  7.0651202E-04  7.4273598E-04  1.6805306E-03   3.419429    
  7.4273598E-04  7.8081700E-04  1.6212038E-03   3.461488    
  7.8081700E-04  8.2085002E-04  1.5242645E-03   3.529026    
  8.2085002E-04  8.6293602E-04  1.2983886E-03   3.662174    
  8.6293602E-04  9.0717903E-04  1.0857384E-03   3.812062    
  9.0717903E-04  9.5369201E-04  9.1294193E-04   4.104246    
  9.5369201E-04  9.6163998E-04  1.1340791E-03   8.712129    
  9.6163998E-04  9.7783399E-04  6.4775092E-04   8.225492    
  9.7783399E-04  1.0025901E-03  6.1912113E-04   6.678427    
  1.0025901E-03  1.0539900E-03  6.4007088E-04   4.747857    
  1.0539900E-03  1.1080300E-03  7.4656855E-04   4.157579    
  1.1080300E-03  1.1648400E-03  8.3023903E-04   3.843775    
  1.1648400E-03  1.1943300E-03  9.6541556E-04   4.970278    
  1.1943300E-03  1.2245600E-03  8.2028424E-04   5.485283    
  1.2245600E-03  1.2873500E-03  7.8275712E-04   3.875727    
  1.2873500E-03  1.3533500E-03  5.2776089E-04   4.431240    
  1.3533500E-03  1.4227401E-03  6.4188207E-04   4.032740    
  1.4227401E-03  1.4956900E-03  6.2640943E-04   3.914833    
  1.4956900E-03  1.5335500E-03  6.2805251E-04   5.477977    
  1.5335500E-03  1.5723699E-03  5.2959984E-04   6.042222    
  1.5723699E-03  1.6121800E-03  5.5081403E-04   5.642307    
  1.6121800E-03  1.6529900E-03  5.2241830E-04   5.834667    
  1.6529900E-03  1.7377400E-03  5.4212037E-04   3.926048    
  1.7377400E-03  1.8268300E-03  4.8938108E-04   4.040617    
  1.8268300E-03  1.8730800E-03  3.6406651E-04   6.669681    
  1.8730800E-03  1.9205000E-03  4.3800814E-04   5.847893    
  1.9205000E-03  1.9691200E-03  4.1636583E-04   6.068716    
  1.9691200E-03  2.0189700E-03  4.3411559E-04   5.817372    
  2.0189700E-03  2.1224800E-03  4.0064211E-04   4.247103    
  2.1224800E-03  2.2313001E-03  4.5930303E-04   3.793251    
  2.2313001E-03  2.2688799E-03  5.5775460E-04   5.918249    
  2.2688799E-03  2.3068599E-03  4.3715292E-04   6.620958    
  2.3068599E-03  2.3457000E-03  5.1375024E-04   5.878334    
  2.3457000E-03  2.3652499E-03  6.3849782E-04   7.633042    
  2.3652499E-03  2.3852000E-03  6.3700118E-04   7.884812    
  2.3852000E-03  2.4251300E-03  4.4333315E-04   6.334433    
  2.4251300E-03  2.4659701E-03  4.1900406E-04   6.369408    
  2.4659701E-03  2.5923999E-03  3.7369973E-04   3.893046    
  2.5923999E-03  2.7253199E-03  3.3841268E-04   4.032350    
  2.7253199E-03  2.8650500E-03  2.9132894E-04   4.298144    
  2.8650500E-03  3.0119400E-03  2.2927414E-04   4.766623    
  3.0119400E-03  3.0881900E-03  2.3738018E-04   6.213290    
  3.0881900E-03  3.1663701E-03  2.1206343E-04   6.882613    
  3.1663701E-03  3.2465300E-03  1.5801452E-04   7.549225    
  3.2465300E-03  3.3287101E-03  1.4790839E-04   7.737936    
  3.3287101E-03  3.4993801E-03  1.4251932E-04   5.440334    
  3.4993801E-03  3.6787901E-03  1.2490911E-04   5.578718    
  3.6787901E-03  3.8674099E-03  1.1992660E-04   5.531888    
  3.8674099E-03  4.0656999E-03  1.3075813E-04   5.327089    
  4.0656999E-03  4.2741499E-03  1.3576976E-04   5.103910    
  4.2741499E-03  4.4932901E-03  9.1855363E-05   5.973833    
  4.4932901E-03  4.6070400E-03  1.0621535E-04   7.709835    
  4.6070400E-03  4.7236700E-03  1.0751258E-04   7.538763    
  4.7236700E-03  4.8432499E-03  1.2247618E-04   7.196029    
  4.8432499E-03  4.9658502E-03  1.1087947E-04   7.456722    
  4.9658502E-03  5.2204598E-03  8.5119027E-05   5.706056    
  5.2204598E-03  5.4881200E-03  8.4414729E-05   5.985448    
  5.4881200E-03  5.7695000E-03  7.6923643E-05   5.807943    
  5.7695000E-03  5.9155500E-03  6.1160536E-05   9.074978    
  5.9155500E-03  6.0653100E-03  6.6348715E-05   8.649251    
  6.0653100E-03  6.2188501E-03  6.8598209E-05   8.219231    
  6.2188501E-03  6.3762800E-03  5.6251025E-05   8.730781    
  6.3762800E-03  6.5377001E-03  6.5229309E-05   8.453906    
  6.5377001E-03  6.5923799E-03  6.1673600E-05   14.26011    
  6.5923799E-03  6.6475999E-03  5.2806958E-05   14.88466    
  6.6475999E-03  6.7031998E-03  3.7621186E-05   18.23278    
  6.7031998E-03  6.8728901E-03  4.8842543E-05   9.337155    
  6.8728901E-03  7.0468802E-03  4.9844275E-05   9.048358    
  7.0468802E-03  7.2252699E-03  4.3419768E-05   9.569955    
  7.2252699E-03  7.4081798E-03  3.7279020E-05   10.23584    
  7.4081798E-03  7.5957198E-03  3.5239027E-05   10.13011    
  7.5957198E-03  7.7880099E-03  3.0600746E-05   11.30759    
  7.7880099E-03  7.9851598E-03  3.3615921E-05   10.82090    
  7.9851598E-03  8.1873098E-03  4.1082418E-05   9.573957    
  8.1873098E-03  8.3945701E-03  3.3211069E-05   10.44377    
  8.3945701E-03  8.6070802E-03  3.4374843E-05   10.16419    
  8.6070802E-03  8.8249696E-03  2.8098983E-05   11.21365    
  8.8249696E-03  9.0483697E-03  3.1741947E-05   10.01314    
  9.0483697E-03  9.2774397E-03  2.9361659E-05   10.77996    
  9.2774397E-03  9.5122904E-03  3.6954894E-05   9.328956    
  9.5122904E-03  9.7530996E-03  2.7549402E-05   10.25555    
  9.7530996E-03  9.9999998E-03  2.8865714E-05   10.18679    
  9.9999998E-03  1.0253200E-02  2.1602453E-05   11.41916    
  1.0253200E-02  1.0512700E-02  2.5975538E-05   10.54746    
  1.0512700E-02  1.0778800E-02  2.7594418E-05   10.32154    
  1.0778800E-02  1.1051700E-02  2.8788321E-05   10.00052    
  1.1051700E-02  1.1331500E-02  2.0022117E-05   11.74709    
  1.1331500E-02  1.1618300E-02  2.1193468E-05   10.79570    
  1.1618300E-02  1.1912500E-02  1.9242134E-05   11.57157    
  1.1912500E-02  1.2214000E-02  1.8061068E-05   11.60895    
  1.2214000E-02  1.2523200E-02  1.9096920E-05   10.97994    
  1.2523200E-02  1.2840200E-02  1.9790583E-05   10.60617    
  1.2840200E-02  1.3165300E-02  1.8423198E-05   11.02704    
  1.3165300E-02  1.3498600E-02  2.1979718E-05   10.33313    
  1.3498600E-02  1.3840300E-02  2.0569680E-05   10.39696    
  1.3840300E-02  1.4190700E-02  2.0204867E-05   10.44710    
  1.4190700E-02  1.4549900E-02  1.7122247E-05   10.94211    
  1.4549900E-02  1.4918300E-02  1.5681289E-05   11.51634    
  1.4918300E-02  1.5295900E-02  1.7856439E-05   10.71721    
  1.5295900E-02  1.5683100E-02  1.5350643E-05   11.32389    
  1.5683100E-02  1.6080100E-02  1.7978055E-05   10.10889    
  1.6080100E-02  1.6487200E-02  1.6382181E-05   11.06843    
  1.6487200E-02  1.6904600E-02  1.6391652E-05   10.41442    
  1.6904600E-02  1.7332500E-02  1.3405176E-05   11.43181    
  1.7332500E-02  1.7771300E-02  1.5580847E-05   10.50183    
  1.7771300E-02  1.8221200E-02  1.7404987E-05   9.988934    
  1.8221200E-02  1.8682500E-02  1.5225723E-05   10.18092    
  1.8682500E-02  1.9155400E-02  1.3501320E-05   10.97768    
  1.9155400E-02  1.9640300E-02  1.5608675E-05   9.842531    
  1.9640300E-02  2.0000000E-02  1.3804204E-05   12.54941    


 # Detector n:            6   nfblc4    
 # N. of energy intervals         120
  2.0000000E-02  2.1063058E-02  1.3984435E-05   7.031597    
  2.1063058E-02  2.2182621E-02  1.3585894E-05   7.044736    
  2.2182621E-02  2.3361692E-02  1.1855928E-05   7.204455    
  2.3361692E-02  2.4603436E-02  1.2157716E-05   6.936748    
  2.4603436E-02  2.5911180E-02  1.1803899E-05   7.010629    
  2.5911180E-02  2.7288437E-02  1.2535615E-05   6.456905    
  2.7288437E-02  2.8738894E-02  1.2562936E-05   6.540056    
  2.8738894E-02  3.0266454E-02  1.1754396E-05   6.471950    
  3.0266454E-02  3.1875204E-02  1.0728836E-05   6.509976    
  3.1875204E-02  3.3569463E-02  1.2754381E-05   5.875997    
  3.3569463E-02  3.5353780E-02  1.0151924E-05   6.335463    
  3.5353780E-02  3.7232935E-02  1.2292391E-05   5.709363    
  3.7232935E-02  3.9211977E-02  1.1774101E-05   5.822878    
  3.9211977E-02  4.1296210E-02  1.2192936E-05   5.526697    
  4.1296210E-02  4.3491218E-02  1.1035213E-05   5.476166    
  4.3491218E-02  4.5802910E-02  1.1531674E-05   5.347182    
  4.5802910E-02  4.8237469E-02  1.2135499E-05   4.986835    
  4.8237469E-02  5.0801434E-02  1.0251390E-05   5.388288    
  5.0801434E-02  5.3501677E-02  1.1573357E-05   4.942893    
  5.3501677E-02  5.6345452E-02  1.1009254E-05   4.845856    
  5.6345452E-02  5.9340376E-02  1.1034046E-05   4.778550    
  5.9340376E-02  6.2494490E-02  9.9619174E-06   5.004169    
  6.2494490E-02  6.5816253E-02  1.0766309E-05   4.574662    
  6.5816253E-02  6.9314592E-02  1.0893345E-05   4.565630    
  6.9314592E-02  7.2998859E-02  9.6232070E-06   4.677718    
  7.2998859E-02  7.6878957E-02  9.1101301E-06   4.562995    
  7.6878957E-02  8.0965310E-02  8.6310811E-06   4.535354    
  8.0965310E-02  8.5268848E-02  8.6323098E-06   4.562497    
  8.5268848E-02  8.9801140E-02  7.6808637E-06   4.705209    
  8.9801140E-02  9.4574332E-02  7.7378872E-06   4.561513    
  9.4574332E-02  9.9601232E-02  8.2088436E-06   4.293656    
  9.9601232E-02  0.1048953      6.9743051E-06   4.566296    
  0.1048953      0.1104708      6.8854920E-06   4.539386    
  0.1104708      0.1163427      6.3972893E-06   4.486757    
  0.1163427      0.1225266      5.7236871E-06   4.672935    
  0.1225266      0.1290393      5.5365899E-06   4.613503    
  0.1290393      0.1358981      5.3120530E-06   4.537470    
  0.1358981      0.1431215      4.5765719E-06   4.810581    
  0.1431215      0.1507288      4.1729991E-06   4.789699    
  0.1507288      0.1587405      3.9324668E-06   4.930308    
  0.1587405      0.1671780      3.2258613E-06   5.217318    
  0.1671780      0.1760640      3.1853813E-06   5.088691    
  0.1760640      0.1854223      2.7301835E-06   5.468290    
  0.1854223      0.1952781      2.2200886E-06   5.920215    
  0.1952781      0.2056577      1.8703697E-06   6.185335    
  0.2056577      0.2165890      1.8432033E-06   6.313696    
  0.2165890      0.2281013      1.3778129E-06   6.959325    
  0.2281013      0.2402256      1.1430714E-06   7.580836    
  0.2402256      0.2529943      9.5910070E-07   7.863612    
  0.2529943      0.2664417      7.4054066E-07   8.368858    
  0.2664417      0.2806039      7.4565963E-07   8.677886    
  0.2806039      0.2955188      4.7630874E-07   10.50095    
  0.2955188      0.3112265      4.2523885E-07   10.50757    
  0.3112265      0.3277690      3.6895355E-07   11.26288    
  0.3277690      0.3451909      3.3814354E-07   11.44674    
  0.3451909      0.3635389      1.9008540E-07   14.11451    
  0.3635389      0.3828620      1.2507232E-07   17.25540    
  0.3828620      0.4032122      1.3689508E-07   16.79288    
  0.4032122      0.4246442      1.3412361E-07   16.97198    
  0.4246442      0.4472153      8.1770089E-08   20.92263    
  0.4472153      0.4709860      6.3682926E-08   22.14241    
  0.4709860      0.4960204      5.2417196E-08   25.87039    
  0.4960204      0.5223852      3.1916240E-08   29.13461    
  0.5223852      0.5501516      3.5483382E-08   28.16209    
  0.5501516      0.5793938      2.0595257E-08   34.86485    
  0.5793938      0.6101903      1.5812205E-08   38.10294    
  0.6101903      0.6426237      9.5608677E-09   48.41461    
  0.6426237      0.6767811      8.8796686E-09   48.51736    
  0.6767811      0.7127540      2.3293047E-09   90.99738    
  0.7127540      0.7506390      4.7900119E-09   64.54288    
  0.7506390      0.7905375      6.4972125E-09   54.90475    
  0.7905375      0.8325570      3.9340655E-09   68.03649    
  0.8325570      0.8768098      1.9476445E-09   91.78010    
  0.8768098      0.9234148      1.7654145E-09   96.22246    
  0.9234148      0.9724970       0.000000       0.000000    
  0.9724970       1.024188      2.1090608E-10   96.22246    
   1.024188       1.078627       0.000000       0.000000    
   1.078627       1.135959       0.000000       0.000000    
   1.135959       1.196338       0.000000       0.000000    
   1.196338       1.259927       0.000000       0.000000    
   1.259927       1.326896       0.000000       0.000000    
   1.326896       1.397425       0.000000       0.000000    
   1.397425       1.471702       0.000000       0.000000    
   1.471702       1.549927       0.000000       0.000000    
   1.549927       1.632310       0.000000       0.000000    
   1.632310       1.719072       0.000000       0.000000    
   1.719072       1.810446       0.000000       0.000000    
   1.810446       1.906677       0.000000       0.000000    
   1.906677       2.008022       0.000000       0.000000    
   2.008022       2.114754       0.000000       0.000000    
   2.114754       2.227160       0.000000       0.000000    
   2.227160       2.345540       0.000000       0.000000    
   2.345540       2.470212       0.000000       0.000000    
   2.470212       2.601511       0.000000       0.000000    
   2.601511       2.739789       0.000000       0.000000    
   2.739789       2.885417       0.000000       0.000000    
   2.885417       3.038786       0.000000       0.000000    
   3.038786       3.200306       0.000000       0.000000    
   3.200306       3.370412       0.000000       0.000000    
   3.370412       3.549559       0.000000       0.000000    
   3.549559       3.738229       0.000000       0.000000    
   3.738229       3.936927       0.000000       0.000000    
   3.936927       4.146185       0.000000       0.000000    
   4.146185       4.366568       0.000000       0.000000    
   4.366568       4.598663       0.000000       0.000000    
   4.598663       4.843096       0.000000       0.000000    
   4.843096       5.100521       0.000000       0.000000    
   5.100521       5.371628       0.000000       0.000000    
   5.371628       5.657146       0.000000       0.000000    
   5.657146       5.957840       0.000000       0.000000    
   5.957840       6.274517       0.000000       0.000000    
   6.274517       6.608026       0.000000       0.000000    
   6.608026       6.959262       0.000000       0.000000    
   6.959262       7.329167       0.000000       0.000000    
   7.329167       7.718733       0.000000       0.000000    
   7.718733       8.129007       0.000000       0.000000    
   8.129007       8.561088       0.000000       0.000000    
   8.561088       9.016134       0.000000       0.000000    
   9.016134       9.495368       0.000000       0.000000    
   9.495368       10.00008       0.000000       0.000000    


 # Detector n:            7   CHallblc4 
 # N. of energy intervals         120
  2.0000000E-02  2.1063058E-02  4.2896360E-07   32.55934    
  2.1063058E-02  2.2182621E-02  4.8925597E-07   31.75099    
  2.2182621E-02  2.3361692E-02  3.4162557E-07   40.48610    
  2.3361692E-02  2.4603436E-02  2.2304084E-07   39.15461    
  2.4603436E-02  2.5911180E-02  5.3930250E-07   30.47601    
  2.5911180E-02  2.7288437E-02  2.1509942E-07   38.20649    
  2.7288437E-02  2.8738894E-02  1.6678075E-07   41.45491    
  2.8738894E-02  3.0266454E-02  3.6815763E-07   32.75918    
  3.0266454E-02  3.1875204E-02  3.7427012E-07   29.84730    
  3.1875204E-02  3.3569463E-02  2.6579738E-07   31.63797    
  3.3569463E-02  3.5353780E-02  2.9367712E-07   33.07694    
  3.5353780E-02  3.7232935E-02  2.2233647E-07   38.04271    
  3.7232935E-02  3.9211977E-02  3.1229612E-07   28.73024    
  3.9211977E-02  4.1296210E-02  3.0421333E-07   31.44587    
  4.1296210E-02  4.3491218E-02  1.6544611E-07   46.58069    
  4.3491218E-02  4.5802910E-02  2.3411542E-07   30.40176    
  4.5802910E-02  4.8237469E-02  4.1689594E-07   25.04436    
  4.8237469E-02  5.0801434E-02  2.3264390E-07   32.06939    
  5.0801434E-02  5.3501677E-02  1.5833599E-07   37.89688    
  5.3501677E-02  5.6345452E-02  2.6433605E-07   30.14430    
  5.6345452E-02  5.9340376E-02  2.8643720E-07   26.67653    
  5.9340376E-02  6.2494490E-02  3.0179370E-07   28.00218    
  6.2494490E-02  6.5816253E-02  1.7213132E-07   34.58207    
  6.5816253E-02  6.9314592E-02  2.1507039E-07   32.17085    
  6.9314592E-02  7.2998859E-02  1.7655969E-07   34.32436    
  7.2998859E-02  7.6878957E-02  2.1577350E-07   27.32710    
  7.6878957E-02  8.0965310E-02  1.8635265E-07   29.73765    
  8.0965310E-02  8.5268848E-02  3.0345157E-07   24.84318    
  8.5268848E-02  8.9801140E-02  2.4565438E-07   25.24237    
  8.9801140E-02  9.4574332E-02  1.1064837E-07   34.69631    
  9.4574332E-02  9.9601232E-02  1.2730845E-07   34.98223    
  9.9601232E-02  0.1048953      6.2983993E-08   39.65346    
  0.1048953      0.1104708      1.4286985E-07   31.72523    
  0.1104708      0.1163427      1.8862890E-07   25.84898    
  0.1163427      0.1225266      1.1443014E-07   31.80621    
  0.1225266      0.1290393      1.2342223E-07   30.49623    
  0.1290393      0.1358981      7.5728771E-08   37.09519    
  0.1358981      0.1431215      1.1826026E-07   28.99588    
  0.1431215      0.1507288      1.0039789E-07   31.21026    
  0.1507288      0.1587405      7.4228197E-08   35.40141    
  0.1587405      0.1671780      3.9457341E-08   46.08616    
  0.1671780      0.1760640      7.7172182E-08   30.53700    
  0.1760640      0.1854223      3.7315974E-08   45.29195    
  0.1854223      0.1952781      6.9680539E-08   33.84005    
  0.1952781      0.2056577      5.5800609E-08   36.51596    
  0.2056577      0.2165890      6.3748800E-08   33.59319    
  0.2165890      0.2281013      4.5823974E-08   37.94281    
  0.2281013      0.2402256      7.6710904E-08   29.98036    
  0.2402256      0.2529943      6.2427269E-08   29.61233    
  0.2529943      0.2664417      3.5772338E-08   39.07771    
  0.2664417      0.2806039      3.5469981E-08   38.42942    
  0.2806039      0.2955188      2.0858050E-08   46.26294    
  0.2955188      0.3112265      2.4208306E-08   43.06702    
  0.3112265      0.3277690      1.8465022E-08   48.44698    
  0.3277690      0.3451909      2.5714202E-08   40.66187    
  0.3451909      0.3635389      3.5731468E-10   77.84747    
  0.3635389      0.3828620      4.4289274E-09   92.02380    
  0.3828620      0.4032122      1.0315215E-08   57.13819    
  0.4032122      0.4246442      5.0579496E-09   76.03638    
  0.4246442      0.4472153      1.3184364E-08   48.72007    
  0.4472153      0.4709860      2.5297144E-09   70.03117    
  0.4709860      0.4960204      8.3711198E-09   54.31491    
  0.4960204      0.5223852       0.000000       0.000000    
  0.5223852      0.5501516      2.3167184E-09   96.22246    
  0.5501516      0.5793938      2.7628346E-09   96.22246    
  0.5793938      0.6101903      7.1338080E-10   96.22246    
  0.6101903      0.6426237       0.000000       0.000000    
  0.6426237      0.6767811       0.000000       0.000000    
  0.6767811      0.7127540      3.5351060E-09   70.46583    
  0.7127540      0.7506390      4.2716395E-09   68.02592    
  0.7506390      0.7905375      1.1954902E-09   99.00000    
  0.7905375      0.8325570       0.000000       0.000000    
  0.8325570      0.8768098       0.000000       0.000000    
  0.8768098      0.9234148       0.000000       0.000000    
  0.9234148      0.9724970       0.000000       0.000000    
  0.9724970       1.024188       0.000000       0.000000    
   1.024188       1.078627       0.000000       0.000000    
   1.078627       1.135959       0.000000       0.000000    
   1.135959       1.196338       0.000000       0.000000    
   1.196338       1.259927       0.000000       0.000000    
   1.259927       1.326896       0.000000       0.000000    
   1.326896       1.397425       0.000000       0.000000    
   1.397425       1.471702       0.000000       0.000000    
   1.471702       1.549927       0.000000       0.000000    
   1.549927       1.632310       0.000000       0.000000    
   1.632310       1.719072       0.000000       0.000000    
   1.719072       1.810446       0.000000       0.000000    
   1.810446       1.906677       0.000000       0.000000    
   1.906677       2.008022       0.000000       0.000000    
   2.008022       2.114754       0.000000       0.000000    
   2.114754       2.227160       0.000000       0.000000    
   2.227160       2.345540       0.000000       0.000000    
   2.345540       2.470212       0.000000       0.000000    
   2.470212       2.601511       0.000000       0.000000    
   2.601511       2.739789       0.000000       0.000000    
   2.739789       2.885417       0.000000       0.000000    
   2.885417       3.038786       0.000000       0.000000    
   3.038786       3.200306       0.000000       0.000000    
   3.200306       3.370412       0.000000       0.000000    
   3.370412       3.549559       0.000000       0.000000    
   3.549559       3.738229       0.000000       0.000000    
   3.738229       3.936927       0.000000       0.000000    
   3.936927       4.146185       0.000000       0.000000    
   4.146185       4.366568       0.000000       0.000000    
   4.366568       4.598663       0.000000       0.000000    
   4.598663       4.843096       0.000000       0.000000    
   4.843096       5.100521       0.000000       0.000000    
   5.100521       5.371628       0.000000       0.000000    
   5.371628       5.657146       0.000000       0.000000    
   5.657146       5.957840       0.000000       0.000000    
   5.957840       6.274517       0.000000       0.000000    
   6.274517       6.608026       0.000000       0.000000    
   6.608026       6.959262       0.000000       0.000000    
   6.959262       7.329167       0.000000       0.000000    
   7.329167       7.718733       0.000000       0.000000    
   7.718733       8.129007       0.000000       0.000000    
   8.129007       8.561088       0.000000       0.000000    
   8.561088       9.016134       0.000000       0.000000    
   9.016134       9.495368       0.000000       0.000000    
   9.495368       10.00008       0.000000       0.000000    


 # Detector n:            8   mublc4    
 # N. of energy intervals         120
  2.0000000E-02  2.1063058E-02  1.6995015E-08   96.22246    
  2.1063058E-02  2.2182621E-02  5.8166169E-08   96.22246    
  2.2182621E-02  2.3361692E-02  7.1915558E-08   99.00000    
  2.3361692E-02  2.4603436E-02   0.000000       0.000000    
  2.4603436E-02  2.5911180E-02  6.4504036E-08   96.22246    
  2.5911180E-02  2.7288437E-02  5.5550796E-08   96.22246    
  2.7288437E-02  2.8738894E-02  4.7793513E-08   96.22246    
  2.8738894E-02  3.0266454E-02  1.0769670E-07   68.04081    
  3.0266454E-02  3.1875204E-02  8.1732189E-08   69.85780    
  3.1875204E-02  3.3569463E-02  2.4668021E-08   96.22246    
  3.3569463E-02  3.5353780E-02   0.000000       0.000000    
  3.5353780E-02  3.7232935E-02   0.000000       0.000000    
  3.7232935E-02  3.9211977E-02   0.000000       0.000000    
  3.9211977E-02  4.1296210E-02   0.000000       0.000000    
  4.1296210E-02  4.3491218E-02   0.000000       0.000000    
  4.3491218E-02  4.5802910E-02  5.7622923E-08   57.53060    
  4.5802910E-02  4.8237469E-02  5.3041749E-08   69.97958    
  4.8237469E-02  5.0801434E-02  2.6079988E-08   96.22246    
  5.0801434E-02  5.3501677E-02   0.000000       0.000000    
  5.3501677E-02  5.6345452E-02  1.9514925E-08   96.22246    
  5.6345452E-02  5.9340376E-02  2.7525131E-08   96.22246    
  5.9340376E-02  6.2494490E-02  3.5980796E-09   96.22246    
  6.2494490E-02  6.5816253E-02   0.000000       0.000000    
  6.5816253E-02  6.9314592E-02  5.7561529E-08   60.40691    
  6.9314592E-02  7.2998859E-02  9.8188586E-09   96.22246    
  7.2998859E-02  7.6878957E-02  5.7942046E-08   53.43126    
  7.6878957E-02  8.0965310E-02  2.8697659E-08   87.64520    
  8.0965310E-02  8.5268848E-02   0.000000       0.000000    
  8.5268848E-02  8.9801140E-02  1.7099794E-08   99.00000    
  8.9801140E-02  9.4574332E-02  1.6922062E-08   96.22246    
  9.4574332E-02  9.9601232E-02  1.6081721E-08   99.00000    
  9.9601232E-02  0.1048953       0.000000       0.000000    
  0.1048953      0.1104708       0.000000       0.000000    
  0.1104708      0.1163427      3.6875885E-08   56.36255    
  0.1163427      0.1225266      4.3397823E-09   99.00000    
  0.1225266      0.1290393      2.5159881E-08   72.43454    
  0.1290393      0.1358981      1.1789385E-08   96.22246    
  0.1358981      0.1431215      1.1178513E-08   96.22246    
  0.1431215      0.1507288      2.0911598E-08   74.19127    
  0.1507288      0.1587405      1.0081234E-08   99.00000    
  0.1587405      0.1671780      1.9595392E-08   68.04134    
  0.1671780      0.1760640      2.2217453E-08   56.33941    
  0.1760640      0.1854223       0.000000       0.000000    
  0.1854223      0.1952781      8.2648572E-09   96.22246    
  0.1952781      0.2056577       0.000000       0.000000    
  0.2056577      0.2165890      1.5933425E-08   64.00457    
  0.2165890      0.2281013      7.1972339E-09   96.22246    
  0.2281013      0.2402256      1.4353295E-08   63.77736    
  0.2402256      0.2529943      1.9106455E-08   55.53177    
  0.2529943      0.2664417      6.0075598E-09   96.22246    
  0.2664417      0.2806039      6.4824390E-09   85.30818    
  0.2806039      0.2955188      5.4882392E-09   96.22246    
  0.2955188      0.3112265      5.1315849E-09   96.22246    
  0.3112265      0.3277690       0.000000       0.000000    
  0.3277690      0.3451909      4.7447779E-09   96.22246    
  0.3451909      0.3635389       0.000000       0.000000    
  0.3635389      0.3828620      1.9779689E-10   96.22246    
  0.3828620      0.4032122       0.000000       0.000000    
  0.4032122      0.4246442       0.000000       0.000000    
  0.4246442      0.4472153       0.000000       0.000000    
  0.4472153      0.4709860       0.000000       0.000000    
  0.4709860      0.4960204      1.0934336E-09   96.22246    
  0.4960204      0.5223852       0.000000       0.000000    
  0.5223852      0.5501516      2.3167184E-09   96.22246    
  0.5501516      0.5793938       0.000000       0.000000    
  0.5793938      0.6101903      7.1338080E-10   96.22246    
  0.6101903      0.6426237       0.000000       0.000000    
  0.6426237      0.6767811       0.000000       0.000000    
  0.6767811      0.7127540       0.000000       0.000000    
  0.7127540      0.7506390       0.000000       0.000000    
  0.7506390      0.7905375       0.000000       0.000000    
  0.7905375      0.8325570       0.000000       0.000000    
  0.8325570      0.8768098       0.000000       0.000000    
  0.8768098      0.9234148       0.000000       0.000000    
  0.9234148      0.9724970       0.000000       0.000000    
  0.9724970       1.024188       0.000000       0.000000    
   1.024188       1.078627       0.000000       0.000000    
   1.078627       1.135959       0.000000       0.000000    
   1.135959       1.196338       0.000000       0.000000    
   1.196338       1.259927       0.000000       0.000000    
   1.259927       1.326896       0.000000       0.000000    
   1.326896       1.397425       0.000000       0.000000    
   1.397425       1.471702       0.000000       0.000000    
   1.471702       1.549927       0.000000       0.000000    
   1.549927       1.632310       0.000000       0.000000    
   1.632310       1.719072       0.000000       0.000000    
   1.719072       1.810446       0.000000       0.000000    
   1.810446       1.906677       0.000000       0.000000    
   1.906677       2.008022       0.000000       0.000000    
   2.008022       2.114754       0.000000       0.000000    
   2.114754       2.227160       0.000000       0.000000    
   2.227160       2.345540       0.000000       0.000000    
   2.345540       2.470212       0.000000       0.000000    
   2.470212       2.601511       0.000000       0.000000    
   2.601511       2.739789       0.000000       0.000000    
   2.739789       2.885417       0.000000       0.000000    
   2.885417       3.038786       0.000000       0.000000    
   3.038786       3.200306       0.000000       0.000000    
   3.200306       3.370412       0.000000       0.000000    
   3.370412       3.549559       0.000000       0.000000    
   3.549559       3.738229       0.000000       0.000000    
   3.738229       3.936927       0.000000       0.000000    
   3.936927       4.146185       0.000000       0.000000    
   4.146185       4.366568       0.000000       0.000000    
   4.366568       4.598663       0.000000       0.000000    
   4.598663       4.843096       0.000000       0.000000    
   4.843096       5.100521       0.000000       0.000000    
   5.100521       5.371628       0.000000       0.000000    
   5.371628       5.657146       0.000000       0.000000    
   5.657146       5.957840       0.000000       0.000000    
   5.957840       6.274517       0.000000       0.000000    
   6.274517       6.608026       0.000000       0.000000    
   6.608026       6.959262       0.000000       0.000000    
   6.959262       7.329167       0.000000       0.000000    
   7.329167       7.718733       0.000000       0.000000    
   7.718733       8.129007       0.000000       0.000000    
   8.129007       8.561088       0.000000       0.000000    
   8.561088       9.016134       0.000000       0.000000    
   9.016134       9.495368       0.000000       0.000000    
   9.495368       10.00008       0.000000       0.000000    
