 # Detector n:            1   piPMblc2  
 # N. of energy intervals         120
  9.9999997E-06  1.1220184E-05   0.000000       0.000000    
  1.1220184E-05  1.2589254E-05   0.000000       0.000000    
  1.2589254E-05  1.4125375E-05   0.000000       0.000000    
  1.4125375E-05  1.5848931E-05   0.000000       0.000000    
  1.5848931E-05  1.7782793E-05   0.000000       0.000000    
  1.7782793E-05  1.9952624E-05   0.000000       0.000000    
  1.9952624E-05  2.2387210E-05   0.000000       0.000000    
  2.2387210E-05  2.5118865E-05   0.000000       0.000000    
  2.5118865E-05  2.8183831E-05   0.000000       0.000000    
  2.8183831E-05  3.1622778E-05   0.000000       0.000000    
  3.1622778E-05  3.5481338E-05   0.000000       0.000000    
  3.5481338E-05  3.9810719E-05   0.000000       0.000000    
  3.9810719E-05  4.4668363E-05   0.000000       0.000000    
  4.4668363E-05  5.0118728E-05   0.000000       0.000000    
  5.0118728E-05  5.6234134E-05   0.000000       0.000000    
  5.6234134E-05  6.3095737E-05   0.000000       0.000000    
  6.3095737E-05  7.0794587E-05   0.000000       0.000000    
  7.0794587E-05  7.9432837E-05   0.000000       0.000000    
  7.9432837E-05  8.9125104E-05   0.000000       0.000000    
  8.9125104E-05  1.0000000E-04   0.000000       0.000000    
  1.0000000E-04  1.1220186E-04   0.000000       0.000000    
  1.1220186E-04  1.2589256E-04   0.000000       0.000000    
  1.2589256E-04  1.4125377E-04   0.000000       0.000000    
  1.4125377E-04  1.5848935E-04   0.000000       0.000000    
  1.5848935E-04  1.7782798E-04   0.000000       0.000000    
  1.7782798E-04  1.9952627E-04   0.000000       0.000000    
  1.9952627E-04  2.2387214E-04   0.000000       0.000000    
  2.2387214E-04  2.5118867E-04   0.000000       0.000000    
  2.5118867E-04  2.8183835E-04   0.000000       0.000000    
  2.8183835E-04  3.1622782E-04   0.000000       0.000000    
  3.1622782E-04  3.5481344E-04   0.000000       0.000000    
  3.5481344E-04  3.9810725E-04   0.000000       0.000000    
  3.9810725E-04  4.4668367E-04   0.000000       0.000000    
  4.4668367E-04  5.0118734E-04   0.000000       0.000000    
  5.0118734E-04  5.6234142E-04   0.000000       0.000000    
  5.6234142E-04  6.3095748E-04   0.000000       0.000000    
  6.3095748E-04  7.0794590E-04   0.000000       0.000000    
  7.0794590E-04  7.9432846E-04   0.000000       0.000000    
  7.9432846E-04  8.9125114E-04   0.000000       0.000000    
  8.9125114E-04  1.0000003E-03   0.000000       0.000000    
  1.0000003E-03  1.1220188E-03   0.000000       0.000000    
  1.1220188E-03  1.2589258E-03   0.000000       0.000000    
  1.2589258E-03  1.4125380E-03   0.000000       0.000000    
  1.4125380E-03  1.5848936E-03   0.000000       0.000000    
  1.5848936E-03  1.7782800E-03   0.000000       0.000000    
  1.7782800E-03  1.9952629E-03   0.000000       0.000000    
  1.9952629E-03  2.2387218E-03   0.000000       0.000000    
  2.2387218E-03  2.5118871E-03   0.000000       0.000000    
  2.5118871E-03  2.8183837E-03   0.000000       0.000000    
  2.8183837E-03  3.1622786E-03   0.000000       0.000000    
  3.1622786E-03  3.5481353E-03   0.000000       0.000000    
  3.5481353E-03  3.9810729E-03   0.000000       0.000000    
  3.9810729E-03  4.4668377E-03   0.000000       0.000000    
  4.4668377E-03  5.0118743E-03   0.000000       0.000000    
  5.0118743E-03  5.6234146E-03   0.000000       0.000000    
  5.6234146E-03  6.3095763E-03   0.000000       0.000000    
  6.3095763E-03  7.0794607E-03   0.000000       0.000000    
  7.0794607E-03  7.9432856E-03   0.000000       0.000000    
  7.9432856E-03  8.9125130E-03   0.000000       0.000000    
  8.9125130E-03  1.0000004E-02   0.000000       0.000000    
  1.0000004E-02  1.1220189E-02   0.000000       0.000000    
  1.1220189E-02  1.2589260E-02   0.000000       0.000000    
  1.2589260E-02  1.4125382E-02   0.000000       0.000000    
  1.4125382E-02  1.5848938E-02   0.000000       0.000000    
  1.5848938E-02  1.7782802E-02   0.000000       0.000000    
  1.7782802E-02  1.9952632E-02   0.000000       0.000000    
  1.9952632E-02  2.2387221E-02   0.000000       0.000000    
  2.2387221E-02  2.5118876E-02   0.000000       0.000000    
  2.5118876E-02  2.8183842E-02   0.000000       0.000000    
  2.8183842E-02  3.1622794E-02   0.000000       0.000000    
  3.1622794E-02  3.5481352E-02   0.000000       0.000000    
  3.5481352E-02  3.9810736E-02   0.000000       0.000000    
  3.9810736E-02  4.4668384E-02   0.000000       0.000000    
  4.4668384E-02  5.0118748E-02   0.000000       0.000000    
  5.0118748E-02  5.6234159E-02   0.000000       0.000000    
  5.6234159E-02  6.3095763E-02   0.000000       0.000000    
  6.3095763E-02  7.0794620E-02  2.6808636E-10   96.22246    
  7.0794620E-02  7.9432867E-02   0.000000       0.000000    
  7.9432867E-02  8.9125134E-02   0.000000       0.000000    
  8.9125134E-02  0.1000001       0.000000       0.000000    
  0.1000001      0.1122019       0.000000       0.000000    
  0.1122019      0.1258926      1.5898211E-09   96.22246    
  0.1258926      0.1412538      6.5192984E-09   83.24058    
  0.1412538      0.1584894       0.000000       0.000000    
  0.1584894      0.1778280       0.000000       0.000000    
  0.1778280      0.1995264      2.4374449E-09   69.15390    
  0.1995264      0.2238722       0.000000       0.000000    
  0.2238722      0.2511888       0.000000       0.000000    
  0.2511888      0.2818385      1.6238975E-09   96.22246    
  0.2818385      0.3162280       0.000000       0.000000    
  0.3162280      0.3548136       0.000000       0.000000    
  0.3548136      0.3981074      1.4877346E-09   96.22246    
  0.3981074      0.4466839       0.000000       0.000000    
  0.4466839      0.5011876       0.000000       0.000000    
  0.5011876      0.5623417       0.000000       0.000000    
  0.5623417      0.6309578       0.000000       0.000000    
  0.6309578      0.7079462       0.000000       0.000000    
  0.7079462      0.7943288       0.000000       0.000000    
  0.7943288      0.8912516       0.000000       0.000000    
  0.8912516       1.000001       0.000000       0.000000    
   1.000001       1.122019       0.000000       0.000000    
   1.122019       1.258926       0.000000       0.000000    
   1.258926       1.412539       0.000000       0.000000    
   1.412539       1.584894       0.000000       0.000000    
   1.584894       1.778281       0.000000       0.000000    
   1.778281       1.995264       0.000000       0.000000    
   1.995264       2.238723       0.000000       0.000000    
   2.238723       2.511888       0.000000       0.000000    
   2.511888       2.818385       0.000000       0.000000    
   2.818385       3.162280       0.000000       0.000000    
   3.162280       3.548136       0.000000       0.000000    
   3.548136       3.981075       0.000000       0.000000    
   3.981075       4.466839       0.000000       0.000000    
   4.466839       5.011876       0.000000       0.000000    
   5.011876       5.623418       0.000000       0.000000    
   5.623418       6.309578       0.000000       0.000000    
   6.309578       7.079463       0.000000       0.000000    
   7.079463       7.943289       0.000000       0.000000    
   7.943289       8.912516       0.000000       0.000000    
   8.912516       10.00001       0.000000       0.000000    


 # Detector n:            2   prblc2    
 # N. of energy intervals         120
  9.9999997E-06  1.1220184E-05   0.000000       0.000000    
  1.1220184E-05  1.2589254E-05   0.000000       0.000000    
  1.2589254E-05  1.4125375E-05   0.000000       0.000000    
  1.4125375E-05  1.5848931E-05   0.000000       0.000000    
  1.5848931E-05  1.7782793E-05   0.000000       0.000000    
  1.7782793E-05  1.9952624E-05   0.000000       0.000000    
  1.9952624E-05  2.2387210E-05   0.000000       0.000000    
  2.2387210E-05  2.5118865E-05   0.000000       0.000000    
  2.5118865E-05  2.8183831E-05   0.000000       0.000000    
  2.8183831E-05  3.1622778E-05   0.000000       0.000000    
  3.1622778E-05  3.5481338E-05   0.000000       0.000000    
  3.5481338E-05  3.9810719E-05   0.000000       0.000000    
  3.9810719E-05  4.4668363E-05   0.000000       0.000000    
  4.4668363E-05  5.0118728E-05  3.3563820E-06   8.322906    
  5.0118728E-05  5.6234134E-05   0.000000       0.000000    
  5.6234134E-05  6.3095737E-05   0.000000       0.000000    
  6.3095737E-05  7.0794587E-05   0.000000       0.000000    
  7.0794587E-05  7.9432837E-05   0.000000       0.000000    
  7.9432837E-05  8.9125104E-05   0.000000       0.000000    
  8.9125104E-05  1.0000000E-04  1.0173822E-09   20.99527    
  1.0000000E-04  1.1220186E-04  1.4259052E-07   8.597385    
  1.1220186E-04  1.2589256E-04  1.3541525E-07   8.650211    
  1.2589256E-04  1.4125377E-04  1.4230078E-07   8.635549    
  1.4125377E-04  1.5848935E-04  1.4104901E-07   8.508996    
  1.5848935E-04  1.7782798E-04  1.5021500E-07   8.559882    
  1.7782798E-04  1.9952627E-04  1.5711301E-07   8.502489    
  1.9952627E-04  2.2387214E-04  1.6152343E-07   8.502338    
  2.2387214E-04  2.5118867E-04  1.7094111E-07   8.502881    
  2.5118867E-04  2.8183835E-04  1.8048817E-07   8.551001    
  2.8183835E-04  3.1622782E-04  2.0225188E-07   8.641530    
  3.1622782E-04  3.5481344E-04  2.1434029E-07   8.665559    
  3.5481344E-04  3.9810725E-04  2.3922411E-07   8.760561    
  3.9810725E-04  4.4668367E-04  2.8009785E-07   9.091361    
  4.4668367E-04  5.0118734E-04  3.1359721E-07   9.045247    
  5.0118734E-04  5.6234142E-04  3.1416027E-07   8.662078    
  5.6234142E-04  6.3095748E-04  2.0466166E-08   30.85493    
  6.3095748E-04  7.0794590E-04  2.3905374E-08   32.29061    
  7.0794590E-04  7.9432846E-04  2.5962542E-08   34.65216    
  7.9432846E-04  8.9125114E-04  2.5550653E-08   31.59128    
  8.9125114E-04  1.0000003E-03  2.7738155E-08   31.60686    
  1.0000003E-03  1.1220188E-03  3.1707689E-08   30.63852    
  1.1220188E-03  1.2589258E-03  3.8840419E-08   31.43446    
  1.2589258E-03  1.4125380E-03  4.5798544E-08   33.30685    
  1.4125380E-03  1.5848936E-03  4.2214300E-08   30.85670    
  1.5848936E-03  1.7782800E-03  4.9711414E-08   31.43939    
  1.7782800E-03  1.9952629E-03  5.4228032E-08   31.38721    
  1.9952629E-03  2.2387218E-03  5.8949666E-08   31.31180    
  2.2387218E-03  2.5118871E-03  5.5908242E-08   31.09194    
  2.5118871E-03  2.8183837E-03  5.7880069E-08   31.59059    
  2.8183837E-03  3.1622786E-03  6.1051395E-08   31.52883    
  3.1622786E-03  3.5481353E-03  7.6558813E-08   33.07616    
  3.5481353E-03  3.9810729E-03  8.8589786E-08   32.28407    
  3.9810729E-03  4.4668377E-03  8.9551314E-08   29.59599    
  4.4668377E-03  5.0118743E-03  1.1069046E-07   32.04526    
  5.0118743E-03  5.6234146E-03  1.1598534E-07   30.25764    
  5.6234146E-03  6.3095763E-03  1.2676168E-07   30.56252    
  6.3095763E-03  7.0794607E-03  9.5615881E-08   34.81961    
  7.0794607E-03  7.9432856E-03  9.5317610E-08   37.11816    
  7.9432856E-03  8.9125130E-03  1.0489829E-07   38.07991    
  8.9125130E-03  1.0000004E-02  1.0517352E-07   37.84157    
  1.0000004E-02  1.1220189E-02  1.1366127E-07   35.30074    
  1.1220189E-02  1.2589260E-02  7.5714873E-08   48.18250    
  1.2589260E-02  1.4125382E-02  6.6101087E-08   49.28255    
  1.4125382E-02  1.5848938E-02  4.9761745E-08   67.19249    
  1.5848938E-02  1.7782802E-02  3.8662609E-08   69.46040    
  1.7782802E-02  1.9952632E-02  5.1753506E-08   62.36275    
  1.9952632E-02  2.2387221E-02  6.8010579E-08   48.25941    
  2.2387221E-02  2.5118876E-02  1.0390370E-07   42.56312    
  2.5118876E-02  2.8183842E-02  1.9302740E-07   33.30027    
  2.8183842E-02  3.1622794E-02  7.4795686E-08   56.42112    
  3.1622794E-02  3.5481352E-02  8.0300779E-08   43.82458    
  3.5481352E-02  3.9810736E-02  3.4578691E-09   86.76230    
  3.9810736E-02  4.4668384E-02  6.0544430E-08   46.23555    
  4.4668384E-02  5.0118748E-02  5.3663125E-08   55.92575    
  5.0118748E-02  5.6234159E-02  1.2343651E-07   31.01365    
  5.6234159E-02  6.3095763E-02  5.5176411E-08   40.23055    
  6.3095763E-02  7.0794620E-02  7.4381809E-08   35.04600    
  7.0794620E-02  7.9432867E-02  5.4699186E-08   41.88425    
  7.9432867E-02  8.9125134E-02  5.4589851E-08   39.68856    
  8.9125134E-02  0.1000001      2.9752069E-08   48.74062    
  0.1000001      0.1122019      2.1983137E-08   61.30206    
  0.1122019      0.1258926      2.3719666E-08   55.65012    
  0.1258926      0.1412538      2.9451680E-08   45.53255    
  0.1412538      0.1584894      1.7459181E-08   50.80108    
  0.1584894      0.1778280      1.3294507E-08   53.42012    
  0.1778280      0.1995264      1.9055253E-09   96.22246    
  0.1995264      0.2238722      1.8794448E-09   99.00000    
  0.2238722      0.2511888      1.2204648E-08   42.61850    
  0.2511888      0.2818385      6.2362275E-09   69.94650    
  0.2818385      0.3162280       0.000000       0.000000    
  0.3162280      0.3548136      2.1133111E-09   96.22246    
  0.3548136      0.3981074       0.000000       0.000000    
  0.3981074      0.4466839       0.000000       0.000000    
  0.4466839      0.5011876       0.000000       0.000000    
  0.5011876      0.5623417       0.000000       0.000000    
  0.5623417      0.6309578       0.000000       0.000000    
  0.6309578      0.7079462       0.000000       0.000000    
  0.7079462      0.7943288       0.000000       0.000000    
  0.7943288      0.8912516       0.000000       0.000000    
  0.8912516       1.000001       0.000000       0.000000    
   1.000001       1.122019       0.000000       0.000000    
   1.122019       1.258926       0.000000       0.000000    
   1.258926       1.412539       0.000000       0.000000    
   1.412539       1.584894       0.000000       0.000000    
   1.584894       1.778281       0.000000       0.000000    
   1.778281       1.995264       0.000000       0.000000    
   1.995264       2.238723       0.000000       0.000000    
   2.238723       2.511888       0.000000       0.000000    
   2.511888       2.818385       0.000000       0.000000    
   2.818385       3.162280       0.000000       0.000000    
   3.162280       3.548136       0.000000       0.000000    
   3.548136       3.981075       0.000000       0.000000    
   3.981075       4.466839       0.000000       0.000000    
   4.466839       5.011876       0.000000       0.000000    
   5.011876       5.623418       0.000000       0.000000    
   5.623418       6.309578       0.000000       0.000000    
   6.309578       7.079463       0.000000       0.000000    
   7.079463       7.943289       0.000000       0.000000    
   7.943289       8.912516       0.000000       0.000000    
   8.912516       10.00001       0.000000       0.000000    


 # Detector n:            3   phblc2    
 # N. of energy intervals         120
  9.9999997E-06  1.1220184E-05  9.8244920E-05   76.01145    
  1.1220184E-05  1.2589254E-05  1.9506385E-04   52.05621    
  1.2589254E-05  1.4125375E-05  1.5277648E-04   72.66623    
  1.4125375E-05  1.5848931E-05  6.7114590E-05   73.28403    
  1.5848931E-05  1.7782793E-05  1.7575515E-04   41.64711    
  1.7782793E-05  1.9952624E-05  5.3258042E-05   60.68544    
  1.9952624E-05  2.2387210E-05  8.9102141E-05   79.40739    
  2.2387210E-05  2.5118865E-05  2.2965961E-04   31.93510    
  2.5118865E-05  2.8183831E-05  1.1139950E-04   42.96011    
  2.8183831E-05  3.1622778E-05  1.4358260E-04   38.10796    
  3.1622778E-05  3.5481338E-05  3.4682214E-04   23.04549    
  3.5481338E-05  3.9810719E-05  3.5151149E-04   22.94939    
  3.9810719E-05  4.4668363E-05  7.6527230E-04   13.53431    
  4.4668363E-05  5.0118728E-05  1.2320883E-03   10.19720    
  5.0118728E-05  5.6234134E-05  3.1212955E-03   6.047545    
  5.6234134E-05  6.3095737E-05  5.4353015E-03   4.444307    
  6.3095737E-05  7.0794587E-05  8.3039589E-03   3.364529    
  7.0794587E-05  7.9432837E-05  1.0594950E-02   2.764762    
  7.9432837E-05  8.9125104E-05  1.3003775E-02   2.389198    
  8.9125104E-05  1.0000000E-04  1.4006417E-02   2.196049    
  1.0000000E-04  1.1220186E-04  1.3775314E-02   2.033943    
  1.1220186E-04  1.2589256E-04  1.3037906E-02   2.036174    
  1.2589256E-04  1.4125377E-04  1.2107319E-02   1.943026    
  1.4125377E-04  1.5848935E-04  1.1048051E-02   2.006977    
  1.5848935E-04  1.7782798E-04  9.5051965E-03   1.922570    
  1.7782798E-04  1.9952627E-04  8.1009874E-03   2.029844    
  1.9952627E-04  2.2387214E-04  6.8388064E-03   2.074858    
  2.2387214E-04  2.5118867E-04  5.8844755E-03   2.098884    
  2.5118867E-04  2.8183835E-04  4.8418427E-03   2.210330    
  2.8183835E-04  3.1622782E-04  3.8601630E-03   2.250575    
  3.1622782E-04  3.5481344E-04  3.1282504E-03   2.494607    
  3.5481344E-04  3.9810725E-04  2.5158254E-03   2.486515    
  3.9810725E-04  4.4668367E-04  2.1389804E-03   2.657085    
  4.4668367E-04  5.0118734E-04  1.9956264E-03   2.576819    
  5.0118734E-04  5.6234142E-04  2.8779046E-03   2.047201    
  5.6234142E-04  6.3095748E-04  9.6470828E-04   3.297677    
  6.3095748E-04  7.0794590E-04  8.4729836E-04   3.351939    
  7.0794590E-04  7.9432846E-04  8.0497272E-04   3.174896    
  7.9432846E-04  8.9125114E-04  8.4807805E-04   2.951844    
  8.9125114E-04  1.0000003E-03  7.8408147E-04   2.919062    
  1.0000003E-03  1.1220188E-03  4.7501188E-04   3.513002    
  1.1220188E-03  1.2589258E-03  5.0170266E-04   3.203931    
  1.2589258E-03  1.4125380E-03  4.4139018E-04   3.247303    
  1.4125380E-03  1.5848936E-03  4.0109886E-04   3.242050    
  1.5848936E-03  1.7782800E-03  4.0701925E-04   2.990506    
  1.7782800E-03  1.9952629E-03  4.5809188E-04   2.732610    
  1.9952629E-03  2.2387218E-03  4.0125716E-04   2.729372    
  2.2387218E-03  2.5118871E-03  3.6403676E-04   2.739594    
  2.5118871E-03  2.8183837E-03  2.3001750E-04   3.175003    
  2.8183837E-03  3.1622786E-03  1.8083381E-04   3.377667    
  3.1622786E-03  3.5481353E-03  1.5879645E-04   3.481083    
  3.5481353E-03  3.9810729E-03  2.0726904E-04   2.866177    
  3.9810729E-03  4.4668377E-03  1.3872214E-04   3.321233    
  4.4668377E-03  5.0118743E-03  1.3699463E-04   3.141674    
  5.0118743E-03  5.6234146E-03  9.4494353E-05   3.514472    
  5.6234146E-03  6.3095763E-03  1.0604817E-04   3.217472    
  6.3095763E-03  7.0794607E-03  6.9667702E-05   3.651841    
  7.0794607E-03  7.9432856E-03  1.1464902E-04   2.794803    
  7.9432856E-03  8.9125130E-03  2.8115615E-05   5.236731    
  8.9125130E-03  1.0000004E-02  1.9279645E-05   5.935323    
  1.0000004E-02  1.1220189E-02  1.9055644E-06   16.63333    
  1.1220189E-02  1.2589260E-02  1.0437963E-06   22.05556    
  1.2589260E-02  1.4125382E-02  5.9798538E-07   26.83389    
  1.4125382E-02  1.5848938E-02  5.2561523E-07   29.74933    
  1.5848938E-02  1.7782802E-02  3.2157411E-07   36.06552    
  1.7782802E-02  1.9952632E-02  1.8430944E-07   39.16705    
  1.9952632E-02  2.2387221E-02  3.0039450E-07   31.10595    
  2.2387221E-02  2.5118876E-02  1.1902817E-07   45.69571    
  2.5118876E-02  2.8183842E-02  1.2862324E-07   42.93361    
  2.8183842E-02  3.1622794E-02  2.7917157E-08   61.03662    
  3.1622794E-02  3.5481352E-02  1.4093497E-07   35.34618    
  3.5481352E-02  3.9810736E-02  1.0650594E-07   42.56713    
  3.9810736E-02  4.4668384E-02  1.7454164E-08   96.22246    
  4.4668384E-02  5.0118748E-02  5.9991649E-08   44.88536    
  5.0118748E-02  5.6234159E-02  6.8083210E-08   43.53537    
  5.6234159E-02  6.3095763E-02  1.7788281E-08   53.22651    
  6.3095763E-02  7.0794620E-02  1.2059144E-08   96.09560    
  7.0794620E-02  7.9432867E-02  1.2915351E-08   99.00000    
  7.9432867E-02  8.9125134E-02  2.1928500E-08   48.22083    
  8.9125134E-02  0.1000001      7.2614927E-09   96.22246    
  0.1000001      0.1122019      1.0346810E-08   72.37380    
  0.1122019      0.1258926      2.5838760E-09   96.22246    
  0.1258926      0.1412538      2.5778746E-10   69.86359    
  0.1412538      0.1584894      5.6853994E-10   96.22246    
  0.1584894      0.1778280      2.4118865E-09   96.22246    
  0.1778280      0.1995264      5.3100679E-09   79.07987    
  0.1995264      0.2238722      5.6496785E-09   68.08929    
  0.2238722      0.2511888       0.000000       0.000000    
  0.2511888      0.2818385      3.1030140E-10   96.22246    
  0.2818385      0.3162280       0.000000       0.000000    
  0.3162280      0.3548136       0.000000       0.000000    
  0.3548136      0.3981074       0.000000       0.000000    
  0.3981074      0.4466839       0.000000       0.000000    
  0.4466839      0.5011876       0.000000       0.000000    
  0.5011876      0.5623417       0.000000       0.000000    
  0.5623417      0.6309578       0.000000       0.000000    
  0.6309578      0.7079462       0.000000       0.000000    
  0.7079462      0.7943288       0.000000       0.000000    
  0.7943288      0.8912516       0.000000       0.000000    
  0.8912516       1.000001       0.000000       0.000000    
   1.000001       1.122019       0.000000       0.000000    
   1.122019       1.258926       0.000000       0.000000    
   1.258926       1.412539       0.000000       0.000000    
   1.412539       1.584894       0.000000       0.000000    
   1.584894       1.778281       0.000000       0.000000    
   1.778281       1.995264       0.000000       0.000000    
   1.995264       2.238723       0.000000       0.000000    
   2.238723       2.511888       0.000000       0.000000    
   2.511888       2.818385       0.000000       0.000000    
   2.818385       3.162280       0.000000       0.000000    
   3.162280       3.548136       0.000000       0.000000    
   3.548136       3.981075       0.000000       0.000000    
   3.981075       4.466839       0.000000       0.000000    
   4.466839       5.011876       0.000000       0.000000    
   5.011876       5.623418       0.000000       0.000000    
   5.623418       6.309578       0.000000       0.000000    
   6.309578       7.079463       0.000000       0.000000    
   7.079463       7.943289       0.000000       0.000000    
   7.943289       8.912516       0.000000       0.000000    
   8.912516       10.00001       0.000000       0.000000    


 # Detector n:            4   epblc2    
 # N. of energy intervals         120
  9.9999997E-06  1.1220184E-05   0.000000       0.000000    
  1.1220184E-05  1.2589254E-05   0.000000       0.000000    
  1.2589254E-05  1.4125375E-05   0.000000       0.000000    
  1.4125375E-05  1.5848931E-05   0.000000       0.000000    
  1.5848931E-05  1.7782793E-05   0.000000       0.000000    
  1.7782793E-05  1.9952624E-05   0.000000       0.000000    
  1.9952624E-05  2.2387210E-05  1.3738206E-07   96.22246    
  2.2387210E-05  2.5118865E-05  6.9182011E-07   52.93152    
  2.5118865E-05  2.8183831E-05  1.1716359E-05   11.57633    
  2.8183831E-05  3.1622778E-05  5.2327316E-05   5.588672    
  3.1622778E-05  3.5481338E-05  4.7050708E-05   6.110455    
  3.5481338E-05  3.9810719E-05  4.5633875E-05   6.595796    
  3.9810719E-05  4.4668363E-05  4.5148139E-05   6.721977    
  4.4668363E-05  5.0118728E-05  4.7520844E-05   6.934505    
  5.0118728E-05  5.6234134E-05  4.5552024E-05   7.292814    
  5.6234134E-05  6.3095737E-05  5.2171468E-05   7.122692    
  6.3095737E-05  7.0794587E-05  4.6312518E-05   7.814131    
  7.0794587E-05  7.9432837E-05  4.9393035E-05   7.820852    
  7.9432837E-05  8.9125104E-05  4.8800328E-05   8.208052    
  8.9125104E-05  1.0000000E-04  5.1304385E-05   8.325114    
  1.0000000E-04  1.1220186E-04  4.9237206E-05   8.013137    
  1.1220186E-04  1.2589256E-04  4.7665497E-05   8.929836    
  1.2589256E-04  1.4125377E-04  4.6867503E-05   8.876448    
  1.4125377E-04  1.5848935E-04  4.3750904E-05   9.166112    
  1.5848935E-04  1.7782798E-04  4.3818232E-05   8.636696    
  1.7782798E-04  1.9952627E-04  4.3202774E-05   8.942740    
  1.9952627E-04  2.2387214E-04  3.9619412E-05   9.144778    
  2.2387214E-04  2.5118867E-04  3.8497576E-05   9.383360    
  2.5118867E-04  2.8183835E-04  3.7220485E-05   9.546242    
  2.8183835E-04  3.1622782E-04  3.3727756E-05   9.916993    
  3.1622782E-04  3.5481344E-04  2.9100511E-05   10.50291    
  3.5481344E-04  3.9810725E-04  3.1221101E-05   10.48692    
  3.9810725E-04  4.4668367E-04  3.2692787E-05   10.24481    
  4.4668367E-04  5.0118734E-04  3.0221165E-05   10.80810    
  5.0118734E-04  5.6234142E-04  2.9433793E-05   10.98210    
  5.6234142E-04  6.3095748E-04  3.0727006E-05   10.89705    
  6.3095748E-04  7.0794590E-04  2.6333384E-05   11.79393    
  7.0794590E-04  7.9432846E-04  2.6778898E-05   11.26652    
  7.9432846E-04  8.9125114E-04  2.7972685E-05   11.48136    
  8.9125114E-04  1.0000003E-03  2.0968208E-05   12.07038    
  1.0000003E-03  1.1220188E-03  1.6345664E-05   13.11621    
  1.1220188E-03  1.2589258E-03  1.5553447E-05   13.87300    
  1.2589258E-03  1.4125380E-03  1.4236176E-05   12.87055    
  1.4125380E-03  1.5848936E-03  1.4262184E-05   13.50278    
  1.5848936E-03  1.7782800E-03  1.1496333E-05   14.10451    
  1.7782800E-03  1.9952629E-03  1.1272506E-05   14.53701    
  1.9952629E-03  2.2387218E-03  1.0655062E-05   14.96588    
  2.2387218E-03  2.5118871E-03  7.1965724E-06   16.05153    
  2.5118871E-03  2.8183837E-03  6.4167857E-06   15.95880    
  2.8183837E-03  3.1622786E-03  4.8988886E-06   17.99479    
  3.1622786E-03  3.5481353E-03  4.1926528E-06   17.44688    
  3.5481353E-03  3.9810729E-03  2.5601460E-06   21.36629    
  3.9810729E-03  4.4668377E-03  2.5402690E-06   21.80671    
  4.4668377E-03  5.0118743E-03  2.4390215E-06   21.31567    
  5.0118743E-03  5.6234146E-03  1.9797219E-06   22.63042    
  5.6234146E-03  6.3095763E-03  1.1832823E-06   26.06514    
  6.3095763E-03  7.0794607E-03  1.0370453E-06   30.05793    
  7.0794607E-03  7.9432856E-03  1.3574216E-07   60.72475    
  7.9432856E-03  8.9125130E-03  6.4619343E-08   69.16379    
  8.9125130E-03  1.0000004E-02  5.3612199E-09   96.22246    
  1.0000004E-02  1.1220189E-02   0.000000       0.000000    
  1.1220189E-02  1.2589260E-02   0.000000       0.000000    
  1.2589260E-02  1.4125382E-02  6.5232946E-08   99.00000    
  1.4125382E-02  1.5848938E-02  5.1952782E-08   92.56910    
  1.5848938E-02  1.7782802E-02  4.0601915E-08   96.22246    
  1.7782802E-02  1.9952632E-02  1.1414353E-08   96.22246    
  1.9952632E-02  2.2387221E-02  2.4200194E-08   96.22246    
  2.2387221E-02  2.5118876E-02  2.6115623E-08   96.22246    
  2.5118876E-02  2.8183842E-02  3.2701884E-08   75.50119    
  2.8183842E-02  3.1622794E-02  4.1443894E-08   56.49651    
  3.1622794E-02  3.5481352E-02  1.7398000E-09   96.22246    
  3.5481352E-02  3.9810736E-02  4.0814658E-08   68.11114    
  3.9810736E-02  4.4668384E-02  1.6931035E-09   96.22246    
  4.4668384E-02  5.0118748E-02  1.9771409E-08   81.85474    
  5.0118748E-02  5.6234159E-02  2.0679884E-08   70.65852    
  5.6234159E-02  6.3095763E-02  4.5759423E-09   96.22246    
  6.3095763E-02  7.0794620E-02  1.1768313E-08   99.00000    
  7.0794620E-02  7.9432867E-02  8.6496721E-09   96.22246    
  7.9432867E-02  8.9125134E-02  7.1018533E-09   96.22246    
  8.9125134E-02  0.1000001      8.3755589E-09   95.37227    
  0.1000001      0.1122019       0.000000       0.000000    
  0.1122019      0.1258926       0.000000       0.000000    
  0.1258926      0.1412538       0.000000       0.000000    
  0.1412538      0.1584894      4.8168974E-10   96.22246    
  0.1584894      0.1778280      5.6945439E-09   96.22246    
  0.1778280      0.1995264      9.7517383E-10   96.22246    
  0.1995264      0.2238722       0.000000       0.000000    
  0.2238722      0.2511888       0.000000       0.000000    
  0.2511888      0.2818385       0.000000       0.000000    
  0.2818385      0.3162280       0.000000       0.000000    
  0.3162280      0.3548136       0.000000       0.000000    
  0.3548136      0.3981074       0.000000       0.000000    
  0.3981074      0.4466839      1.0106351E-09   96.22246    
  0.4466839      0.5011876       0.000000       0.000000    
  0.5011876      0.5623417       0.000000       0.000000    
  0.5623417      0.6309578       0.000000       0.000000    
  0.6309578      0.7079462       0.000000       0.000000    
  0.7079462      0.7943288       0.000000       0.000000    
  0.7943288      0.8912516       0.000000       0.000000    
  0.8912516       1.000001       0.000000       0.000000    
   1.000001       1.122019       0.000000       0.000000    
   1.122019       1.258926       0.000000       0.000000    
   1.258926       1.412539       0.000000       0.000000    
   1.412539       1.584894       0.000000       0.000000    
   1.584894       1.778281       0.000000       0.000000    
   1.778281       1.995264       0.000000       0.000000    
   1.995264       2.238723       0.000000       0.000000    
   2.238723       2.511888       0.000000       0.000000    
   2.511888       2.818385       0.000000       0.000000    
   2.818385       3.162280       0.000000       0.000000    
   3.162280       3.548136       0.000000       0.000000    
   3.548136       3.981075       0.000000       0.000000    
   3.981075       4.466839       0.000000       0.000000    
   4.466839       5.011876       0.000000       0.000000    
   5.011876       5.623418       0.000000       0.000000    
   5.623418       6.309578       0.000000       0.000000    
   6.309578       7.079463       0.000000       0.000000    
   7.079463       7.943289       0.000000       0.000000    
   7.943289       8.912516       0.000000       0.000000    
   8.912516       10.00001       0.000000       0.000000    


 # Detector n:            5   nsblc2    
 # N. of energy intervals         260
  1.0000100E-14  2.0000000E-13   0.000000       0.000000    
  2.0000000E-13  2.9297300E-13   0.000000       0.000000    
  2.9297300E-13  4.2916701E-13   439.9887       58.59224    
  4.2916701E-13  6.2867300E-13   1259.877       48.93536    
  6.2867300E-13  9.2092198E-13   842.1191       51.82775    
  9.2092198E-13  1.3490300E-12   1948.890       29.35695    
  1.3490300E-12  1.9761499E-12   2434.409       21.39793    
  1.9761499E-12  2.8947901E-12   3256.713       14.51210    
  2.8947901E-12  4.2404799E-12   4102.865       11.07731    
  4.2404799E-12  6.2117499E-12   7152.251       7.200539    
  6.2117499E-12  9.0993801E-12   9933.959       5.080639    
  9.0993801E-12  1.3329400E-11   13281.74       3.488744    
  1.3329400E-11  1.9525799E-11   17448.86       2.560445    
  1.9525799E-11  2.8602700E-11   19635.01       1.988750    
  2.8602700E-11  4.1899099E-11   20159.28       1.656937    
  4.1899099E-11  6.1376598E-11   17070.96       1.460817    
  6.1376598E-11  8.9908601E-11   11228.78       1.521912    
  8.9908601E-11  1.3170399E-10   5421.000       1.795588    
  1.3170399E-10  1.9292901E-10   2144.132       2.324958    
  1.9292901E-10  2.8261499E-10   1076.964       2.736009    
  2.8261499E-10  4.1399401E-10   642.8442       2.943391    
  4.1399401E-10  5.3157900E-10   451.6345       3.711088    
  5.3157900E-10  6.2506200E-10   391.6877       4.376338    
  6.2506200E-10  6.8256001E-10   341.8908       6.368619    
  6.8256001E-10  8.3368101E-10   269.1207       4.217751    
  8.3368101E-10  8.7642499E-10   243.8765       8.343247    
  8.7642499E-10  1.1253500E-09   213.1435       3.818280    
  1.1253500E-09  1.4449800E-09   149.6302       3.817133    
  1.4449800E-09  1.8553900E-09   123.0419       3.836914    
  1.8553900E-09  2.3823701E-09   100.1033       3.630759    
  2.3823701E-09  3.0590199E-09   78.19900       3.650482    
  3.0590199E-09  3.9278598E-09   59.20121       3.697481    
  3.9278598E-09  5.0434799E-09   47.76527       3.618951    
  5.0434799E-09  6.4759500E-09   39.70238       3.536803    
  6.4759500E-09  8.3152898E-09   31.06990       3.674349    
  8.3152898E-09  1.0677000E-08   22.73403       3.617246    
  1.0677000E-08  1.3709600E-08   18.99661       3.542418    
  1.3709600E-08  1.7603501E-08   14.54440       3.517458    
  1.7603501E-08  2.2603301E-08   11.66247       3.476117    
  2.2603301E-08  2.9023200E-08   8.559177       3.663977    
  2.9023200E-08  3.7266499E-08   7.103788       3.528198    
  3.7266499E-08  4.7851199E-08   5.548541       3.497564    
  4.7851199E-08  6.1442101E-08   4.198503       3.573420    
  6.1442101E-08  7.8893301E-08   3.516804       3.386124    
  7.8893301E-08  1.0130100E-07   2.667401       3.427198    
  1.0130100E-07  1.3007300E-07   2.110706       3.401801    
  1.3007300E-07  1.6701701E-07   1.546875       3.571445    
  1.6701701E-07  2.1445400E-07   1.193663       3.628109    
  2.1445400E-07  2.7536399E-07   1.001817       3.429997    
  2.7536399E-07  3.5357499E-07  0.7394727       3.567448    
  3.5357499E-07  4.5399901E-07  0.5480986       3.550479    
  4.5399901E-07  5.8294700E-07  0.4969793       3.402013    
  5.8294700E-07  7.4851800E-07  0.3625798       3.496098    
  7.4851800E-07  9.6111603E-07  0.2908571       3.328835    
  9.6111603E-07  1.2341000E-06  0.2151605       3.445582    
  1.2341000E-06  1.3638900E-06  0.1992403       5.141363    
  1.3638900E-06  1.5073300E-06  0.1733953       5.280564    
  1.5073300E-06  1.5846100E-06  0.1620687       7.548020    
  1.5846100E-06  1.6658601E-06  0.1625716       7.488045    
  1.6658601E-06  1.8410600E-06  0.1511626       5.356133    
  1.8410600E-06  2.0346799E-06  0.1145473       5.577050    
  2.0346799E-06  2.2486699E-06  0.1119733       5.515127    
  2.2486699E-06  2.4851699E-06  0.1007124       5.373657    
  2.4851699E-06  2.6125899E-06  8.2849950E-02   8.259984    
  2.6125899E-06  2.7465401E-06  6.6776440E-02   8.998164    
  2.7465401E-06  2.8634900E-06  7.3487371E-02   9.075740    
  2.8634900E-06  3.0353899E-06  7.5203903E-02   7.409079    
  3.0353899E-06  3.3546301E-06  7.6337598E-02   5.342232    
  3.3546301E-06  3.7074401E-06  6.5965585E-02   5.420418    
  3.7074401E-06  4.0973500E-06  6.4998515E-02   5.439232    
  4.0973500E-06  4.3074201E-06  5.6794088E-02   7.667931    
  4.3074201E-06  4.5282700E-06  5.0763704E-02   7.649639    
  4.5282700E-06  5.0045101E-06  5.3710669E-02   5.339798    
  5.0045101E-06  5.5308401E-06  5.0428718E-02   5.358338    
  5.5308401E-06  6.2672698E-06  4.3534793E-02   4.744005    
  6.2672698E-06  7.1017398E-06  4.0302355E-02   4.663816    
  7.1017398E-06  8.0473301E-06  3.0484976E-02   4.899333    
  8.0473301E-06  9.1188203E-06  2.6318450E-02   5.076430    
  9.1188203E-06  1.0333000E-05  2.5085082E-02   4.874229    
  1.0333000E-05  1.1708800E-05  2.3314986E-02   4.814436    
  1.1708800E-05  1.3267800E-05  2.1740865E-02   4.550086    
  1.3267800E-05  1.5034400E-05  1.7955605E-02   4.825902    
  1.5034400E-05  1.7036200E-05  1.5830439E-02   4.655738    
  1.7036200E-05  1.9304500E-05  1.6727488E-02   4.376727    
  1.9304500E-05  2.1334799E-05  1.4213940E-02   4.871994    
  2.1334799E-05  2.1874899E-05  1.4522810E-02   9.985594    
  2.1874899E-05  2.3578599E-05  1.3437948E-02   5.448307    
  2.3578599E-05  2.4175501E-05  1.3770379E-02   9.487216    
  2.4175501E-05  2.4787500E-05  1.3360448E-02   9.022442    
  2.4787500E-05  2.6058400E-05  1.5887018E-02   6.012493    
  2.6058400E-05  2.8087899E-05  9.1315769E-03   6.399094    
  2.8087899E-05  3.1827800E-05  7.7563245E-03   4.874831    
  3.1827800E-05  3.4306700E-05  8.0659725E-03   6.122671    
  3.4306700E-05  3.5175199E-05  7.9482328E-03   10.15620    
  3.5175199E-05  3.6065601E-05  6.8710102E-03   10.93018    
  3.6065601E-05  4.0867701E-05  7.5658159E-03   4.415864    
  4.0867701E-05  4.6309200E-05  6.8898946E-03   4.402612    
  4.6309200E-05  5.2475199E-05  6.8301293E-03   3.980085    
  5.2475199E-05  5.6562199E-05  5.5915592E-03   5.557031    
  5.6562199E-05  5.9462200E-05  5.4743355E-03   6.916299    
  5.9462200E-05  6.2510902E-05  5.7293116E-03   6.235617    
  6.2510902E-05  6.7379500E-05  5.0802846E-03   5.417180    
  6.7379500E-05  7.6350902E-05  5.0219335E-03   3.952461    
  7.6350902E-05  8.6516899E-05  4.7899988E-03   3.973572    
  8.6516899E-05  9.8036500E-05  3.8040208E-03   4.001619    
  9.8036500E-05  1.1109000E-04  3.8023677E-03   3.822951    
  1.1109000E-04  1.1678600E-04  3.4006000E-03   5.957395    
  1.1678600E-04  1.2277300E-04  4.1108020E-03   5.413976    
  1.2277300E-04  1.2906799E-04  3.7684855E-03   5.657419    
  1.2906799E-04  1.3568600E-04  3.3087367E-03   5.817076    
  1.3568600E-04  1.4264201E-04  3.0425892E-03   5.721670    
  1.4264201E-04  1.4995600E-04  2.5920977E-03   6.321140    
  1.4995600E-04  1.5764400E-04  3.4924964E-03   5.246465    
  1.5764400E-04  1.6163501E-04  3.0344827E-03   7.567589    
  1.6163501E-04  1.6572700E-04  3.3015050E-03   7.291984    
  1.6572700E-04  1.6992200E-04  2.9935276E-03   7.493856    
  1.6992200E-04  1.7422400E-04  2.1331785E-03   8.980071    
  1.7422400E-04  1.8315599E-04  2.6660734E-03   5.465642    
  1.8315599E-04  1.9254700E-04  2.3139757E-03   5.694597    
  1.9254700E-04  2.0241900E-04  2.4643939E-03   5.406456    
  2.0241900E-04  2.1279699E-04  2.3655351E-03   5.410176    
  2.1279699E-04  2.2370800E-04  2.3389314E-03   5.202479    
  2.2370800E-04  2.3517800E-04  2.2431461E-03   5.270731    
  2.3517800E-04  2.4723500E-04  2.3558878E-03   5.107785    
  2.4723500E-04  2.5991100E-04  2.2081966E-03   4.990382    
  2.5991100E-04  2.7323700E-04  2.4150324E-03   4.625647    
  2.7323700E-04  2.8015400E-04  1.9372292E-03   7.393384    
  2.8015400E-04  2.8724599E-04  1.9190817E-03   7.536150    
  2.8724599E-04  2.9451799E-04  1.8019266E-03   7.347414    
  2.9451799E-04  3.0197401E-04  1.9156400E-03   7.098533    
  3.0197401E-04  3.0961799E-04  2.5959758E-03   6.052940    
  3.0961799E-04  3.1745600E-04  2.1512131E-03   6.612601    
  3.1745600E-04  3.3373301E-04  1.5526076E-03   5.402643    
  3.3373301E-04  3.5084400E-04  1.7234257E-03   5.133269    
  3.5084400E-04  3.6883200E-04  1.3949194E-03   5.347131    
  3.6883200E-04  3.8774201E-04  1.0254926E-03   6.274226    
  3.8774201E-04  4.0762199E-04  1.0368098E-03   5.927505    
  4.0762199E-04  4.2852099E-04  8.4953109E-04   6.289140    
  4.2852099E-04  4.5049199E-04  7.9713087E-04   6.503141    
  4.5049199E-04  4.7358900E-04  1.1415540E-03   5.282731    
  4.7358900E-04  4.9787102E-04  1.1439841E-03   5.143868    
  4.9787102E-04  5.1047403E-04  1.3027414E-03   6.562824    
  5.1047403E-04  5.2339700E-04  1.1716192E-03   6.943607    
  5.2339700E-04  5.3664698E-04  1.2377956E-03   6.507662    
  5.3664698E-04  5.5023201E-04  1.2598975E-03   6.704469    
  5.5023201E-04  5.7844300E-04  1.2048003E-03   4.650838    
  5.7844300E-04  6.0810102E-04  1.2747990E-03   4.362001    
  6.0810102E-04  6.3927902E-04  1.1416695E-03   4.462708    
  6.3927902E-04  6.7205500E-04  1.0528031E-03   4.541097    
  6.7205500E-04  7.0651202E-04  1.0110086E-03   4.574157    
  7.0651202E-04  7.4273598E-04  1.0460595E-03   4.385793    
  7.4273598E-04  7.8081700E-04  8.7487628E-04   4.618365    
  7.8081700E-04  8.2085002E-04  8.7285461E-04   4.542320    
  8.2085002E-04  8.6293602E-04  7.6043798E-04   4.788492    
  8.6293602E-04  9.0717903E-04  6.4168702E-04   4.957681    
  9.0717903E-04  9.5369201E-04  5.7245727E-04   5.242947    
  9.5369201E-04  9.6163998E-04  4.6499699E-04   14.11751    
  9.6163998E-04  9.7783399E-04  4.1747588E-04   10.23495    
  9.7783399E-04  1.0025901E-03  4.3012717E-04   8.466667    
  1.0025901E-03  1.0539900E-03  3.8894053E-04   5.987756    
  1.0539900E-03  1.1080300E-03  4.5331841E-04   5.363675    
  1.1080300E-03  1.1648400E-03  4.8835331E-04   5.165238    
  1.1648400E-03  1.1943300E-03  4.8023069E-04   7.217362    
  1.1943300E-03  1.2245600E-03  4.9295108E-04   7.028136    
  1.2245600E-03  1.2873500E-03  4.5114401E-04   5.024350    
  1.2873500E-03  1.3533500E-03  3.3270777E-04   5.761309    
  1.3533500E-03  1.4227401E-03  3.9936867E-04   5.209617    
  1.4227401E-03  1.4956900E-03  4.1607884E-04   4.842931    
  1.4956900E-03  1.5335500E-03  3.4429197E-04   7.321469    
  1.5335500E-03  1.5723699E-03  3.4882905E-04   7.568912    
  1.5723699E-03  1.6121800E-03  3.0416597E-04   7.713768    
  1.6121800E-03  1.6529900E-03  2.7706879E-04   8.031453    
  1.6529900E-03  1.7377400E-03  3.0850069E-04   5.234629    
  1.7377400E-03  1.8268300E-03  3.0702364E-04   5.232550    
  1.8268300E-03  1.8730800E-03  2.1124502E-04   8.844843    
  1.8730800E-03  1.9205000E-03  2.4082152E-04   8.404958    
  1.9205000E-03  1.9691200E-03  2.1226406E-04   7.991256    
  1.9691200E-03  2.0189700E-03  2.1842930E-04   8.023034    
  2.0189700E-03  2.1224800E-03  2.8204819E-04   4.898759    
  2.1224800E-03  2.2313001E-03  2.7192433E-04   4.845065    
  2.2313001E-03  2.2688799E-03  2.6554518E-04   8.547265    
  2.2688799E-03  2.3068599E-03  2.4773981E-04   8.768344    
  2.3068599E-03  2.3457000E-03  3.4120807E-04   7.265903    
  2.3457000E-03  2.3652499E-03  3.0960116E-04   10.33343    
  2.3652499E-03  2.3852000E-03  3.6543209E-04   10.03725    
  2.3852000E-03  2.4251300E-03  2.5130194E-04   8.527839    
  2.4251300E-03  2.4659701E-03  2.6501130E-04   8.301971    
  2.4659701E-03  2.5923999E-03  2.2192871E-04   5.117565    
  2.5923999E-03  2.7253199E-03  2.2215469E-04   5.037483    
  2.7253199E-03  2.8650500E-03  1.6006239E-04   5.773154    
  2.8650500E-03  3.0119400E-03  1.4578165E-04   5.757738    
  3.0119400E-03  3.0881900E-03  1.2760294E-04   8.827472    
  3.0881900E-03  3.1663701E-03  9.9825178E-05   9.581343    
  3.1663701E-03  3.2465300E-03  1.0315309E-04   9.127571    
  3.2465300E-03  3.3287101E-03  8.3106170E-05   10.27662    
  3.3287101E-03  3.4993801E-03  8.0375219E-05   7.476697    
  3.4993801E-03  3.6787901E-03  7.7440425E-05   7.160798    
  3.6787901E-03  3.8674099E-03  7.7975426E-05   6.931796    
  3.8674099E-03  4.0656999E-03  7.4629505E-05   7.096783    
  4.0656999E-03  4.2741499E-03  7.4206575E-05   6.849891    
  4.2741499E-03  4.4932901E-03  6.2338877E-05   7.215226    
  4.4932901E-03  4.6070400E-03  6.8514440E-05   9.644304    
  4.6070400E-03  4.7236700E-03  5.6620411E-05   10.15286    
  4.7236700E-03  4.8432499E-03  6.6300054E-05   9.426291    
  4.8432499E-03  4.9658502E-03  5.3314099E-05   10.45792    
  4.9658502E-03  5.2204598E-03  5.0582719E-05   7.767987    
  5.2204598E-03  5.4881200E-03  4.9004571E-05   7.331228    
  5.4881200E-03  5.7695000E-03  3.4986737E-05   8.631059    
  5.7695000E-03  5.9155500E-03  3.7521408E-05   11.61216    
  5.9155500E-03  6.0653100E-03  3.5323297E-05   11.62940    
  6.0653100E-03  6.2188501E-03  2.9643687E-05   12.32475    
  6.2188501E-03  6.3762800E-03  3.0023964E-05   12.47640    
  6.3762800E-03  6.5377001E-03  3.3773151E-05   11.30896    
  6.5377001E-03  6.5923799E-03  2.3692550E-05   22.63303    
  6.5923799E-03  6.6475999E-03  3.2507709E-05   20.24574    
  6.6475999E-03  6.7031998E-03  3.3961049E-05   19.26994    
  6.7031998E-03  6.8728901E-03  2.7404354E-05   12.10837    
  6.8728901E-03  7.0468802E-03  2.5950487E-05   13.11044    
  7.0468802E-03  7.2252699E-03  1.9976836E-05   13.68155    
  7.2252699E-03  7.4081798E-03  2.4600833E-05   12.34296    
  7.4081798E-03  7.5957198E-03  2.0672089E-05   13.82944    
  7.5957198E-03  7.7880099E-03  2.0746982E-05   13.74095    
  7.7880099E-03  7.9851598E-03  2.1246618E-05   13.26156    
  7.9851598E-03  8.1873098E-03  2.6594969E-05   11.35643    
  8.1873098E-03  8.3945701E-03  2.2898634E-05   12.20717    
  8.3945701E-03  8.6070802E-03  1.9315818E-05   13.75307    
  8.6070802E-03  8.8249696E-03  2.0220730E-05   12.54587    
  8.8249696E-03  9.0483697E-03  1.6067470E-05   14.19363    
  9.0483697E-03  9.2774397E-03  2.1817679E-05   12.63133    
  9.2774397E-03  9.5122904E-03  2.1135273E-05   12.07769    
  9.5122904E-03  9.7530996E-03  1.3709400E-05   14.90586    
  9.7530996E-03  9.9999998E-03  1.5728127E-05   13.95852    
  9.9999998E-03  1.0253200E-02  1.2026905E-05   15.25804    
  1.0253200E-02  1.0512700E-02  1.3660811E-05   14.89204    
  1.0512700E-02  1.0778800E-02  1.6381617E-05   13.08899    
  1.0778800E-02  1.1051700E-02  1.3954826E-05   13.93163    
  1.1051700E-02  1.1331500E-02  9.8353894E-06   15.24938    
  1.1331500E-02  1.1618300E-02  1.1033773E-05   15.50070    
  1.1618300E-02  1.1912500E-02  8.4821122E-06   16.61503    
  1.1912500E-02  1.2214000E-02  1.2263667E-05   14.43121    
  1.2214000E-02  1.2523200E-02  9.1923139E-06   15.47075    
  1.2523200E-02  1.2840200E-02  1.4065940E-05   12.51080    
  1.2840200E-02  1.3165300E-02  1.0355430E-05   15.07535    
  1.3165300E-02  1.3498600E-02  9.8380215E-06   15.02692    
  1.3498600E-02  1.3840300E-02  9.4696270E-06   15.35976    
  1.3840300E-02  1.4190700E-02  9.8099163E-06   15.06307    
  1.4190700E-02  1.4549900E-02  8.1934832E-06   15.59179    
  1.4549900E-02  1.4918300E-02  1.0530507E-05   13.97931    
  1.4918300E-02  1.5295900E-02  8.4369722E-06   15.55179    
  1.5295900E-02  1.5683100E-02  9.6218773E-06   14.64043    
  1.5683100E-02  1.6080100E-02  8.7915450E-06   14.03091    
  1.6080100E-02  1.6487200E-02  1.2322714E-05   12.04698    
  1.6487200E-02  1.6904600E-02  8.3118475E-06   14.23138    
  1.6904600E-02  1.7332500E-02  8.0309128E-06   14.19385    
  1.7332500E-02  1.7771300E-02  8.8097913E-06   13.51745    
  1.7771300E-02  1.8221200E-02  8.2719225E-06   14.32715    
  1.8221200E-02  1.8682500E-02  8.4246094E-06   13.95310    
  1.8682500E-02  1.9155400E-02  7.0593978E-06   14.61253    
  1.9155400E-02  1.9640300E-02  5.1977559E-06   15.90765    
  1.9640300E-02  2.0000000E-02  7.9895726E-06   16.78593    


 # Detector n:            6   nfblc2    
 # N. of energy intervals         120
  2.0000000E-02  2.1063058E-02  8.2374518E-06   9.301233    
  2.1063058E-02  2.2182621E-02  7.8977164E-06   9.031458    
  2.2182621E-02  2.3361692E-02  6.8767245E-06   9.447544    
  2.3361692E-02  2.4603436E-02  6.5941576E-06   9.769612    
  2.4603436E-02  2.5911180E-02  6.2179029E-06   9.335853    
  2.5911180E-02  2.7288437E-02  6.3979182E-06   9.225350    
  2.7288437E-02  2.8738894E-02  5.9590893E-06   9.253840    
  2.8738894E-02  3.0266454E-02  6.4284327E-06   8.554459    
  3.0266454E-02  3.1875204E-02  5.3977487E-06   9.119211    
  3.1875204E-02  3.3569463E-02  5.5100040E-06   9.162070    
  3.3569463E-02  3.5353780E-02  5.2722016E-06   8.941569    
  3.5353780E-02  3.7232935E-02  4.8072206E-06   8.576844    
  3.7232935E-02  3.9211977E-02  5.6665335E-06   8.071598    
  3.9211977E-02  4.1296210E-02  5.3972781E-06   8.293774    
  4.1296210E-02  4.3491218E-02  4.5423708E-06   8.525549    
  4.3491218E-02  4.5802910E-02  4.4230073E-06   8.484790    
  4.5802910E-02  4.8237469E-02  4.4554076E-06   8.281403    
  4.8237469E-02  5.0801434E-02  4.5835036E-06   7.889765    
  5.0801434E-02  5.3501677E-02  4.6562282E-06   7.702460    
  5.3501677E-02  5.6345452E-02  4.0634759E-06   7.733980    
  5.6345452E-02  5.9340376E-02  4.1126564E-06   7.747780    
  5.9340376E-02  6.2494490E-02  4.4994526E-06   7.177032    
  6.2494490E-02  6.5816253E-02  3.6329175E-06   7.939286    
  6.5816253E-02  6.9314592E-02  3.8719131E-06   7.220477    
  6.9314592E-02  7.2998859E-02  3.8705925E-06   7.336899    
  7.2998859E-02  7.6878957E-02  3.0585315E-06   7.742601    
  7.6878957E-02  8.0965310E-02  2.9411715E-06   7.999185    
  8.0965310E-02  8.5268848E-02  3.2655819E-06   7.374291    
  8.5268848E-02  8.9801140E-02  2.6171697E-06   8.180815    
  8.9801140E-02  9.4574332E-02  2.4188455E-06   7.696292    
  9.4574332E-02  9.9601232E-02  2.4616079E-06   7.818861    
  9.9601232E-02  0.1048953      2.4620394E-06   7.421290    
  0.1048953      0.1104708      2.0196876E-06   8.179277    
  0.1104708      0.1163427      1.8910923E-06   8.275978    
  0.1163427      0.1225266      2.0385446E-06   7.912673    
  0.1225266      0.1290393      1.3053958E-06   9.062920    
  0.1290393      0.1358981      1.1868536E-06   9.502491    
  0.1358981      0.1431215      1.3399176E-06   8.775331    
  0.1431215      0.1507288      1.1834508E-06   9.074224    
  0.1507288      0.1587405      1.1877704E-06   9.086267    
  0.1587405      0.1671780      9.1242833E-07   10.20116    
  0.1671780      0.1760640      7.3417692E-07   10.58401    
  0.1760640      0.1854223      5.1401275E-07   12.51995    
  0.1854223      0.1952781      4.3591430E-07   13.06820    
  0.1952781      0.2056577      4.3333648E-07   12.93984    
  0.2056577      0.2165890      2.7741470E-07   15.32362    
  0.2165890      0.2281013      2.5496652E-07   15.86992    
  0.2281013      0.2402256      1.4088199E-07   21.68938    
  0.2402256      0.2529943      1.2107768E-07   21.72086    
  0.2529943      0.2664417      1.3946020E-07   18.94412    
  0.2664417      0.2806039      6.6513010E-08   32.97437    
  0.2806039      0.2955188      4.9229481E-08   32.14219    
  0.2955188      0.3112265      3.3688156E-08   36.74026    
  0.3112265      0.3277690      2.7990422E-08   42.00763    
  0.3277690      0.3451909      2.9710698E-08   35.33334    
  0.3451909      0.3635389      2.5394895E-08   39.36685    
  0.3635389      0.3828620      3.1259152E-08   36.01228    
  0.3828620      0.4032122      4.5229793E-09   96.22246    
  0.4032122      0.4246442      2.2544278E-08   40.52468    
  0.4246442      0.4472153      1.6198625E-08   48.87461    
  0.4472153      0.4709860      5.4761742E-09   72.77698    
  0.4709860      0.4960204       0.000000       0.000000    
  0.4960204      0.5223852       0.000000       0.000000    
  0.5223852      0.5501516      3.3189345E-09   96.22246    
  0.5501516      0.5793938       0.000000       0.000000    
  0.5793938      0.6101903       0.000000       0.000000    
  0.6101903      0.6426237       0.000000       0.000000    
  0.6426237      0.6767811       0.000000       0.000000    
  0.6767811      0.7127540       0.000000       0.000000    
  0.7127540      0.7506390       0.000000       0.000000    
  0.7506390      0.7905375       0.000000       0.000000    
  0.7905375      0.8325570       0.000000       0.000000    
  0.8325570      0.8768098       0.000000       0.000000    
  0.8768098      0.9234148       0.000000       0.000000    
  0.9234148      0.9724970       0.000000       0.000000    
  0.9724970       1.024188       0.000000       0.000000    
   1.024188       1.078627       0.000000       0.000000    
   1.078627       1.135959       0.000000       0.000000    
   1.135959       1.196338       0.000000       0.000000    
   1.196338       1.259927       0.000000       0.000000    
   1.259927       1.326896       0.000000       0.000000    
   1.326896       1.397425       0.000000       0.000000    
   1.397425       1.471702       0.000000       0.000000    
   1.471702       1.549927       0.000000       0.000000    
   1.549927       1.632310       0.000000       0.000000    
   1.632310       1.719072       0.000000       0.000000    
   1.719072       1.810446       0.000000       0.000000    
   1.810446       1.906677       0.000000       0.000000    
   1.906677       2.008022       0.000000       0.000000    
   2.008022       2.114754       0.000000       0.000000    
   2.114754       2.227160       0.000000       0.000000    
   2.227160       2.345540       0.000000       0.000000    
   2.345540       2.470212       0.000000       0.000000    
   2.470212       2.601511       0.000000       0.000000    
   2.601511       2.739789       0.000000       0.000000    
   2.739789       2.885417       0.000000       0.000000    
   2.885417       3.038786       0.000000       0.000000    
   3.038786       3.200306       0.000000       0.000000    
   3.200306       3.370412       0.000000       0.000000    
   3.370412       3.549559       0.000000       0.000000    
   3.549559       3.738229       0.000000       0.000000    
   3.738229       3.936927       0.000000       0.000000    
   3.936927       4.146185       0.000000       0.000000    
   4.146185       4.366568       0.000000       0.000000    
   4.366568       4.598663       0.000000       0.000000    
   4.598663       4.843096       0.000000       0.000000    
   4.843096       5.100521       0.000000       0.000000    
   5.100521       5.371628       0.000000       0.000000    
   5.371628       5.657146       0.000000       0.000000    
   5.657146       5.957840       0.000000       0.000000    
   5.957840       6.274517       0.000000       0.000000    
   6.274517       6.608026       0.000000       0.000000    
   6.608026       6.959262       0.000000       0.000000    
   6.959262       7.329167       0.000000       0.000000    
   7.329167       7.718733       0.000000       0.000000    
   7.718733       8.129007       0.000000       0.000000    
   8.129007       8.561088       0.000000       0.000000    
   8.561088       9.016134       0.000000       0.000000    
   9.016134       9.495368       0.000000       0.000000    
   9.495368       10.00008       0.000000       0.000000    


 # Detector n:            7   CHallblc2 
 # N. of energy intervals         120
  2.0000000E-02  2.1063058E-02  1.1038274E-07   59.16243    
  2.1063058E-02  2.2182621E-02  6.5320897E-08   60.29003    
  2.2182621E-02  2.3361692E-02  1.1374956E-07   52.20926    
  2.3361692E-02  2.4603436E-02  1.5001805E-07   48.44028    
  2.4603436E-02  2.5911180E-02  1.6127277E-07   39.85851    
  2.5911180E-02  2.7288437E-02  2.7896405E-07   34.72055    
  2.7288437E-02  2.8738894E-02  1.8121455E-07   42.56742    
  2.8738894E-02  3.0266454E-02  9.3596825E-08   67.50834    
  3.0266454E-02  3.1875204E-02  9.8490467E-08   52.28315    
  3.1875204E-02  3.3569463E-02  1.2012983E-07   43.97968    
  3.3569463E-02  3.5353780E-02  5.7967416E-08   53.11510    
  3.5353780E-02  3.7232935E-02  3.4036610E-08   96.22246    
  3.7232935E-02  3.9211977E-02  5.8353642E-08   84.39876    
  3.9211977E-02  4.1296210E-02  7.4336938E-08   52.74113    
  4.1296210E-02  4.3491218E-02  2.9216334E-08   57.04709    
  4.3491218E-02  4.5802910E-02  9.8323277E-08   55.55009    
  4.5802910E-02  4.8237469E-02  9.2021509E-08   62.97992    
  4.8237469E-02  5.0801434E-02  7.3473743E-08   46.63391    
  5.0801434E-02  5.3501677E-02  1.2083422E-07   39.27904    
  5.3501677E-02  5.6345452E-02  1.9158215E-07   31.10914    
  5.6345452E-02  5.9340376E-02  7.8913125E-08   46.44194    
  5.9340376E-02  6.2494490E-02  5.9097015E-08   58.94607    
  6.2494490E-02  6.5816253E-02  1.2216765E-07   47.44111    
  6.5816253E-02  6.9314592E-02  7.7976217E-08   52.39953    
  6.9314592E-02  7.2998859E-02  6.7115749E-08   63.06798    
  7.2998859E-02  7.6878957E-02  1.4182085E-07   39.63084    
  7.6878957E-02  8.0965310E-02  1.8231892E-08   88.75842    
  8.0965310E-02  8.5268848E-02  7.0844102E-08   56.73597    
  8.5268848E-02  8.9801140E-02  8.1205073E-08   42.64346    
  8.9801140E-02  9.4574332E-02  5.7948739E-08   53.10145    
  9.4574332E-02  9.9601232E-02  2.9342022E-08   69.63802    
  9.9601232E-02  0.1048953      4.4935882E-09   96.22246    
  0.1048953      0.1104708      1.6507572E-08   99.00000    
  0.1104708      0.1163427      5.2445255E-08   56.90643    
  0.1163427      0.1225266      3.2057518E-08   67.05424    
  0.1225266      0.1290393      4.4416367E-08   60.32559    
  0.1290393      0.1358981      5.1691899E-08   49.71296    
  0.1358981      0.1431215       0.000000       0.000000    
  0.1431215      0.1507288      1.7913306E-08   76.08530    
  0.1507288      0.1587405      2.5579975E-08   65.65527    
  0.1587405      0.1671780      3.6863494E-08   51.08694    
  0.1671780      0.1760640      1.6581216E-08   65.52187    
  0.1760640      0.1854223      1.4297541E-08   57.64739    
  0.1854223      0.1952781      2.1926765E-09   96.22246    
  0.1952781      0.2056577      2.0385835E-09   96.22246    
  0.2056577      0.2165890      1.5878538E-09   99.00000    
  0.2165890      0.2281013      2.4668834E-09   99.00000    
  0.2281013      0.2402256      1.6436157E-08   53.47704    
  0.2402256      0.2529943      1.6811159E-08   63.97030    
  0.2529943      0.2664417      1.1925612E-08   62.84855    
  0.2664417      0.2806039      8.1287560E-10   96.22246    
  0.2806039      0.2955188       0.000000       0.000000    
  0.2955188      0.3112265       0.000000       0.000000    
  0.3112265      0.3277690       0.000000       0.000000    
  0.3277690      0.3451909       0.000000       0.000000    
  0.3451909      0.3635389      7.9547879E-09   68.49335    
  0.3635389      0.3828620       0.000000       0.000000    
  0.3828620      0.4032122       0.000000       0.000000    
  0.4032122      0.4246442       0.000000       0.000000    
  0.4246442      0.4472153      2.1750519E-09   96.22246    
  0.4472153      0.4709860       0.000000       0.000000    
  0.4709860      0.4960204       0.000000       0.000000    
  0.4960204      0.5223852       0.000000       0.000000    
  0.5223852      0.5501516       0.000000       0.000000    
  0.5501516      0.5793938       0.000000       0.000000    
  0.5793938      0.6101903       0.000000       0.000000    
  0.6101903      0.6426237       0.000000       0.000000    
  0.6426237      0.6767811       0.000000       0.000000    
  0.6767811      0.7127540       0.000000       0.000000    
  0.7127540      0.7506390       0.000000       0.000000    
  0.7506390      0.7905375       0.000000       0.000000    
  0.7905375      0.8325570       0.000000       0.000000    
  0.8325570      0.8768098       0.000000       0.000000    
  0.8768098      0.9234148       0.000000       0.000000    
  0.9234148      0.9724970       0.000000       0.000000    
  0.9724970       1.024188       0.000000       0.000000    
   1.024188       1.078627       0.000000       0.000000    
   1.078627       1.135959       0.000000       0.000000    
   1.135959       1.196338       0.000000       0.000000    
   1.196338       1.259927       0.000000       0.000000    
   1.259927       1.326896       0.000000       0.000000    
   1.326896       1.397425       0.000000       0.000000    
   1.397425       1.471702       0.000000       0.000000    
   1.471702       1.549927       0.000000       0.000000    
   1.549927       1.632310       0.000000       0.000000    
   1.632310       1.719072       0.000000       0.000000    
   1.719072       1.810446       0.000000       0.000000    
   1.810446       1.906677       0.000000       0.000000    
   1.906677       2.008022       0.000000       0.000000    
   2.008022       2.114754       0.000000       0.000000    
   2.114754       2.227160       0.000000       0.000000    
   2.227160       2.345540       0.000000       0.000000    
   2.345540       2.470212       0.000000       0.000000    
   2.470212       2.601511       0.000000       0.000000    
   2.601511       2.739789       0.000000       0.000000    
   2.739789       2.885417       0.000000       0.000000    
   2.885417       3.038786       0.000000       0.000000    
   3.038786       3.200306       0.000000       0.000000    
   3.200306       3.370412       0.000000       0.000000    
   3.370412       3.549559       0.000000       0.000000    
   3.549559       3.738229       0.000000       0.000000    
   3.738229       3.936927       0.000000       0.000000    
   3.936927       4.146185       0.000000       0.000000    
   4.146185       4.366568       0.000000       0.000000    
   4.366568       4.598663       0.000000       0.000000    
   4.598663       4.843096       0.000000       0.000000    
   4.843096       5.100521       0.000000       0.000000    
   5.100521       5.371628       0.000000       0.000000    
   5.371628       5.657146       0.000000       0.000000    
   5.657146       5.957840       0.000000       0.000000    
   5.957840       6.274517       0.000000       0.000000    
   6.274517       6.608026       0.000000       0.000000    
   6.608026       6.959262       0.000000       0.000000    
   6.959262       7.329167       0.000000       0.000000    
   7.329167       7.718733       0.000000       0.000000    
   7.718733       8.129007       0.000000       0.000000    
   8.129007       8.561088       0.000000       0.000000    
   8.561088       9.016134       0.000000       0.000000    
   9.016134       9.495368       0.000000       0.000000    
   9.495368       10.00008       0.000000       0.000000    


 # Detector n:            8   mublc2    
 # N. of energy intervals         120
  2.0000000E-02  2.1063058E-02   0.000000       0.000000    
  2.1063058E-02  2.2182621E-02   0.000000       0.000000    
  2.2182621E-02  2.3361692E-02   0.000000       0.000000    
  2.3361692E-02  2.4603436E-02   0.000000       0.000000    
  2.4603436E-02  2.5911180E-02   0.000000       0.000000    
  2.5911180E-02  2.7288437E-02   0.000000       0.000000    
  2.7288437E-02  2.8738894E-02   0.000000       0.000000    
  2.8738894E-02  3.0266454E-02   0.000000       0.000000    
  3.0266454E-02  3.1875204E-02   0.000000       0.000000    
  3.1875204E-02  3.3569463E-02   0.000000       0.000000    
  3.3569463E-02  3.5353780E-02   0.000000       0.000000    
  3.5353780E-02  3.7232935E-02   0.000000       0.000000    
  3.7232935E-02  3.9211977E-02   0.000000       0.000000    
  3.9211977E-02  4.1296210E-02  1.2744128E-08   96.22246    
  4.1296210E-02  4.3491218E-02   0.000000       0.000000    
  4.3491218E-02  4.5802910E-02  2.9037446E-09   96.22246    
  4.5802910E-02  4.8237469E-02  8.0753919E-09   96.22246    
  4.8237469E-02  5.0801434E-02  1.1214257E-08   96.22246    
  5.0801434E-02  5.3501677E-02   0.000000       0.000000    
  5.3501677E-02  5.6345452E-02  8.3775493E-09   96.22246    
  5.6345452E-02  5.9340376E-02  1.7508928E-08   96.22246    
  5.9340376E-02  6.2494490E-02  9.7879438E-09   96.22246    
  6.2494490E-02  6.5816253E-02  2.3472779E-08   99.00000    
  6.5816253E-02  6.9314592E-02   0.000000       0.000000    
  6.9314592E-02  7.2998859E-02   0.000000       0.000000    
  7.2998859E-02  7.6878957E-02  5.4572627E-08   68.19332    
  7.6878957E-02  8.0965310E-02   0.000000       0.000000    
  8.0965310E-02  8.5268848E-02   0.000000       0.000000    
  8.5268848E-02  8.9801140E-02  9.3058777E-10   96.22246    
  8.9801140E-02  9.4574332E-02  1.8076138E-08   96.22246    
  9.4574332E-02  9.9601232E-02   0.000000       0.000000    
  9.9601232E-02  0.1048953       0.000000       0.000000    
  0.1048953      0.1104708       0.000000       0.000000    
  0.1104708      0.1163427      1.6780527E-08   96.22246    
  0.1163427      0.1225266       0.000000       0.000000    
  0.1225266      0.1290393       0.000000       0.000000    
  0.1290393      0.1358981       0.000000       0.000000    
  0.1358981      0.1431215       0.000000       0.000000    
  0.1431215      0.1507288       0.000000       0.000000    
  0.1507288      0.1587405       0.000000       0.000000    
  0.1587405      0.1671780      1.0953785E-08   74.62600    
  0.1671780      0.1760640      1.0341649E-08   96.22246    
  0.1760640      0.1854223       0.000000       0.000000    
  0.1854223      0.1952781       0.000000       0.000000    
  0.1952781      0.2056577       0.000000       0.000000    
  0.2056577      0.2165890       0.000000       0.000000    
  0.2165890      0.2281013       0.000000       0.000000    
  0.2281013      0.2402256       0.000000       0.000000    
  0.2402256      0.2529943       0.000000       0.000000    
  0.2529943      0.2664417       0.000000       0.000000    
  0.2664417      0.2806039      8.1287560E-10   96.22246    
  0.2806039      0.2955188       0.000000       0.000000    
  0.2955188      0.3112265       0.000000       0.000000    
  0.3112265      0.3277690       0.000000       0.000000    
  0.3277690      0.3451909       0.000000       0.000000    
  0.3451909      0.3635389       0.000000       0.000000    
  0.3635389      0.3828620       0.000000       0.000000    
  0.3828620      0.4032122       0.000000       0.000000    
  0.4032122      0.4246442       0.000000       0.000000    
  0.4246442      0.4472153       0.000000       0.000000    
  0.4472153      0.4709860       0.000000       0.000000    
  0.4709860      0.4960204       0.000000       0.000000    
  0.4960204      0.5223852       0.000000       0.000000    
  0.5223852      0.5501516       0.000000       0.000000    
  0.5501516      0.5793938       0.000000       0.000000    
  0.5793938      0.6101903       0.000000       0.000000    
  0.6101903      0.6426237       0.000000       0.000000    
  0.6426237      0.6767811       0.000000       0.000000    
  0.6767811      0.7127540       0.000000       0.000000    
  0.7127540      0.7506390       0.000000       0.000000    
  0.7506390      0.7905375       0.000000       0.000000    
  0.7905375      0.8325570       0.000000       0.000000    
  0.8325570      0.8768098       0.000000       0.000000    
  0.8768098      0.9234148       0.000000       0.000000    
  0.9234148      0.9724970       0.000000       0.000000    
  0.9724970       1.024188       0.000000       0.000000    
   1.024188       1.078627       0.000000       0.000000    
   1.078627       1.135959       0.000000       0.000000    
   1.135959       1.196338       0.000000       0.000000    
   1.196338       1.259927       0.000000       0.000000    
   1.259927       1.326896       0.000000       0.000000    
   1.326896       1.397425       0.000000       0.000000    
   1.397425       1.471702       0.000000       0.000000    
   1.471702       1.549927       0.000000       0.000000    
   1.549927       1.632310       0.000000       0.000000    
   1.632310       1.719072       0.000000       0.000000    
   1.719072       1.810446       0.000000       0.000000    
   1.810446       1.906677       0.000000       0.000000    
   1.906677       2.008022       0.000000       0.000000    
   2.008022       2.114754       0.000000       0.000000    
   2.114754       2.227160       0.000000       0.000000    
   2.227160       2.345540       0.000000       0.000000    
   2.345540       2.470212       0.000000       0.000000    
   2.470212       2.601511       0.000000       0.000000    
   2.601511       2.739789       0.000000       0.000000    
   2.739789       2.885417       0.000000       0.000000    
   2.885417       3.038786       0.000000       0.000000    
   3.038786       3.200306       0.000000       0.000000    
   3.200306       3.370412       0.000000       0.000000    
   3.370412       3.549559       0.000000       0.000000    
   3.549559       3.738229       0.000000       0.000000    
   3.738229       3.936927       0.000000       0.000000    
   3.936927       4.146185       0.000000       0.000000    
   4.146185       4.366568       0.000000       0.000000    
   4.366568       4.598663       0.000000       0.000000    
   4.598663       4.843096       0.000000       0.000000    
   4.843096       5.100521       0.000000       0.000000    
   5.100521       5.371628       0.000000       0.000000    
   5.371628       5.657146       0.000000       0.000000    
   5.657146       5.957840       0.000000       0.000000    
   5.957840       6.274517       0.000000       0.000000    
   6.274517       6.608026       0.000000       0.000000    
   6.608026       6.959262       0.000000       0.000000    
   6.959262       7.329167       0.000000       0.000000    
   7.329167       7.718733       0.000000       0.000000    
   7.718733       8.129007       0.000000       0.000000    
   8.129007       8.561088       0.000000       0.000000    
   8.561088       9.016134       0.000000       0.000000    
   9.016134       9.495368       0.000000       0.000000    
   9.495368       10.00008       0.000000       0.000000    
