 # Detector n:            1   pipDG1    
 # N. of energy intervals         120
  9.9999997E-06  1.1220184E-05   0.000000       0.000000    
  1.1220184E-05  1.2589254E-05   0.000000       0.000000    
  1.2589254E-05  1.4125375E-05   0.000000       0.000000    
  1.4125375E-05  1.5848931E-05   0.000000       0.000000    
  1.5848931E-05  1.7782793E-05   0.000000       0.000000    
  1.7782793E-05  1.9952624E-05   0.000000       0.000000    
  1.9952624E-05  2.2387210E-05   0.000000       0.000000    
  2.2387210E-05  2.5118865E-05   0.000000       0.000000    
  2.5118865E-05  2.8183831E-05   0.000000       0.000000    
  2.8183831E-05  3.1622778E-05   0.000000       0.000000    
  3.1622778E-05  3.5481338E-05   0.000000       0.000000    
  3.5481338E-05  3.9810719E-05   0.000000       0.000000    
  3.9810719E-05  4.4668363E-05   0.000000       0.000000    
  4.4668363E-05  5.0118728E-05   0.000000       0.000000    
  5.0118728E-05  5.6234134E-05   0.000000       0.000000    
  5.6234134E-05  6.3095737E-05   0.000000       0.000000    
  6.3095737E-05  7.0794587E-05   0.000000       0.000000    
  7.0794587E-05  7.9432837E-05   0.000000       0.000000    
  7.9432837E-05  8.9125104E-05   0.000000       0.000000    
  8.9125104E-05  1.0000000E-04   0.000000       0.000000    
  1.0000000E-04  1.1220186E-04   0.000000       0.000000    
  1.1220186E-04  1.2589256E-04   0.000000       0.000000    
  1.2589256E-04  1.4125377E-04   0.000000       0.000000    
  1.4125377E-04  1.5848935E-04   0.000000       0.000000    
  1.5848935E-04  1.7782798E-04   0.000000       0.000000    
  1.7782798E-04  1.9952627E-04   0.000000       0.000000    
  1.9952627E-04  2.2387214E-04   0.000000       0.000000    
  2.2387214E-04  2.5118867E-04   0.000000       0.000000    
  2.5118867E-04  2.8183835E-04   0.000000       0.000000    
  2.8183835E-04  3.1622782E-04   0.000000       0.000000    
  3.1622782E-04  3.5481344E-04   0.000000       0.000000    
  3.5481344E-04  3.9810725E-04   0.000000       0.000000    
  3.9810725E-04  4.4668367E-04   0.000000       0.000000    
  4.4668367E-04  5.0118734E-04   0.000000       0.000000    
  5.0118734E-04  5.6234142E-04   0.000000       0.000000    
  5.6234142E-04  6.3095748E-04   0.000000       0.000000    
  6.3095748E-04  7.0794590E-04   0.000000       0.000000    
  7.0794590E-04  7.9432846E-04   0.000000       0.000000    
  7.9432846E-04  8.9125114E-04   0.000000       0.000000    
  8.9125114E-04  1.0000003E-03   0.000000       0.000000    
  1.0000003E-03  1.1220188E-03   0.000000       0.000000    
  1.1220188E-03  1.2589258E-03   0.000000       0.000000    
  1.2589258E-03  1.4125380E-03   0.000000       0.000000    
  1.4125380E-03  1.5848936E-03   0.000000       0.000000    
  1.5848936E-03  1.7782800E-03   0.000000       0.000000    
  1.7782800E-03  1.9952629E-03   0.000000       0.000000    
  1.9952629E-03  2.2387218E-03   0.000000       0.000000    
  2.2387218E-03  2.5118871E-03   0.000000       0.000000    
  2.5118871E-03  2.8183837E-03   0.000000       0.000000    
  2.8183837E-03  3.1622786E-03   0.000000       0.000000    
  3.1622786E-03  3.5481353E-03   0.000000       0.000000    
  3.5481353E-03  3.9810729E-03   0.000000       0.000000    
  3.9810729E-03  4.4668377E-03   0.000000       0.000000    
  4.4668377E-03  5.0118743E-03   0.000000       0.000000    
  5.0118743E-03  5.6234146E-03   0.000000       0.000000    
  5.6234146E-03  6.3095763E-03   0.000000       0.000000    
  6.3095763E-03  7.0794607E-03   0.000000       0.000000    
  7.0794607E-03  7.9432856E-03   0.000000       0.000000    
  7.9432856E-03  8.9125130E-03   0.000000       0.000000    
  8.9125130E-03  1.0000004E-02   0.000000       0.000000    
  1.0000004E-02  1.1220189E-02   0.000000       0.000000    
  1.1220189E-02  1.2589260E-02   0.000000       0.000000    
  1.2589260E-02  1.4125382E-02   0.000000       0.000000    
  1.4125382E-02  1.5848938E-02   0.000000       0.000000    
  1.5848938E-02  1.7782802E-02   0.000000       0.000000    
  1.7782802E-02  1.9952632E-02   0.000000       0.000000    
  1.9952632E-02  2.2387221E-02   0.000000       0.000000    
  2.2387221E-02  2.5118876E-02   0.000000       0.000000    
  2.5118876E-02  2.8183842E-02   0.000000       0.000000    
  2.8183842E-02  3.1622794E-02   0.000000       0.000000    
  3.1622794E-02  3.5481352E-02  4.5870543E-02   62.72239    
  3.5481352E-02  3.9810736E-02  1.6578281E-02   90.90241    
  3.9810736E-02  4.4668384E-02  1.4690543E-02   96.72620    
  4.4668384E-02  5.0118748E-02  6.2210620E-03   96.72620    
  5.0118748E-02  5.6234159E-02  1.1711153E-02   92.29134    
  5.6234159E-02  6.3095763E-02  1.4695902E-02   69.10242    
  6.3095763E-02  7.0794620E-02  9.0775564E-03   99.00000    
  7.0794620E-02  7.9432867E-02  1.3605973E-02   74.64865    
  7.9432867E-02  8.9125134E-02  7.1621677E-03   99.00000    
  8.9125134E-02  0.1000001      9.3844496E-03   95.08805    
  0.1000001      0.1122019      1.5457152E-02   57.06139    
  0.1122019      0.1258926      5.0080023E-03   91.82927    
  0.1258926      0.1412538      5.4404684E-03   68.44308    
  0.1412538      0.1584894      2.2619327E-03   62.62350    
  0.1584894      0.1778280      5.7242396E-03   70.06432    
  0.1778280      0.1995264      7.1605099E-03   49.99512    
  0.1995264      0.2238722      7.1231653E-03   52.30069    
  0.2238722      0.2511888      7.6744403E-03   58.61200    
  0.2511888      0.2818385      3.4302452E-03   77.39011    
  0.2818385      0.3162280      1.0676275E-02   44.48647    
  0.3162280      0.3548136      1.3379495E-02   33.07182    
  0.3548136      0.3981074      1.8548854E-02   27.36362    
  0.3981074      0.4466839      7.5065056E-03   41.05517    
  0.4466839      0.5011876      1.0984496E-02   33.44674    
  0.5011876      0.5623417      2.1248872E-03   53.00183    
  0.5623417      0.6309578      4.9832365E-03   45.68071    
  0.6309578      0.7079462      5.5780364E-03   35.51144    
  0.7079462      0.7943288      1.1048852E-03   76.79381    
  0.7943288      0.8912516      2.5486622E-03   49.00709    
  0.8912516       1.000001      3.1134223E-03   42.74417    
   1.000001       1.122019      5.3637470E-03   29.56828    
   1.122019       1.258926      1.9794437E-03   44.86594    
   1.258926       1.412539      6.4677699E-04   73.81343    
   1.412539       1.584894      2.1313005E-03   42.38962    
   1.584894       1.778281      2.9244460E-03   34.86447    
   1.778281       1.995264      3.9887504E-04   68.80625    
   1.995264       2.238723      1.8520568E-03   38.76660    
   2.238723       2.511888      3.2321175E-04   78.57352    
   2.511888       2.818385      6.0159294E-04   56.67847    
   2.818385       3.162280      5.2004767E-04   60.02167    
   3.162280       3.548136      1.2538049E-04   73.19247    
   3.548136       3.981075      4.8777822E-04   51.85114    
   3.981075       4.466839      2.9367729E-04   68.38411    
   4.466839       5.011876       0.000000       0.000000    
   5.011876       5.623418       0.000000       0.000000    
   5.623418       6.309578       0.000000       0.000000    
   6.309578       7.079463       0.000000       0.000000    
   7.079463       7.943289       0.000000       0.000000    
   7.943289       8.912516       0.000000       0.000000    
   8.912516       10.00001       0.000000       0.000000    


 # Detector n:            2   pimDG1    
 # N. of energy intervals         120
  9.9999997E-06  1.1220184E-05   0.000000       0.000000    
  1.1220184E-05  1.2589254E-05   0.000000       0.000000    
  1.2589254E-05  1.4125375E-05   0.000000       0.000000    
  1.4125375E-05  1.5848931E-05   0.000000       0.000000    
  1.5848931E-05  1.7782793E-05   0.000000       0.000000    
  1.7782793E-05  1.9952624E-05   0.000000       0.000000    
  1.9952624E-05  2.2387210E-05   0.000000       0.000000    
  2.2387210E-05  2.5118865E-05   0.000000       0.000000    
  2.5118865E-05  2.8183831E-05   0.000000       0.000000    
  2.8183831E-05  3.1622778E-05   0.000000       0.000000    
  3.1622778E-05  3.5481338E-05   0.000000       0.000000    
  3.5481338E-05  3.9810719E-05   0.000000       0.000000    
  3.9810719E-05  4.4668363E-05   0.000000       0.000000    
  4.4668363E-05  5.0118728E-05   0.000000       0.000000    
  5.0118728E-05  5.6234134E-05   0.000000       0.000000    
  5.6234134E-05  6.3095737E-05   0.000000       0.000000    
  6.3095737E-05  7.0794587E-05   0.000000       0.000000    
  7.0794587E-05  7.9432837E-05   0.000000       0.000000    
  7.9432837E-05  8.9125104E-05   0.000000       0.000000    
  8.9125104E-05  1.0000000E-04   0.000000       0.000000    
  1.0000000E-04  1.1220186E-04   0.000000       0.000000    
  1.1220186E-04  1.2589256E-04   0.000000       0.000000    
  1.2589256E-04  1.4125377E-04   0.000000       0.000000    
  1.4125377E-04  1.5848935E-04   0.000000       0.000000    
  1.5848935E-04  1.7782798E-04   0.000000       0.000000    
  1.7782798E-04  1.9952627E-04   0.000000       0.000000    
  1.9952627E-04  2.2387214E-04   0.000000       0.000000    
  2.2387214E-04  2.5118867E-04   0.000000       0.000000    
  2.5118867E-04  2.8183835E-04   0.000000       0.000000    
  2.8183835E-04  3.1622782E-04   0.000000       0.000000    
  3.1622782E-04  3.5481344E-04   0.000000       0.000000    
  3.5481344E-04  3.9810725E-04   0.000000       0.000000    
  3.9810725E-04  4.4668367E-04   0.000000       0.000000    
  4.4668367E-04  5.0118734E-04   0.000000       0.000000    
  5.0118734E-04  5.6234142E-04   0.000000       0.000000    
  5.6234142E-04  6.3095748E-04   0.000000       0.000000    
  6.3095748E-04  7.0794590E-04   0.000000       0.000000    
  7.0794590E-04  7.9432846E-04   0.000000       0.000000    
  7.9432846E-04  8.9125114E-04   0.000000       0.000000    
  8.9125114E-04  1.0000003E-03   0.000000       0.000000    
  1.0000003E-03  1.1220188E-03   0.000000       0.000000    
  1.1220188E-03  1.2589258E-03   0.000000       0.000000    
  1.2589258E-03  1.4125380E-03   0.000000       0.000000    
  1.4125380E-03  1.5848936E-03   0.000000       0.000000    
  1.5848936E-03  1.7782800E-03   0.000000       0.000000    
  1.7782800E-03  1.9952629E-03   0.000000       0.000000    
  1.9952629E-03  2.2387218E-03   0.000000       0.000000    
  2.2387218E-03  2.5118871E-03   0.000000       0.000000    
  2.5118871E-03  2.8183837E-03   0.000000       0.000000    
  2.8183837E-03  3.1622786E-03   0.000000       0.000000    
  3.1622786E-03  3.5481353E-03   0.000000       0.000000    
  3.5481353E-03  3.9810729E-03   0.000000       0.000000    
  3.9810729E-03  4.4668377E-03   0.000000       0.000000    
  4.4668377E-03  5.0118743E-03   0.000000       0.000000    
  5.0118743E-03  5.6234146E-03   0.000000       0.000000    
  5.6234146E-03  6.3095763E-03   0.000000       0.000000    
  6.3095763E-03  7.0794607E-03   0.000000       0.000000    
  7.0794607E-03  7.9432856E-03   0.000000       0.000000    
  7.9432856E-03  8.9125130E-03   0.000000       0.000000    
  8.9125130E-03  1.0000004E-02   0.000000       0.000000    
  1.0000004E-02  1.1220189E-02  1.9117534E-02   96.72620    
  1.1220189E-02  1.2589260E-02  2.7576191E-02   96.72620    
  1.2589260E-02  1.4125382E-02   0.000000       0.000000    
  1.4125382E-02  1.5848938E-02   0.000000       0.000000    
  1.5848938E-02  1.7782802E-02   0.000000       0.000000    
  1.7782802E-02  1.9952632E-02   0.000000       0.000000    
  1.9952632E-02  2.2387221E-02  3.4701698E-02   96.72620    
  2.2387221E-02  2.5118876E-02   0.000000       0.000000    
  2.5118876E-02  2.8183842E-02  2.9337471E-03   96.72620    
  2.8183842E-02  3.1622794E-02  3.7830658E-03   96.72620    
  3.1622794E-02  3.5481352E-02  4.9622082E-03   96.72620    
  3.5481352E-02  3.9810736E-02   0.000000       0.000000    
  3.9810736E-02  4.4668384E-02  1.6376792E-03   96.72620    
  4.4668384E-02  5.0118748E-02   0.000000       0.000000    
  5.0118748E-02  5.6234159E-02  1.8496515E-03   70.46735    
  5.6234159E-02  6.3095763E-02  1.8750770E-02   69.53938    
  6.3095763E-02  7.0794620E-02  1.9853313E-02   59.45599    
  7.0794620E-02  7.9432867E-02  1.1740046E-02   74.51160    
  7.9432867E-02  8.9125134E-02  1.1251148E-02   66.65034    
  8.9125134E-02  0.1000001      4.4185788E-04   96.72620    
  0.1000001      0.1122019      2.1687155E-03   99.00000    
  0.1122019      0.1258926      1.5911505E-02   49.09381    
  0.1258926      0.1412538      7.6279575E-03   71.34697    
  0.1412538      0.1584894      1.7612789E-02   50.99601    
  0.1584894      0.1778280      1.4387500E-02   50.10722    
  0.1778280      0.1995264      1.7025011E-02   41.47127    
  0.1995264      0.2238722      2.1701980E-02   30.29546    
  0.2238722      0.2511888      1.7822865E-02   33.14008    
  0.2511888      0.2818385      1.4428736E-02   38.72832    
  0.2818385      0.3162280      1.3626771E-02   37.79007    
  0.3162280      0.3548136      8.0300393E-03   43.48741    
  0.3548136      0.3981074      1.3983015E-02   34.24037    
  0.3981074      0.4466839      1.1900104E-02   32.36580    
  0.4466839      0.5011876      1.8271588E-02   25.47702    
  0.5011876      0.5623417      6.1036912E-03   43.33068    
  0.5623417      0.6309578      3.1786561E-03   51.22820    
  0.6309578      0.7079462      4.1908589E-03   46.21237    
  0.7079462      0.7943288      7.7084117E-03   29.82384    
  0.7943288      0.8912516      5.4266383E-03   33.67519    
  0.8912516       1.000001      3.3499303E-03   38.32391    
   1.000001       1.122019      4.5089629E-03   34.91875    
   1.122019       1.258926      2.8967157E-03   38.57534    
   1.258926       1.412539      3.2742177E-03   34.70726    
   1.412539       1.584894      4.6340316E-03   29.24859    
   1.584894       1.778281      8.7370077E-04   59.01096    
   1.778281       1.995264      2.6996487E-03   35.60172    
   1.995264       2.238723      2.2799713E-03   34.06089    
   2.238723       2.511888      7.2333042E-04   52.00499    
   2.511888       2.818385      4.4906067E-04   68.41978    
   2.818385       3.162280      4.3458326E-04   64.91781    
   3.162280       3.548136       0.000000       0.000000    
   3.548136       3.981075      4.5625460E-05   96.72620    
   3.981075       4.466839       0.000000       0.000000    
   4.466839       5.011876       0.000000       0.000000    
   5.011876       5.623418       0.000000       0.000000    
   5.623418       6.309578       0.000000       0.000000    
   6.309578       7.079463       0.000000       0.000000    
   7.079463       7.943289       0.000000       0.000000    
   7.943289       8.912516       0.000000       0.000000    
   8.912516       10.00001       0.000000       0.000000    


 # Detector n:            3   prDG1     
 # N. of energy intervals         120
  9.9999997E-06  1.1220184E-05   0.000000       0.000000    
  1.1220184E-05  1.2589254E-05   0.000000       0.000000    
  1.2589254E-05  1.4125375E-05   0.000000       0.000000    
  1.4125375E-05  1.5848931E-05   0.000000       0.000000    
  1.5848931E-05  1.7782793E-05   0.000000       0.000000    
  1.7782793E-05  1.9952624E-05   0.000000       0.000000    
  1.9952624E-05  2.2387210E-05   0.000000       0.000000    
  2.2387210E-05  2.5118865E-05   0.000000       0.000000    
  2.5118865E-05  2.8183831E-05   0.000000       0.000000    
  2.8183831E-05  3.1622778E-05   0.000000       0.000000    
  3.1622778E-05  3.5481338E-05   0.000000       0.000000    
  3.5481338E-05  3.9810719E-05   0.000000       0.000000    
  3.9810719E-05  4.4668363E-05   0.000000       0.000000    
  4.4668363E-05  5.0118728E-05   4.921088       6.328465    
  5.0118728E-05  5.6234134E-05   0.000000       0.000000    
  5.6234134E-05  6.3095737E-05   0.000000       0.000000    
  6.3095737E-05  7.0794587E-05   0.000000       0.000000    
  7.0794587E-05  7.9432837E-05  1.1020848E-02   68.57034    
  7.9432837E-05  8.9125104E-05   0.000000       0.000000    
  8.9125104E-05  1.0000000E-04  2.2214809E-03   46.27759    
  1.0000000E-04  1.1220186E-04  0.2139419       6.470483    
  1.1220186E-04  1.2589256E-04  0.2019395       6.497996    
  1.2589256E-04  1.4125377E-04  0.2036155       6.458967    
  1.4125377E-04  1.5848935E-04  0.2156143       6.477822    
  1.5848935E-04  1.7782798E-04  0.2178158       6.442804    
  1.7782798E-04  1.9952627E-04  0.2284621       6.440922    
  1.9952627E-04  2.2387214E-04  0.2372010       6.420001    
  2.2387214E-04  2.5118867E-04  0.2485122       6.421493    
  2.5118867E-04  2.8183835E-04  0.2660665       6.467393    
  2.8183835E-04  3.1622782E-04  0.2908669       6.543397    
  3.1622782E-04  3.5481344E-04  0.3202584       6.548637    
  3.5481344E-04  3.9810725E-04  0.3634258       6.639876    
  3.9810725E-04  4.4668367E-04  0.4150966       6.609807    
  4.4668367E-04  5.0118734E-04  0.4743882       6.618267    
  5.0118734E-04  5.6234142E-04  0.4820458       6.488824    
  5.6234142E-04  6.3095748E-04  8.7591901E-02   14.19775    
  6.3095748E-04  7.0794590E-04  8.9828670E-02   13.97483    
  7.0794590E-04  7.9432846E-04  9.7428679E-02   14.39106    
  7.9432846E-04  8.9125114E-04  0.1013692       15.01215    
  8.9125114E-04  1.0000003E-03  0.1218796       14.84696    
  1.0000003E-03  1.1220188E-03  0.1197161       14.44854    
  1.1220188E-03  1.2589258E-03  0.1223983       15.10226    
  1.2589258E-03  1.4125380E-03  0.1289981       15.19963    
  1.4125380E-03  1.5848936E-03  0.1458663       16.07750    
  1.5848936E-03  1.7782800E-03  0.1500807       15.78335    
  1.7782800E-03  1.9952629E-03  0.1616646       15.98291    
  1.9952629E-03  2.2387218E-03  0.1602847       15.87642    
  2.2387218E-03  2.5118871E-03  0.1905309       16.02276    
  2.5118871E-03  2.8183837E-03  0.2011361       15.91502    
  2.8183837E-03  3.1622786E-03  0.1980147       15.91223    
  3.1622786E-03  3.5481353E-03  0.2148223       16.49598    
  3.5481353E-03  3.9810729E-03  0.2348373       17.41110    
  3.9810729E-03  4.4668377E-03  0.2389293       17.31603    
  4.4668377E-03  5.0118743E-03  0.2557684       18.46187    
  5.0118743E-03  5.6234146E-03  0.2706077       18.30314    
  5.6234146E-03  6.3095763E-03  0.3086088       18.01459    
  6.3095763E-03  7.0794607E-03  0.3034002       18.26590    
  7.0794607E-03  7.9432856E-03  0.3027027       20.23257    
  7.9432856E-03  8.9125130E-03  0.2460524       21.96842    
  8.9125130E-03  1.0000004E-02  0.2701003       20.93295    
  1.0000004E-02  1.1220189E-02  0.2810632       21.28508    
  1.1220189E-02  1.2589260E-02  0.2894954       22.57596    
  1.2589260E-02  1.4125382E-02  0.2511414       25.40343    
  1.4125382E-02  1.5848938E-02  0.3217794       22.00652    
  1.5848938E-02  1.7782802E-02  0.2680656       22.15499    
  1.7782802E-02  1.9952632E-02  0.1904280       26.40573    
  1.9952632E-02  2.2387221E-02  0.2830296       24.77613    
  2.2387221E-02  2.5118876E-02  0.2522117       23.87916    
  2.5118876E-02  2.8183842E-02  0.2664096       24.12309    
  2.8183842E-02  3.1622794E-02  0.2874200       23.47018    
  3.1622794E-02  3.5481352E-02  0.3163871       20.42842    
  3.5481352E-02  3.9810736E-02  0.2426303       21.67575    
  3.9810736E-02  4.4668384E-02  0.2734184       20.83194    
  4.4668384E-02  5.0118748E-02  0.3094641       18.38587    
  5.0118748E-02  5.6234159E-02  0.1666078       22.81405    
  5.6234159E-02  6.3095763E-02  0.2828286       16.57461    
  6.3095763E-02  7.0794620E-02  0.2225808       17.39590    
  7.0794620E-02  7.9432867E-02  0.2768542       15.08732    
  7.9432867E-02  8.9125134E-02  0.2312211       16.18280    
  8.9125134E-02  0.1000001      0.1563567       17.01653    
  0.1000001      0.1122019      0.1489917       18.80528    
  0.1122019      0.1258926      0.1822632       14.96291    
  0.1258926      0.1412538      0.1167843       18.56646    
  0.1412538      0.1584894      0.1143313       17.44603    
  0.1584894      0.1778280      7.0994273E-02   20.43335    
  0.1778280      0.1995264      6.4757280E-02   20.59617    
  0.1995264      0.2238722      6.5177403E-02   21.16936    
  0.2238722      0.2511888      3.2332476E-02   32.24682    
  0.2511888      0.2818385      4.7185037E-02   20.88754    
  0.2818385      0.3162280      4.0756565E-02   20.97142    
  0.3162280      0.3548136      3.0397017E-02   22.79784    
  0.3548136      0.3981074      2.4415592E-02   22.75255    
  0.3981074      0.4466839      2.0133492E-02   24.82545    
  0.4466839      0.5011876      1.3934399E-02   27.65807    
  0.5011876      0.5623417      1.3299616E-02   26.41408    
  0.5623417      0.6309578      1.0897139E-02   29.39019    
  0.6309578      0.7079462      5.0385897E-03   39.87341    
  0.7079462      0.7943288      8.0494136E-03   29.83734    
  0.7943288      0.8912516      5.1462324E-03   33.15551    
  0.8912516       1.000001      2.2727463E-03   51.82291    
   1.000001       1.122019      4.1679987E-03   35.03857    
   1.122019       1.258926      3.3752269E-03   39.12054    
   1.258926       1.412539      2.3862596E-03   39.92745    
   1.412539       1.584894      9.3385903E-04   60.25056    
   1.584894       1.778281      1.8105212E-03   45.61372    
   1.778281       1.995264      1.4001437E-03   45.14629    
   1.995264       2.238723      1.4384234E-03   44.28027    
   2.238723       2.511888      3.3428203E-04   78.26159    
   2.511888       2.818385      9.4549359E-05   90.25371    
   2.818385       3.162280       0.000000       0.000000    
   3.162280       3.548136      3.7196212E-04   68.38783    
   3.548136       3.981075       0.000000       0.000000    
   3.981075       4.466839       0.000000       0.000000    
   4.466839       5.011876       0.000000       0.000000    
   5.011876       5.623418       0.000000       0.000000    
   5.623418       6.309578       0.000000       0.000000    
   6.309578       7.079463       0.000000       0.000000    
   7.079463       7.943289       0.000000       0.000000    
   7.943289       8.912516       0.000000       0.000000    
   8.912516       10.00001       0.000000       0.000000    


 # Detector n:            4   phDG1     
 # N. of energy intervals         120
  9.9999997E-06  1.1220184E-05   386.5205       33.43027    
  1.1220184E-05  1.2589254E-05   197.0362       47.04269    
  1.2589254E-05  1.4125375E-05   317.6234       60.77610    
  1.4125375E-05  1.5848931E-05   303.7262       34.04039    
  1.5848931E-05  1.7782793E-05   315.3328       28.90138    
  1.7782793E-05  1.9952624E-05   326.3797       38.63039    
  1.9952624E-05  2.2387210E-05   310.5009       28.32870    
  2.2387210E-05  2.5118865E-05   554.3340       20.78500    
  2.5118865E-05  2.8183831E-05   547.0912       19.22114    
  2.8183831E-05  3.1622778E-05   559.2130       16.87086    
  3.1622778E-05  3.5481338E-05   601.1872       18.24611    
  3.5481338E-05  3.9810719E-05   1017.343       11.83368    
  3.9810719E-05  4.4668363E-05   1391.495       9.831974    
  4.4668363E-05  5.0118728E-05   2892.120       6.287551    
  5.0118728E-05  5.6234134E-05   6139.550       4.091449    
  5.6234134E-05  6.3095737E-05   10061.15       2.927597    
  6.3095737E-05  7.0794587E-05   13729.13       2.405519    
  7.0794587E-05  7.9432837E-05   16825.47       2.017401    
  7.9432837E-05  8.9125104E-05   18602.55       1.830722    
  8.9125104E-05  1.0000000E-04   19733.44       1.662640    
  1.0000000E-04  1.1220186E-04   19303.42       1.572191    
  1.1220186E-04  1.2589256E-04   18042.59       1.561186    
  1.2589256E-04  1.4125377E-04   16123.51       1.540493    
  1.4125377E-04  1.5848935E-04   14489.87       1.592229    
  1.5848935E-04  1.7782798E-04   12982.48       1.558172    
  1.7782798E-04  1.9952627E-04   11122.12       1.570063    
  1.9952627E-04  2.2387214E-04   9469.373       1.620192    
  2.2387214E-04  2.5118867E-04   7877.096       1.665359    
  2.5118867E-04  2.8183835E-04   6426.801       1.737846    
  2.8183835E-04  3.1622782E-04   4968.702       1.874222    
  3.1622782E-04  3.5481344E-04   4178.826       1.973735    
  3.5481344E-04  3.9810725E-04   3587.750       2.024724    
  3.9810725E-04  4.4668367E-04   3189.715       1.982594    
  4.4668367E-04  5.0118734E-04   3973.059       1.661204    
  5.0118734E-04  5.6234142E-04   4235.311       1.562654    
  5.6234142E-04  6.3095748E-04   1585.808       2.405779    
  6.3095748E-04  7.0794590E-04   1394.749       2.428817    
  7.0794590E-04  7.9432846E-04   1361.661       2.223623    
  7.9432846E-04  8.9125114E-04   1424.044       2.164080    
  8.9125114E-04  1.0000003E-03   1189.436       2.142337    
  1.0000003E-03  1.1220188E-03   925.0577       2.389387    
  1.1220188E-03  1.2589258E-03   842.6483       2.317666    
  1.2589258E-03  1.4125380E-03   740.9955       2.315965    
  1.4125380E-03  1.5848936E-03   642.3199       2.289281    
  1.5848936E-03  1.7782800E-03   708.1977       2.141052    
  1.7782800E-03  1.9952629E-03   720.9302       1.989313    
  1.9952629E-03  2.2387218E-03   682.6843       1.946182    
  2.2387218E-03  2.5118871E-03   573.7242       1.956899    
  2.5118871E-03  2.8183837E-03   361.3333       2.341407    
  2.8183837E-03  3.1622786E-03   318.9980       2.364037    
  3.1622786E-03  3.5481353E-03   253.8531       2.512097    
  3.5481353E-03  3.9810729E-03   336.0298       2.052116    
  3.9810729E-03  4.4668377E-03   226.6288       2.331268    
  4.4668377E-03  5.0118743E-03   227.4211       2.172969    
  5.0118743E-03  5.6234146E-03   153.3782       2.587866    
  5.6234146E-03  6.3095763E-03   152.5516       2.441748    
  6.3095763E-03  7.0794607E-03   109.1611       2.745017    
  7.0794607E-03  7.9432856E-03   103.3433       2.662242    
  7.9432856E-03  8.9125130E-03   33.93742       4.509136    
  8.9125130E-03  1.0000004E-02   21.38682       5.230567    
  1.0000004E-02  1.1220189E-02   12.49417       6.656784    
  1.1220189E-02  1.2589260E-02   6.835057       8.045189    
  1.2589260E-02  1.4125382E-02   5.991699       8.178407    
  1.4125382E-02  1.5848938E-02   4.801441       9.148492    
  1.5848938E-02  1.7782802E-02   3.321052       10.09715    
  1.7782802E-02  1.9952632E-02   3.070159       10.10495    
  1.9952632E-02  2.2387221E-02   2.402534       10.54052    
  2.2387221E-02  2.5118876E-02   1.777979       11.73643    
  2.5118876E-02  2.8183842E-02   1.655483       11.97950    
  2.8183842E-02  3.1622794E-02   1.231570       12.43257    
  3.1622794E-02  3.5481352E-02  0.9395275       13.70964    
  3.5481352E-02  3.9810736E-02  0.6920630       14.59123    
  3.9810736E-02  4.4668384E-02  0.5153685       15.99967    
  4.4668384E-02  5.0118748E-02  0.4672163       15.85553    
  5.0118748E-02  5.6234159E-02  0.2482305       20.53934    
  5.6234159E-02  6.3095763E-02  0.2230901       20.06528    
  6.3095763E-02  7.0794620E-02  0.1702998       22.29836    
  7.0794620E-02  7.9432867E-02  0.2188542       19.32165    
  7.9432867E-02  8.9125134E-02  0.1599423       20.59696    
  8.9125134E-02  0.1000001      0.1208026       23.53028    
  0.1000001      0.1122019      6.8018965E-02   28.40208    
  0.1122019      0.1258926      6.3657463E-02   25.83146    
  0.1258926      0.1412538      6.3552022E-02   26.77663    
  0.1412538      0.1584894      2.9566208E-02   34.90085    
  0.1584894      0.1778280      2.2947367E-02   32.82182    
  0.1778280      0.1995264      2.9516140E-02   31.44838    
  0.1995264      0.2238722      2.4693353E-02   30.81226    
  0.2238722      0.2511888      1.0515095E-02   45.90583    
  0.2511888      0.2818385      2.6031362E-02   30.31742    
  0.2818385      0.3162280      6.1949226E-03   51.76955    
  0.3162280      0.3548136      3.6119928E-03   61.78260    
  0.3548136      0.3981074      1.5082331E-02   32.80851    
  0.3981074      0.4466839      4.9971729E-03   47.78973    
  0.4466839      0.5011876      2.7256235E-03   64.59971    
  0.5011876      0.5623417      4.5024697E-03   44.85375    
  0.5623417      0.6309578      3.3304654E-03   52.74743    
  0.6309578      0.7079462      9.2546601E-04   96.72620    
  0.7079462      0.7943288      2.4738114E-03   55.83549    
  0.7943288      0.8912516      5.7580706E-05   96.72620    
  0.8912516       1.000001      1.3817286E-03   80.87906    
   1.000001       1.122019      5.8772642E-04   96.72620    
   1.122019       1.258926      1.6305900E-04   96.72620    
   1.258926       1.412539       0.000000       0.000000    
   1.412539       1.584894      8.4256509E-04   68.38669    
   1.584894       1.778281      8.8713728E-05   96.72620    
   1.778281       1.995264      9.0446265E-05   83.92140    
   1.995264       2.238723      4.8556176E-05   96.72620    
   2.238723       2.511888       0.000000       0.000000    
   2.511888       2.818385       0.000000       0.000000    
   2.818385       3.162280       0.000000       0.000000    
   3.162280       3.548136      1.1021283E-04   96.72620    
   3.548136       3.981075       0.000000       0.000000    
   3.981075       4.466839       0.000000       0.000000    
   4.466839       5.011876       0.000000       0.000000    
   5.011876       5.623418       0.000000       0.000000    
   5.623418       6.309578       0.000000       0.000000    
   6.309578       7.079463       0.000000       0.000000    
   7.079463       7.943289       0.000000       0.000000    
   7.943289       8.912516       0.000000       0.000000    
   8.912516       10.00001       0.000000       0.000000    


 # Detector n:            5   epDG1     
 # N. of energy intervals         120
  9.9999997E-06  1.1220184E-05   0.000000       0.000000    
  1.1220184E-05  1.2589254E-05   0.000000       0.000000    
  1.2589254E-05  1.4125375E-05   0.000000       0.000000    
  1.4125375E-05  1.5848931E-05   0.000000       0.000000    
  1.5848931E-05  1.7782793E-05   0.000000       0.000000    
  1.7782793E-05  1.9952624E-05  0.1551754       96.72620    
  1.9952624E-05  2.2387210E-05   0.000000       0.000000    
  2.2387210E-05  2.5118865E-05   2.093140       27.71608    
  2.5118865E-05  2.8183831E-05   23.66398       7.067153    
  2.8183831E-05  3.1622778E-05   123.7610       3.432220    
  3.1622778E-05  3.5481338E-05   119.4305       3.662034    
  3.5481338E-05  3.9810719E-05   108.3592       3.964061    
  3.9810719E-05  4.4668363E-05   117.2110       3.897923    
  4.4668363E-05  5.0118728E-05   119.2843       4.189373    
  5.0118728E-05  5.6234134E-05   112.2197       4.257744    
  5.6234134E-05  6.3095737E-05   121.1522       4.295813    
  6.3095737E-05  7.0794587E-05   114.0829       4.535669    
  7.0794587E-05  7.9432837E-05   122.9601       4.594227    
  7.9432837E-05  8.9125104E-05   118.3693       4.742903    
  8.9125104E-05  1.0000000E-04   117.2659       4.756828    
  1.0000000E-04  1.1220186E-04   117.6961       4.890741    
  1.1220186E-04  1.2589256E-04   112.0063       5.084299    
  1.2589256E-04  1.4125377E-04   108.3374       5.389755    
  1.4125377E-04  1.5848935E-04   105.1441       5.370213    
  1.5848935E-04  1.7782798E-04   98.35767       5.347722    
  1.7782798E-04  1.9952627E-04   97.82154       5.292018    
  1.9952627E-04  2.2387214E-04   95.27820       5.312097    
  2.2387214E-04  2.5118867E-04   86.63532       5.458591    
  2.5118867E-04  2.8183835E-04   82.17735       5.787203    
  2.8183835E-04  3.1622782E-04   81.36086       5.854049    
  3.1622782E-04  3.5481344E-04   81.60681       5.987965    
  3.5481344E-04  3.9810725E-04   74.41934       6.109434    
  3.9810725E-04  4.4668367E-04   78.72322       6.087236    
  4.4668367E-04  5.0118734E-04   70.63145       6.503704    
  5.0118734E-04  5.6234142E-04   71.81129       6.502072    
  5.6234142E-04  6.3095748E-04   65.04803       6.830200    
  6.3095748E-04  7.0794590E-04   59.07310       7.273401    
  7.0794590E-04  7.9432846E-04   48.12624       7.574712    
  7.9432846E-04  8.9125114E-04   53.10415       7.292871    
  8.9125114E-04  1.0000003E-03   46.70760       7.630615    
  1.0000003E-03  1.1220188E-03   43.03536       7.769337    
  1.1220188E-03  1.2589258E-03   34.66837       8.393785    
  1.2589258E-03  1.4125380E-03   34.97102       8.033707    
  1.4125380E-03  1.5848936E-03   32.57858       8.037913    
  1.5848936E-03  1.7782800E-03   27.82955       8.894547    
  1.7782800E-03  1.9952629E-03   20.88538       9.314488    
  1.9952629E-03  2.2387218E-03   22.97001       9.116056    
  2.2387218E-03  2.5118871E-03   18.52394       9.267602    
  2.5118871E-03  2.8183837E-03   15.02510       10.13826    
  2.8183837E-03  3.1622786E-03   12.13436       11.05129    
  3.1622786E-03  3.5481353E-03   12.86655       10.01962    
  3.5481353E-03  3.9810729E-03   10.50189       10.32634    
  3.9810729E-03  4.4668377E-03   8.129862       11.43975    
  4.4668377E-03  5.0118743E-03   6.185553       13.46065    
  5.0118743E-03  5.6234146E-03   5.895559       12.22572    
  5.6234146E-03  6.3095763E-03   4.009358       13.76581    
  6.3095763E-03  7.0794607E-03   2.882060       15.17764    
  7.0794607E-03  7.9432856E-03   2.867945       15.42718    
  7.9432856E-03  8.9125130E-03   2.043262       16.51832    
  8.9125130E-03  1.0000004E-02   1.897617       17.18430    
  1.0000004E-02  1.1220189E-02   1.681678       17.12539    
  1.1220189E-02  1.2589260E-02   1.582411       17.03619    
  1.2589260E-02  1.4125382E-02   1.811533       14.85944    
  1.4125382E-02  1.5848938E-02   1.208109       17.03723    
  1.5848938E-02  1.7782802E-02  0.9257167       16.85350    
  1.7782802E-02  1.9952632E-02  0.6929142       19.41129    
  1.9952632E-02  2.2387221E-02  0.5964807       19.70357    
  2.2387221E-02  2.5118876E-02  0.6457404       18.78293    
  2.5118876E-02  2.8183842E-02  0.3047516       24.78986    
  2.8183842E-02  3.1622794E-02  0.3579094       20.61015    
  3.1622794E-02  3.5481352E-02  0.2476371       24.60539    
  3.5481352E-02  3.9810736E-02  0.3007198       20.31497    
  3.9810736E-02  4.4668384E-02  0.2492132       21.86960    
  4.4668384E-02  5.0118748E-02  0.1743387       25.83716    
  5.0118748E-02  5.6234159E-02  0.1952927       23.76269    
  5.6234159E-02  6.3095763E-02  0.1506979       25.32552    
  6.3095763E-02  7.0794620E-02  7.0366345E-02   35.42202    
  7.0794620E-02  7.9432867E-02  6.7404903E-02   32.89946    
  7.9432867E-02  8.9125134E-02  6.8107903E-02   30.58211    
  8.9125134E-02  0.1000001      6.5983929E-02   33.91674    
  0.1000001      0.1122019      2.0410141E-02   45.99729    
  0.1122019      0.1258926      4.4320203E-02   31.63139    
  0.1258926      0.1412538      4.5712210E-02   28.59000    
  0.1412538      0.1584894      9.2562819E-03   62.96342    
  0.1584894      0.1778280      1.1905168E-02   73.54984    
  0.1778280      0.1995264      1.6781112E-02   38.27503    
  0.1995264      0.2238722      7.8271674E-03   55.21949    
  0.2238722      0.2511888      6.1698477E-03   67.85000    
  0.2511888      0.2818385      2.0354199E-03   68.64171    
  0.2818385      0.3162280      4.5932494E-03   60.59074    
  0.3162280      0.3548136       0.000000       0.000000    
  0.3548136      0.3981074      2.4058162E-03   66.61666    
  0.3981074      0.4466839      1.6869706E-03   96.72620    
  0.4466839      0.5011876      1.0383516E-03   96.72620    
  0.5011876      0.5623417       0.000000       0.000000    
  0.5623417      0.6309578       0.000000       0.000000    
  0.6309578      0.7079462      1.8972560E-03   68.38437    
  0.7079462      0.7943288       0.000000       0.000000    
  0.7943288      0.8912516       0.000000       0.000000    
  0.8912516       1.000001       0.000000       0.000000    
   1.000001       1.122019       0.000000       0.000000    
   1.122019       1.258926       0.000000       0.000000    
   1.258926       1.412539       0.000000       0.000000    
   1.412539       1.584894       0.000000       0.000000    
   1.584894       1.778281      3.4018658E-04   96.72620    
   1.778281       1.995264       0.000000       0.000000    
   1.995264       2.238723       0.000000       0.000000    
   2.238723       2.511888       0.000000       0.000000    
   2.511888       2.818385       0.000000       0.000000    
   2.818385       3.162280       0.000000       0.000000    
   3.162280       3.548136       0.000000       0.000000    
   3.548136       3.981075       0.000000       0.000000    
   3.981075       4.466839       0.000000       0.000000    
   4.466839       5.011876       0.000000       0.000000    
   5.011876       5.623418       0.000000       0.000000    
   5.623418       6.309578       0.000000       0.000000    
   6.309578       7.079463       0.000000       0.000000    
   7.079463       7.943289       0.000000       0.000000    
   7.943289       8.912516       0.000000       0.000000    
   8.912516       10.00001       0.000000       0.000000    


 # Detector n:            6   nsDG1     
 # N. of energy intervals         260
  1.0000100E-14  2.0000000E-13   0.000000       0.000000    
  2.0000000E-13  2.9297300E-13  5.5554342E+08   96.72620    
  2.9297300E-13  4.2916701E-13  7.1139098E+08   71.23908    
  4.2916701E-13  6.2867300E-13  1.1984663E+09   46.50912    
  6.2867300E-13  9.2092198E-13  1.6850426E+09   34.13892    
  9.2092198E-13  1.3490300E-12  2.3723236E+09   24.48991    
  1.3490300E-12  1.9761499E-12  2.8507622E+09   18.23556    
  1.9761499E-12  2.8947901E-12  5.7213850E+09   10.40714    
  2.8947901E-12  4.2404799E-12  6.8408991E+09   7.799598    
  4.2404799E-12  6.2117499E-12  1.0571807E+10   5.371875    
  6.2117499E-12  9.0993801E-12  1.4399753E+10   3.761232    
  9.0993801E-12  1.3329400E-11  1.8968594E+10   2.716110    
  1.3329400E-11  1.9525799E-11  2.3216210E+10   2.052904    
  1.9525799E-11  2.8602700E-11  2.7668646E+10   1.574646    
  2.8602700E-11  4.1899099E-11  2.7223810E+10   1.262581    
  4.1899099E-11  6.1376598E-11  2.2970196E+10   1.167816    
  6.1376598E-11  8.9908601E-11  1.4798250E+10   1.197539    
  8.9908601E-11  1.3170399E-10  6.7590257E+09   1.488044    
  1.3170399E-10  1.9292901E-10  2.6676918E+09   1.924129    
  1.9292901E-10  2.8261499E-10  1.2550200E+09   2.283739    
  2.8261499E-10  4.1399401E-10  6.9593562E+08   2.568756    
  4.1399401E-10  5.3157900E-10  5.0307744E+08   3.144646    
  5.3157900E-10  6.2506200E-10  4.2946330E+08   3.797289    
  6.2506200E-10  6.8256001E-10  3.5679434E+08   5.417911    
  6.8256001E-10  8.3368101E-10  2.9187088E+08   3.711382    
  8.3368101E-10  8.7642499E-10  3.0021485E+08   6.831130    
  8.7642499E-10  1.1253500E-09  2.5106459E+08   3.207022    
  1.1253500E-09  1.4449800E-09  1.9536334E+08   3.086905    
  1.4449800E-09  1.8553900E-09  1.3801203E+08   3.232631    
  1.8553900E-09  2.3823701E-09  1.1222857E+08   3.168612    
  2.3823701E-09  3.0590199E-09  9.6983944E+07   3.012171    
  3.0590199E-09  3.9278598E-09  7.1884360E+07   2.995550    
  3.9278598E-09  5.0434799E-09  5.8147488E+07   2.939728    
  5.0434799E-09  6.4759500E-09  4.6638372E+07   3.016867    
  6.4759500E-09  8.3152898E-09  3.5125840E+07   2.986977    
  8.3152898E-09  1.0677000E-08  2.8290926E+07   3.044947    
  1.0677000E-08  1.3709600E-08  2.2166506E+07   2.982898    
  1.3709600E-08  1.7603501E-08  1.8038580E+07   2.911822    
  1.7603501E-08  2.2603301E-08  1.3357216E+07   3.035479    
  2.2603301E-08  2.9023200E-08  1.0484579E+07   2.956574    
  2.9023200E-08  3.7266499E-08   8096419.       2.962568    
  3.7266499E-08  4.7851199E-08   6512232.       3.101273    
  4.7851199E-08  6.1442101E-08   5190074.       2.891013    
  6.1442101E-08  7.8893301E-08   3956422.       2.915736    
  7.8893301E-08  1.0130100E-07   3247935.       2.917134    
  1.0130100E-07  1.3007300E-07   2511622.       2.921203    
  1.3007300E-07  1.6701701E-07   1862888.       2.921567    
  1.6701701E-07  2.1445400E-07   1510119.       2.843902    
  2.1445400E-07  2.7536399E-07   1211373.       2.741762    
  2.7536399E-07  3.5357499E-07   977562.7       2.929425    
  3.5357499E-07  4.5399901E-07   741052.6       2.847029    
  4.5399901E-07  5.8294700E-07   578395.9       2.849506    
  5.8294700E-07  7.4851800E-07   430699.0       2.952875    
  7.4851800E-07  9.6111603E-07   343650.9       2.797060    
  9.6111603E-07  1.2341000E-06   271004.5       2.913863    
  1.2341000E-06  1.3638900E-06   247135.9       4.387882    
  1.3638900E-06  1.5073300E-06   242025.1       4.180005    
  1.5073300E-06  1.5846100E-06   207706.4       6.057870    
  1.5846100E-06  1.6658601E-06   188209.3       6.350376    
  1.6658601E-06  1.8410600E-06   182694.6       4.414908    
  1.8410600E-06  2.0346799E-06   154035.2       4.437208    
  2.0346799E-06  2.2486699E-06   145887.3       4.354178    
  2.2486699E-06  2.4851699E-06   138983.5       4.284687    
  2.4851699E-06  2.6125899E-06   116840.4       6.249898    
  2.6125899E-06  2.7465401E-06   105138.7       6.553162    
  2.7465401E-06  2.8634900E-06   102104.3       7.185292    
  2.8634900E-06  3.0353899E-06   80895.26       6.656033    
  3.0353899E-06  3.3546301E-06   98665.68       4.346264    
  3.3546301E-06  3.7074401E-06   92151.54       4.352412    
  3.7074401E-06  4.0973500E-06   85417.25       4.311001    
  4.0973500E-06  4.3074201E-06   87193.55       5.798825    
  4.3074201E-06  4.5282700E-06   68730.19       6.320339    
  4.5282700E-06  5.0045101E-06   66839.65       4.314384    
  5.0045101E-06  5.5308401E-06   70176.78       4.046786    
  5.5308401E-06  6.2672698E-06   51586.17       3.904488    
  6.2672698E-06  7.1017398E-06   45424.82       3.956566    
  7.1017398E-06  8.0473301E-06   35702.58       4.231389    
  8.0473301E-06  9.1188203E-06   34169.50       4.086190    
  9.1188203E-06  1.0333000E-05   32185.78       3.841525    
  1.0333000E-05  1.1708800E-05   31398.36       3.766048    
  1.1708800E-05  1.3267800E-05   28267.59       3.659141    
  1.3267800E-05  1.5034400E-05   24301.33       3.748517    
  1.5034400E-05  1.7036200E-05   21012.93       3.876541    
  1.7036200E-05  1.9304500E-05   22093.03       3.525472    
  1.9304500E-05  2.1334799E-05   21548.86       3.674570    
  2.1334799E-05  2.1874899E-05   18880.24       7.754575    
  2.1874899E-05  2.3578599E-05   19912.06       4.245293    
  2.3578599E-05  2.4175501E-05   20402.10       7.207211    
  2.4175501E-05  2.4787500E-05   23878.06       6.426329    
  2.4787500E-05  2.6058400E-05   21433.52       4.831863    
  2.6058400E-05  2.8087899E-05   11252.89       5.109524    
  2.8087899E-05  3.1827800E-05   9559.281       4.067139    
  3.1827800E-05  3.4306700E-05   9990.629       4.826114    
  3.4306700E-05  3.5175199E-05   9647.898       8.577058    
  3.5175199E-05  3.6065601E-05   8943.575       8.994298    
  3.6065601E-05  4.0867701E-05   9139.797       3.630656    
  4.0867701E-05  4.6309200E-05   8120.609       3.708306    
  4.6309200E-05  5.2475199E-05   7653.842       3.560746    
  5.2475199E-05  5.6562199E-05   6567.459       4.800642    
  5.6562199E-05  5.9462200E-05   6043.909       5.799292    
  5.9462200E-05  6.2510902E-05   6926.170       5.213700    
  6.2510902E-05  6.7379500E-05   6764.766       4.294107    
  6.7379500E-05  7.6350902E-05   6078.702       3.268874    
  7.6350902E-05  8.6516899E-05   5790.708       3.302108    
  8.6516899E-05  9.8036500E-05   4865.588       3.333505    
  9.8036500E-05  1.1109000E-04   4397.682       3.248095    
  1.1109000E-04  1.1678600E-04   4355.587       4.934475    
  1.1678600E-04  1.2277300E-04   4508.628       4.581802    
  1.2277300E-04  1.2906799E-04   5080.133       4.423033    
  1.2906799E-04  1.3568600E-04   3752.986       4.897637    
  1.3568600E-04  1.4264201E-04   3480.060       5.013070    
  1.4264201E-04  1.4995600E-04   3510.634       4.793892    
  1.4995600E-04  1.5764400E-04   3846.224       4.530074    
  1.5764400E-04  1.6163501E-04   4544.924       5.916512    
  1.6163501E-04  1.6572700E-04   4300.944       5.986737    
  1.6572700E-04  1.6992200E-04   3428.522       6.511059    
  1.6992200E-04  1.7422400E-04   3140.963       6.607773    
  1.7422400E-04  1.8315599E-04   3459.409       4.474310    
  1.8315599E-04  1.9254700E-04   2581.076       4.978657    
  1.9254700E-04  2.0241900E-04   2858.390       4.665062    
  2.0241900E-04  2.1279699E-04   2952.794       4.512384    
  2.1279699E-04  2.2370800E-04   2676.180       4.634491    
  2.2370800E-04  2.3517800E-04   2700.995       4.445483    
  2.3517800E-04  2.4723500E-04   2848.913       4.328773    
  2.4723500E-04  2.5991100E-04   2656.926       4.292273    
  2.5991100E-04  2.7323700E-04   2810.090       4.095151    
  2.7323700E-04  2.8015400E-04   2394.308       5.988253    
  2.8015400E-04  2.8724599E-04   2352.647       6.087627    
  2.8724599E-04  2.9451799E-04   2350.838       5.870518    
  2.9451799E-04  3.0197401E-04   2669.514       5.543157    
  3.0197401E-04  3.0961799E-04   3199.185       4.846703    
  3.0961799E-04  3.1745600E-04   2805.164       5.288610    
  3.1745600E-04  3.3373301E-04   1847.890       4.522552    
  3.3373301E-04  3.5084400E-04   2029.643       4.200799    
  3.5084400E-04  3.6883200E-04   1664.649       4.444554    
  3.6883200E-04  3.8774201E-04   1304.854       5.022032    
  3.8774201E-04  4.0762199E-04   1172.301       5.084875    
  4.0762199E-04  4.2852099E-04   1012.708       5.148741    
  4.2852099E-04  4.5049199E-04   953.4614       5.562926    
  4.5049199E-04  4.7358900E-04   1243.811       4.538313    
  4.7358900E-04  4.9787102E-04   1534.032       4.055856    
  4.9787102E-04  5.1047403E-04   1546.505       5.405535    
  5.1047403E-04  5.2339700E-04   1500.158       5.495697    
  5.2339700E-04  5.3664698E-04   1630.264       5.344546    
  5.3664698E-04  5.5023201E-04   1575.838       5.344367    
  5.5023201E-04  5.7844300E-04   1497.242       3.768845    
  5.7844300E-04  6.0810102E-04   1597.815       3.624699    
  6.0810102E-04  6.3927902E-04   1575.957       3.595582    
  6.3927902E-04  6.7205500E-04   1490.896       3.562493    
  6.7205500E-04  7.0651202E-04   1366.948       3.633168    
  7.0651202E-04  7.4273598E-04   1367.086       3.570849    
  7.4273598E-04  7.8081700E-04   1272.948       3.566487    
  7.8081700E-04  8.2085002E-04   1234.275       3.536163    
  8.2085002E-04  8.6293602E-04   1080.227       3.637287    
  8.6293602E-04  9.0717903E-04   946.6556       3.883775    
  9.0717903E-04  9.5369201E-04   744.2972       4.204784    
  9.5369201E-04  9.6163998E-04   783.4310       9.849779    
  9.6163998E-04  9.7783399E-04   671.6300       7.758899    
  9.7783399E-04  1.0025901E-03   597.9764       6.396120    
  1.0025901E-03  1.0539900E-03   546.7393       4.666244    
  1.0539900E-03  1.1080300E-03   678.7812       4.094208    
  1.1080300E-03  1.1648400E-03   736.5624       3.732826    
  1.1648400E-03  1.1943300E-03   733.5944       5.211161    
  1.1943300E-03  1.2245600E-03   801.1050       5.007709    
  1.2245600E-03  1.2873500E-03   696.2731       3.736596    
  1.2873500E-03  1.3533500E-03   527.7130       4.319821    
  1.3533500E-03  1.4227401E-03   687.5404       3.596433    
  1.4227401E-03  1.4956900E-03   596.5182       3.772487    
  1.4956900E-03  1.5335500E-03   552.1432       5.527793    
  1.5335500E-03  1.5723699E-03   496.4263       5.556726    
  1.5723699E-03  1.6121800E-03   568.7905       5.168693    
  1.6121800E-03  1.6529900E-03   486.5750       5.705026    
  1.6529900E-03  1.7377400E-03   527.3372       3.782531    
  1.7377400E-03  1.8268300E-03   468.4063       3.877035    
  1.8268300E-03  1.8730800E-03   365.4126       5.960996    
  1.8730800E-03  1.9205000E-03   363.5089       5.957166    
  1.9205000E-03  1.9691200E-03   373.8495       5.830391    
  1.9691200E-03  2.0189700E-03   408.9397       5.474116    
  2.0189700E-03  2.1224800E-03   396.5770       3.880256    
  2.1224800E-03  2.2313001E-03   448.4969       3.600359    
  2.2313001E-03  2.2688799E-03   479.4070       5.794427    
  2.2688799E-03  2.3068599E-03   418.7979       6.186827    
  2.3068599E-03  2.3457000E-03   558.2457       5.348071    
  2.3457000E-03  2.3652499E-03   593.9549       7.223308    
  2.3652499E-03  2.3852000E-03   499.2645       7.790269    
  2.3852000E-03  2.4251300E-03   417.7385       6.046607    
  2.4251300E-03  2.4659701E-03   389.9958       6.218600    
  2.4659701E-03  2.5923999E-03   377.9648       3.545921    
  2.5923999E-03  2.7253199E-03   352.1918       3.553946    
  2.7253199E-03  2.8650500E-03   264.1768       4.130094    
  2.8650500E-03  3.0119400E-03   216.1326       4.321647    
  3.0119400E-03  3.0881900E-03   226.4837       5.990186    
  3.0881900E-03  3.1663701E-03   194.2306       6.192443    
  3.1663701E-03  3.2465300E-03   175.9757       6.421128    
  3.2465300E-03  3.3287101E-03   148.0597       7.136612    
  3.3287101E-03  3.4993801E-03   133.4056       5.205030    
  3.4993801E-03  3.6787901E-03   128.8072       5.027642    
  3.6787901E-03  3.8674099E-03   120.2516       5.024052    
  3.8674099E-03  4.0656999E-03   124.8691       5.026952    
  4.0656999E-03  4.2741499E-03   121.9621       4.834720    
  4.2741499E-03  4.4932901E-03   101.1233       5.151777    
  4.4932901E-03  4.6070400E-03   97.37926       7.409589    
  4.6070400E-03  4.7236700E-03   106.7315       6.908684    
  4.7236700E-03  4.8432499E-03   99.01450       6.934579    
  4.8432499E-03  4.9658502E-03   101.0231       6.904862    
  4.9658502E-03  5.2204598E-03   89.58149       5.145428    
  5.2204598E-03  5.4881200E-03   88.67085       5.054643    
  5.4881200E-03  5.7695000E-03   66.10203       5.780847    
  5.7695000E-03  5.9155500E-03   73.36629       7.725857    
  5.9155500E-03  6.0653100E-03   61.68438       8.025929    
  6.0653100E-03  6.2188501E-03   56.59286       8.584950    
  6.2188501E-03  6.3762800E-03   61.26095       7.819367    
  6.3762800E-03  6.5377001E-03   59.40009       7.963241    
  6.5377001E-03  6.5923799E-03   57.48299       13.65863    
  6.5923799E-03  6.6475999E-03   54.94492       14.75449    
  6.6475999E-03  6.7031998E-03   64.60026       12.86946    
  6.7031998E-03  6.8728901E-03   54.54823       7.874095    
  6.8728901E-03  7.0468802E-03   53.08584       8.056312    
  7.0468802E-03  7.2252699E-03   44.27874       9.188604    
  7.2252699E-03  7.4081798E-03   49.26344       8.407700    
  7.4081798E-03  7.5957198E-03   43.20557       8.717871    
  7.5957198E-03  7.7880099E-03   41.70604       8.860810    
  7.7880099E-03  7.9851598E-03   39.95240       9.238076    
  7.9851598E-03  8.1873098E-03   38.89817       8.842422    
  8.1873098E-03  8.3945701E-03   34.80454       9.004024    
  8.3945701E-03  8.6070802E-03   33.70650       9.284518    
  8.6070802E-03  8.8249696E-03   38.42546       8.891297    
  8.8249696E-03  9.0483697E-03   31.77780       8.845248    
  9.0483697E-03  9.2774397E-03   36.67365       8.632986    
  9.2774397E-03  9.5122904E-03   32.96485       9.080987    
  9.5122904E-03  9.7530996E-03   30.89499       8.918865    
  9.7530996E-03  9.9999998E-03   26.58693       9.352983    
  9.9999998E-03  1.0253200E-02   30.27599       8.846276    
  1.0253200E-02  1.0512700E-02   29.27077       9.085711    
  1.0512700E-02  1.0778800E-02   36.08593       7.541944    
  1.0778800E-02  1.1051700E-02   30.14435       9.177547    
  1.1051700E-02  1.1331500E-02   27.58720       9.463318    
  1.1331500E-02  1.1618300E-02   24.43913       9.118113    
  1.1618300E-02  1.1912500E-02   23.12625       9.633245    
  1.1912500E-02  1.2214000E-02   20.78114       10.15585    
  1.2214000E-02  1.2523200E-02   17.84480       10.08903    
  1.2523200E-02  1.2840200E-02   23.18894       9.066280    
  1.2840200E-02  1.3165300E-02   20.18749       9.781722    
  1.3165300E-02  1.3498600E-02   24.25290       8.530777    
  1.3498600E-02  1.3840300E-02   21.95171       8.960505    
  1.3840300E-02  1.4190700E-02   21.82214       8.922310    
  1.4190700E-02  1.4549900E-02   21.70503       8.616714    
  1.4549900E-02  1.4918300E-02   19.75937       9.010689    
  1.4918300E-02  1.5295900E-02   18.11952       9.244393    
  1.5295900E-02  1.5683100E-02   18.83765       9.241082    
  1.5683100E-02  1.6080100E-02   20.85858       8.735585    
  1.6080100E-02  1.6487200E-02   21.70986       8.293825    
  1.6487200E-02  1.6904600E-02   20.36483       8.466879    
  1.6904600E-02  1.7332500E-02   14.95580       9.539311    
  1.7332500E-02  1.7771300E-02   20.16645       8.015121    
  1.7771300E-02  1.8221200E-02   17.50679       8.604183    
  1.8221200E-02  1.8682500E-02   17.45806       8.629291    
  1.8682500E-02  1.9155400E-02   15.75746       9.560077    
  1.9155400E-02  1.9640300E-02   19.66127       8.186585    
  1.9640300E-02  2.0000000E-02   17.75720       9.644806    


 # Detector n:            7   nfDG1     
 # N. of energy intervals         120
  2.0000000E-02  2.1063058E-02   17.62386       5.737778    
  2.1063058E-02  2.2182621E-02   15.69201       5.733902    
  2.2182621E-02  2.3361692E-02   16.45994       5.733899    
  2.3361692E-02  2.4603436E-02   15.43909       5.763668    
  2.4603436E-02  2.5911180E-02   13.54528       5.895398    
  2.5911180E-02  2.7288437E-02   14.99273       5.407051    
  2.7288437E-02  2.8738894E-02   14.78205       5.335395    
  2.8738894E-02  3.0266454E-02   16.83642       4.854036    
  3.0266454E-02  3.1875204E-02   14.20792       5.056609    
  3.1875204E-02  3.3569463E-02   14.88243       4.880733    
  3.3569463E-02  3.5353780E-02   13.41793       5.006658    
  3.5353780E-02  3.7232935E-02   14.31527       4.783225    
  3.7232935E-02  3.9211977E-02   13.40425       4.717653    
  3.9211977E-02  4.1296210E-02   14.84991       4.368044    
  4.1296210E-02  4.3491218E-02   12.85257       4.648477    
  4.3491218E-02  4.5802910E-02   13.09771       4.421978    
  4.5802910E-02  4.8237469E-02   13.23637       4.398879    
  4.8237469E-02  5.0801434E-02   13.29772       4.187792    
  5.0801434E-02  5.3501677E-02   12.63075       4.178417    
  5.3501677E-02  5.6345452E-02   13.38433       3.975164    
  5.6345452E-02  5.9340376E-02   12.40532       4.103417    
  5.9340376E-02  6.2494490E-02   11.96309       4.092391    
  6.2494490E-02  6.5816253E-02   11.45509       4.022450    
  6.5816253E-02  6.9314592E-02   12.18023       3.758343    
  6.9314592E-02  7.2998859E-02   11.54333       3.731691    
  7.2998859E-02  7.6878957E-02   11.17575       3.714493    
  7.6878957E-02  8.0965310E-02   10.09044       3.777267    
  8.0965310E-02  8.5268848E-02   9.715081       3.859836    
  8.5268848E-02  8.9801140E-02   8.901914       3.895717    
  8.9801140E-02  9.4574332E-02   8.831289       3.843302    
  9.4574332E-02  9.9601232E-02   8.003969       3.937710    
  9.9601232E-02  0.1048953       8.078882       3.802792    
  0.1048953      0.1104708       7.249844       3.829031    
  0.1104708      0.1163427       7.027791       3.757736    
  0.1163427      0.1225266       6.353765       3.989654    
  0.1225266      0.1290393       6.369390       3.790721    
  0.1290393      0.1358981       5.400945       4.033678    
  0.1358981      0.1431215       5.434519       3.974139    
  0.1431215      0.1507288       4.770185       4.119104    
  0.1507288      0.1587405       4.713173       4.053220    
  0.1587405      0.1671780       4.006241       4.148037    
  0.1671780      0.1760640       3.482174       4.357896    
  0.1760640      0.1854223       2.979616       4.655032    
  0.1854223      0.1952781       2.835614       4.559679    
  0.1952781      0.2056577       2.118754       5.390081    
  0.2056577      0.2165890       1.946142       5.225224    
  0.2165890      0.2281013       1.730991       5.502960    
  0.2281013      0.2402256       1.578928       5.808674    
  0.2402256      0.2529943       1.433437       5.802935    
  0.2529943      0.2664417       1.129096       6.185127    
  0.2664417      0.2806039       1.007095       6.574962    
  0.2806039      0.2955188      0.7831298       6.990654    
  0.2955188      0.3112265      0.7323710       7.220543    
  0.3112265      0.3277690      0.5356196       8.360758    
  0.3277690      0.3451909      0.4629143       8.635370    
  0.3451909      0.3635389      0.4217149       9.181828    
  0.3635389      0.3828620      0.3023409       9.939061    
  0.3828620      0.4032122      0.2726243       9.874117    
  0.4032122      0.4246442      0.2436890       10.88408    
  0.4246442      0.4472153      0.2031240       11.20491    
  0.4472153      0.4709860      0.1652376       12.77352    
  0.4709860      0.4960204      0.1613140       12.31002    
  0.4960204      0.5223852      0.1112307       14.05596    
  0.5223852      0.5501516      0.1123808       13.58622    
  0.5501516      0.5793938      0.1202867       13.09339    
  0.5793938      0.6101903      8.7261714E-02   15.16839    
  0.6101903      0.6426237      7.6280296E-02   15.65968    
  0.6426237      0.6767811      8.2600959E-02   15.23061    
  0.6767811      0.7127540      3.6564283E-02   21.95696    
  0.7127540      0.7506390      3.4213725E-02   28.04239    
  0.7506390      0.7905375      5.3054698E-02   16.71395    
  0.7905375      0.8325570      2.1438200E-02   27.30263    
  0.8325570      0.8768098      3.1036686E-02   20.72042    
  0.8768098      0.9234148      2.8729044E-02   21.89402    
  0.9234148      0.9724970      1.8216116E-02   27.48652    
  0.9724970       1.024188      1.6672352E-02   32.06058    
   1.024188       1.078627      9.3237720E-03   34.68853    
   1.078627       1.135959      1.2463722E-02   29.11960    
   1.135959       1.196338      9.1195470E-03   33.97335    
   1.196338       1.259927      8.5319309E-03   35.03424    
   1.259927       1.326896      6.5883799E-03   39.47062    
   1.326896       1.397425      5.0764205E-03   36.58087    
   1.397425       1.471702      4.1974625E-03   42.26899    
   1.471702       1.549927      4.9339454E-03   39.25287    
   1.549927       1.632310      1.8386545E-03   63.54839    
   1.632310       1.719072      9.8754058E-04   69.64366    
   1.719072       1.810446      1.4470011E-03   64.57724    
   1.810446       1.906677      1.5114376E-03   65.67639    
   1.906677       2.008022      1.3759041E-03   71.39642    
   2.008022       2.114754      1.4152948E-03   62.62632    
   2.114754       2.227160      1.1476706E-03   68.86865    
   2.227160       2.345540      3.4703978E-03   40.16617    
   2.345540       2.470212       0.000000       0.000000    
   2.470212       2.601511      2.7127546E-04   96.72620    
   2.601511       2.739789       0.000000       0.000000    
   2.739789       2.885417      4.8551496E-04   70.36070    
   2.885417       3.038786      4.7153854E-04   96.72620    
   3.038786       3.200306       0.000000       0.000000    
   3.200306       3.370412       0.000000       0.000000    
   3.370412       3.549559      2.3570060E-04   96.72620    
   3.549559       3.738229       0.000000       0.000000    
   3.738229       3.936927      3.2382432E-04   81.98351    
   3.936927       4.146185      3.4355273E-04   96.72620    
   4.146185       4.366568       0.000000       0.000000    
   4.366568       4.598663      9.5109208E-05   96.72620    
   4.598663       4.843096       0.000000       0.000000    
   4.843096       5.100521       0.000000       0.000000    
   5.100521       5.371628       0.000000       0.000000    
   5.371628       5.657146       0.000000       0.000000    
   5.657146       5.957840       0.000000       0.000000    
   5.957840       6.274517       0.000000       0.000000    
   6.274517       6.608026       0.000000       0.000000    
   6.608026       6.959262      1.7944473E-04   96.72620    
   6.959262       7.329167       0.000000       0.000000    
   7.329167       7.718733       0.000000       0.000000    
   7.718733       8.129007       0.000000       0.000000    
   8.129007       8.561088       0.000000       0.000000    
   8.561088       9.016134       0.000000       0.000000    
   9.016134       9.495368       0.000000       0.000000    
   9.495368       10.00008       0.000000       0.000000    
